ISO-10303-21;
HEADER;
FILE_DESCRIPTION( ( '' ), ' ' );
FILE_NAME( '/vol/tmp/translate-7826914331217901763/5eb6c65c419a1115cac9500a.step', '2020-05-09T15:03:57', ( '' ), ( '' ), ' ', ' ', ' ' );
FILE_SCHEMA( ( 'AUTOMOTIVE_DESIGN { 1 0 10303 214 1 1 1 1 }' ) );
ENDSEC;
DATA;
#1 = MECHANICAL_DESIGN_GEOMETRIC_PRESENTATION_REPRESENTATION( ' ', ( #10, #11, #12, #13, #14, #15, #16, #17, #18, #19, #20, #21 ), #6 );
#2 = PRODUCT_DEFINITION_CONTEXT( '', #22, 'design' );
#3 = APPLICATION_PROTOCOL_DEFINITION( 'international standard', 'automotive_design', 2001, #22 );
#4 = PRODUCT_CATEGORY_RELATIONSHIP( 'NONE', 'NONE', #23, #24 );
#5 = SHAPE_DEFINITION_REPRESENTATION( #25, #26 );
#6 =  ( GEOMETRIC_REPRESENTATION_CONTEXT( 3 )GLOBAL_UNCERTAINTY_ASSIGNED_CONTEXT( ( #29 ) )GLOBAL_UNIT_ASSIGNED_CONTEXT( ( #31, #32, #33 ) )REPRESENTATION_CONTEXT( 'NONE', 'WORKSPACE' ) );
#10 = STYLED_ITEM( '', ( #35 ), #36 );
#11 = STYLED_ITEM( '', ( #37 ), #38 );
#12 = STYLED_ITEM( '', ( #39 ), #40 );
#13 = STYLED_ITEM( '', ( #41 ), #42 );
#14 = STYLED_ITEM( '', ( #43 ), #44 );
#15 = STYLED_ITEM( '', ( #45 ), #46 );
#16 = STYLED_ITEM( '', ( #47 ), #48 );
#17 = STYLED_ITEM( '', ( #49 ), #50 );
#18 = STYLED_ITEM( '', ( #51 ), #52 );
#19 = STYLED_ITEM( '', ( #53 ), #54 );
#20 = STYLED_ITEM( '', ( #55 ), #56 );
#21 = STYLED_ITEM( '', ( #57 ), #58 );
#22 = APPLICATION_CONTEXT( 'core data for automotive mechanical design processes' );
#23 = PRODUCT_CATEGORY( 'part', 'NONE' );
#24 = PRODUCT_RELATED_PRODUCT_CATEGORY( 'detail', ' ', ( #59 ) );
#25 = PRODUCT_DEFINITION_SHAPE( 'NONE', 'NONE', #60 );
#26 = ADVANCED_BREP_SHAPE_REPRESENTATION( 'Batterie', ( #61, #62 ), #6 );
#29 = UNCERTAINTY_MEASURE_WITH_UNIT( LENGTH_MEASURE( 1.00000000000000E-06 ), #31, '', '' );
#31 =  ( CONVERSION_BASED_UNIT( 'METRE', #65 )LENGTH_UNIT(  )NAMED_UNIT( #68 ) );
#32 =  ( NAMED_UNIT( #70 )PLANE_ANGLE_UNIT(  )SI_UNIT( $, .RADIAN. ) );
#33 =  ( NAMED_UNIT( #70 )SI_UNIT( $, .STERADIAN. )SOLID_ANGLE_UNIT(  ) );
#35 = PRESENTATION_STYLE_ASSIGNMENT( ( #76 ) );
#36 = ADVANCED_FACE( '', ( #77 ), #78, .T. );
#37 = PRESENTATION_STYLE_ASSIGNMENT( ( #79 ) );
#38 = ADVANCED_FACE( '', ( #80 ), #81, .F. );
#39 = PRESENTATION_STYLE_ASSIGNMENT( ( #82 ) );
#40 = ADVANCED_FACE( '', ( #83 ), #84, .F. );
#41 = PRESENTATION_STYLE_ASSIGNMENT( ( #85 ) );
#42 = ADVANCED_FACE( '', ( #86 ), #87, .T. );
#43 = PRESENTATION_STYLE_ASSIGNMENT( ( #88 ) );
#44 = ADVANCED_FACE( '', ( #89 ), #90, .F. );
#45 = PRESENTATION_STYLE_ASSIGNMENT( ( #91 ) );
#46 = ADVANCED_FACE( '', ( #92 ), #93, .F. );
#47 = PRESENTATION_STYLE_ASSIGNMENT( ( #94 ) );
#48 = ADVANCED_FACE( '', ( #95 ), #96, .F. );
#49 = PRESENTATION_STYLE_ASSIGNMENT( ( #97 ) );
#50 = ADVANCED_FACE( '', ( #98 ), #99, .T. );
#51 = PRESENTATION_STYLE_ASSIGNMENT( ( #100 ) );
#52 = ADVANCED_FACE( '', ( #101 ), #102, .T. );
#53 = PRESENTATION_STYLE_ASSIGNMENT( ( #103 ) );
#54 = ADVANCED_FACE( '', ( #104 ), #105, .T. );
#55 = PRESENTATION_STYLE_ASSIGNMENT( ( #106 ) );
#56 = ADVANCED_FACE( '', ( #107 ), #108, .T. );
#57 = PRESENTATION_STYLE_ASSIGNMENT( ( #109 ) );
#58 = ADVANCED_FACE( '', ( #110 ), #111, .T. );
#59 = PRODUCT( 'Batterie', 'Batterie', 'PART-Batterie-DESC', ( #112 ) );
#60 = PRODUCT_DEFINITION( 'NONE', 'NONE', #113, #2 );
#61 = MANIFOLD_SOLID_BREP( 'Batterie', #114 );
#62 = AXIS2_PLACEMENT_3D( '', #115, #116, #117 );
#65 = LENGTH_MEASURE_WITH_UNIT( LENGTH_MEASURE( 1.00000000000000 ), #118 );
#68 = DIMENSIONAL_EXPONENTS( 1.00000000000000, 0.00000000000000, 0.00000000000000, 0.00000000000000, 0.00000000000000, 0.00000000000000, 0.00000000000000 );
#70 = DIMENSIONAL_EXPONENTS( 0.00000000000000, 0.00000000000000, 0.00000000000000, 0.00000000000000, 0.00000000000000, 0.00000000000000, 0.00000000000000 );
#76 = SURFACE_STYLE_USAGE( .BOTH., #119 );
#77 = FACE_OUTER_BOUND( '', #120, .T. );
#78 = PLANE( '', #121 );
#79 = SURFACE_STYLE_USAGE( .BOTH., #122 );
#80 = FACE_OUTER_BOUND( '', #123, .T. );
#81 = PLANE( '', #124 );
#82 = SURFACE_STYLE_USAGE( .BOTH., #125 );
#83 = FACE_OUTER_BOUND( '', #126, .T. );
#84 = PLANE( '', #127 );
#85 = SURFACE_STYLE_USAGE( .BOTH., #128 );
#86 = FACE_OUTER_BOUND( '', #129, .T. );
#87 = PLANE( '', #130 );
#88 = SURFACE_STYLE_USAGE( .BOTH., #131 );
#89 = FACE_OUTER_BOUND( '', #132, .T. );
#90 = PLANE( '', #133 );
#91 = SURFACE_STYLE_USAGE( .BOTH., #134 );
#92 = FACE_OUTER_BOUND( '', #135, .T. );
#93 = PLANE( '', #136 );
#94 = SURFACE_STYLE_USAGE( .BOTH., #137 );
#95 = FACE_OUTER_BOUND( '', #138, .T. );
#96 = PLANE( '', #139 );
#97 = SURFACE_STYLE_USAGE( .BOTH., #140 );
#98 = FACE_OUTER_BOUND( '', #141, .T. );
#99 = PLANE( '', #142 );
#100 = SURFACE_STYLE_USAGE( .BOTH., #143 );
#101 = FACE_OUTER_BOUND( '', #144, .T. );
#102 = PLANE( '', #145 );
#103 = SURFACE_STYLE_USAGE( .BOTH., #146 );
#104 = FACE_OUTER_BOUND( '', #147, .T. );
#105 = PLANE( '', #148 );
#106 = SURFACE_STYLE_USAGE( .BOTH., #149 );
#107 = FACE_OUTER_BOUND( '', #150, .T. );
#108 = PLANE( '', #151 );
#109 = SURFACE_STYLE_USAGE( .BOTH., #152 );
#110 = FACE_OUTER_BOUND( '', #153, .T. );
#111 = PLANE( '', #154 );
#112 = PRODUCT_CONTEXT( '', #22, 'mechanical' );
#113 = PRODUCT_DEFINITION_FORMATION_WITH_SPECIFIED_SOURCE( ' ', 'NONE', #59, .NOT_KNOWN. );
#114 = CLOSED_SHELL( '', ( #46, #42, #50, #36, #54, #44, #56, #48, #38, #40, #58, #52 ) );
#115 = CARTESIAN_POINT( '', ( 0.00000000000000, 0.00000000000000, 0.00000000000000 ) );
#116 = DIRECTION( '', ( 0.00000000000000, 0.00000000000000, 1.00000000000000 ) );
#117 = DIRECTION( '', ( 1.00000000000000, 0.00000000000000, 0.00000000000000 ) );
#118 =  ( LENGTH_UNIT(  )NAMED_UNIT( #68 )SI_UNIT( $, .METRE. ) );
#119 = SURFACE_SIDE_STYLE( '', ( #156 ) );
#120 = EDGE_LOOP( '', ( #157, #158, #159, #160, #161, #162, #163, #164 ) );
#121 = AXIS2_PLACEMENT_3D( '', #165, #166, #167 );
#122 = SURFACE_SIDE_STYLE( '', ( #168 ) );
#123 = EDGE_LOOP( '', ( #169, #170, #171, #172, #173, #174 ) );
#124 = AXIS2_PLACEMENT_3D( '', #175, #176, #177 );
#125 = SURFACE_SIDE_STYLE( '', ( #178 ) );
#126 = EDGE_LOOP( '', ( #179, #180, #181, #182 ) );
#127 = AXIS2_PLACEMENT_3D( '', #183, #184, #185 );
#128 = SURFACE_SIDE_STYLE( '', ( #186 ) );
#129 = EDGE_LOOP( '', ( #187, #188, #189, #190 ) );
#130 = AXIS2_PLACEMENT_3D( '', #191, #192, #193 );
#131 = SURFACE_SIDE_STYLE( '', ( #194 ) );
#132 = EDGE_LOOP( '', ( #195, #196, #197, #198 ) );
#133 = AXIS2_PLACEMENT_3D( '', #199, #200, #201 );
#134 = SURFACE_SIDE_STYLE( '', ( #202 ) );
#135 = EDGE_LOOP( '', ( #203, #204, #205, #206 ) );
#136 = AXIS2_PLACEMENT_3D( '', #207, #208, #209 );
#137 = SURFACE_SIDE_STYLE( '', ( #210 ) );
#138 = EDGE_LOOP( '', ( #211, #212, #213, #214 ) );
#139 = AXIS2_PLACEMENT_3D( '', #215, #216, #217 );
#140 = SURFACE_SIDE_STYLE( '', ( #218 ) );
#141 = EDGE_LOOP( '', ( #219, #220, #221, #222 ) );
#142 = AXIS2_PLACEMENT_3D( '', #223, #224, #225 );
#143 = SURFACE_SIDE_STYLE( '', ( #226 ) );
#144 = EDGE_LOOP( '', ( #227, #228, #229, #230 ) );
#145 = AXIS2_PLACEMENT_3D( '', #231, #232, #233 );
#146 = SURFACE_SIDE_STYLE( '', ( #234 ) );
#147 = EDGE_LOOP( '', ( #235, #236, #237, #238, #239, #240, #241, #242 ) );
#148 = AXIS2_PLACEMENT_3D( '', #243, #244, #245 );
#149 = SURFACE_SIDE_STYLE( '', ( #246 ) );
#150 = EDGE_LOOP( '', ( #247, #248, #249, #250, #251, #252 ) );
#151 = AXIS2_PLACEMENT_3D( '', #253, #254, #255 );
#152 = SURFACE_SIDE_STYLE( '', ( #256 ) );
#153 = EDGE_LOOP( '', ( #257, #258, #259, #260 ) );
#154 = AXIS2_PLACEMENT_3D( '', #261, #262, #263 );
#156 = SURFACE_STYLE_FILL_AREA( #264 );
#157 = ORIENTED_EDGE( '', *, *, #265, .F. );
#158 = ORIENTED_EDGE( '', *, *, #266, .T. );
#159 = ORIENTED_EDGE( '', *, *, #267, .F. );
#160 = ORIENTED_EDGE( '', *, *, #268, .F. );
#161 = ORIENTED_EDGE( '', *, *, #269, .T. );
#162 = ORIENTED_EDGE( '', *, *, #270, .F. );
#163 = ORIENTED_EDGE( '', *, *, #271, .T. );
#164 = ORIENTED_EDGE( '', *, *, #272, .T. );
#165 = CARTESIAN_POINT( '', ( 0.0653000000000000, -0.00500000000000000, 0.0950000000000000 ) );
#166 = DIRECTION( '', ( 0.00000000000000, 0.00000000000000, 1.00000000000000 ) );
#167 = DIRECTION( '', ( 1.00000000000000, 0.00000000000000, 0.00000000000000 ) );
#168 = SURFACE_STYLE_FILL_AREA( #273 );
#169 = ORIENTED_EDGE( '', *, *, #274, .T. );
#170 = ORIENTED_EDGE( '', *, *, #275, .F. );
#171 = ORIENTED_EDGE( '', *, *, #271, .F. );
#172 = ORIENTED_EDGE( '', *, *, #276, .F. );
#173 = ORIENTED_EDGE( '', *, *, #277, .F. );
#174 = ORIENTED_EDGE( '', *, *, #278, .T. );
#175 = CARTESIAN_POINT( '', ( 0.0156000000000000, -0.00500000000000000, 0.0950000000000000 ) );
#176 = DIRECTION( '', ( 1.00000000000000, 5.72515998672214E-17, 0.00000000000000 ) );
#177 = DIRECTION( '', ( -5.72515998672214E-17, 1.00000000000000, 0.00000000000000 ) );
#178 = SURFACE_STYLE_FILL_AREA( #279 );
#179 = ORIENTED_EDGE( '', *, *, #270, .T. );
#180 = ORIENTED_EDGE( '', *, *, #280, .F. );
#181 = ORIENTED_EDGE( '', *, *, #281, .F. );
#182 = ORIENTED_EDGE( '', *, *, #276, .T. );
#183 = CARTESIAN_POINT( '', ( 0.0231000000000000, 0.0457500000000000, 0.0990000000000000 ) );
#184 = DIRECTION( '', ( 0.00000000000000, 1.00000000000000, 0.00000000000000 ) );
#185 = DIRECTION( '', ( 0.00000000000000, 0.00000000000000, 1.00000000000000 ) );
#186 = SURFACE_STYLE_FILL_AREA( #282 );
#187 = ORIENTED_EDGE( '', *, *, #283, .F. );
#188 = ORIENTED_EDGE( '', *, *, #284, .F. );
#189 = ORIENTED_EDGE( '', *, *, #285, .F. );
#190 = ORIENTED_EDGE( '', *, *, #286, .T. );
#191 = CARTESIAN_POINT( '', ( 0.0653000000000000, -0.00500000000000000, 0.0990000000000000 ) );
#192 = DIRECTION( '', ( 0.00000000000000, 0.00000000000000, 1.00000000000000 ) );
#193 = DIRECTION( '', ( 1.00000000000000, 0.00000000000000, 0.00000000000000 ) );
#194 = SURFACE_STYLE_FILL_AREA( #287 );
#195 = ORIENTED_EDGE( '', *, *, #288, .T. );
#196 = ORIENTED_EDGE( '', *, *, #289, .T. );
#197 = ORIENTED_EDGE( '', *, *, #290, .F. );
#198 = ORIENTED_EDGE( '', *, *, #274, .F. );
#199 = CARTESIAN_POINT( '', ( 0.0653000000000000, -0.00500000000000000, 0.00000000000000 ) );
#200 = DIRECTION( '', ( 0.00000000000000, 0.00000000000000, 1.00000000000000 ) );
#201 = DIRECTION( '', ( 1.00000000000000, 0.00000000000000, 0.00000000000000 ) );
#202 = SURFACE_STYLE_FILL_AREA( #291 );
#203 = ORIENTED_EDGE( '', *, *, #267, .T. );
#204 = ORIENTED_EDGE( '', *, *, #292, .F. );
#205 = ORIENTED_EDGE( '', *, *, #286, .F. );
#206 = ORIENTED_EDGE( '', *, *, #293, .T. );
#207 = CARTESIAN_POINT( '', ( 0.100000000000000, 0.0582500000000000, 0.0990000000000000 ) );
#208 = DIRECTION( '', ( 1.00000000000000, 0.00000000000000, 0.00000000000000 ) );
#209 = DIRECTION( '', ( 0.00000000000000, 0.00000000000000, -1.00000000000000 ) );
#210 = SURFACE_STYLE_FILL_AREA( #294 );
#211 = ORIENTED_EDGE( '', *, *, #290, .T. );
#212 = ORIENTED_EDGE( '', *, *, #295, .F. );
#213 = ORIENTED_EDGE( '', *, *, #272, .F. );
#214 = ORIENTED_EDGE( '', *, *, #275, .T. );
#215 = CARTESIAN_POINT( '', ( 0.0653000000000000, -0.0807500000000000, 0.0950000000000000 ) );
#216 = DIRECTION( '', ( -2.79231143014376E-16, 1.00000000000000, 0.00000000000000 ) );
#217 = DIRECTION( '', ( -1.00000000000000, -2.79231143014376E-16, 0.00000000000000 ) );
#218 = SURFACE_STYLE_FILL_AREA( #296 );
#219 = ORIENTED_EDGE( '', *, *, #266, .F. );
#220 = ORIENTED_EDGE( '', *, *, #297, .F. );
#221 = ORIENTED_EDGE( '', *, *, #283, .T. );
#222 = ORIENTED_EDGE( '', *, *, #292, .T. );
#223 = CARTESIAN_POINT( '', ( 0.107500000000000, 0.0457500000000000, 0.0990000000000000 ) );
#224 = DIRECTION( '', ( 0.00000000000000, -1.00000000000000, 0.00000000000000 ) );
#225 = DIRECTION( '', ( 0.00000000000000, 0.00000000000000, -1.00000000000000 ) );
#226 = SURFACE_STYLE_FILL_AREA( #298 );
#227 = ORIENTED_EDGE( '', *, *, #277, .T. );
#228 = ORIENTED_EDGE( '', *, *, #281, .T. );
#229 = ORIENTED_EDGE( '', *, *, #299, .F. );
#230 = ORIENTED_EDGE( '', *, *, #300, .F. );
#231 = CARTESIAN_POINT( '', ( 0.0653000000000000, -0.00500000000000000, 0.0990000000000000 ) );
#232 = DIRECTION( '', ( 0.00000000000000, 0.00000000000000, 1.00000000000000 ) );
#233 = DIRECTION( '', ( 1.00000000000000, 0.00000000000000, 0.00000000000000 ) );
#234 = SURFACE_STYLE_FILL_AREA( #301 );
#235 = ORIENTED_EDGE( '', *, *, #288, .F. );
#236 = ORIENTED_EDGE( '', *, *, #278, .F. );
#237 = ORIENTED_EDGE( '', *, *, #300, .T. );
#238 = ORIENTED_EDGE( '', *, *, #302, .T. );
#239 = ORIENTED_EDGE( '', *, *, #268, .T. );
#240 = ORIENTED_EDGE( '', *, *, #293, .F. );
#241 = ORIENTED_EDGE( '', *, *, #285, .T. );
#242 = ORIENTED_EDGE( '', *, *, #303, .T. );
#243 = CARTESIAN_POINT( '', ( 0.0653000000000000, 0.0707500000000000, 0.0950000000000000 ) );
#244 = DIRECTION( '', ( -2.79231143014376E-16, 1.00000000000000, 0.00000000000000 ) );
#245 = DIRECTION( '', ( -1.00000000000000, -2.79231143014376E-16, 0.00000000000000 ) );
#246 = SURFACE_STYLE_FILL_AREA( #304 );
#247 = ORIENTED_EDGE( '', *, *, #289, .F. );
#248 = ORIENTED_EDGE( '', *, *, #303, .F. );
#249 = ORIENTED_EDGE( '', *, *, #284, .T. );
#250 = ORIENTED_EDGE( '', *, *, #297, .T. );
#251 = ORIENTED_EDGE( '', *, *, #265, .T. );
#252 = ORIENTED_EDGE( '', *, *, #295, .T. );
#253 = CARTESIAN_POINT( '', ( 0.115000000000000, -0.00500000000000000, 0.0950000000000000 ) );
#254 = DIRECTION( '', ( 1.00000000000000, 0.00000000000000, 0.00000000000000 ) );
#255 = DIRECTION( '', ( 0.00000000000000, 0.00000000000000, -1.00000000000000 ) );
#256 = SURFACE_STYLE_FILL_AREA( #305 );
#257 = ORIENTED_EDGE( '', *, *, #269, .F. );
#258 = ORIENTED_EDGE( '', *, *, #302, .F. );
#259 = ORIENTED_EDGE( '', *, *, #299, .T. );
#260 = ORIENTED_EDGE( '', *, *, #280, .T. );
#261 = CARTESIAN_POINT( '', ( 0.0306000000000000, 0.0582500000000000, 0.0990000000000000 ) );
#262 = DIRECTION( '', ( 1.00000000000000, 0.00000000000000, 0.00000000000000 ) );
#263 = DIRECTION( '', ( 0.00000000000000, 0.00000000000000, -1.00000000000000 ) );
#264 = FILL_AREA_STYLE( '', ( #306 ) );
#265 = EDGE_CURVE( '', #307, #308, #309, .T. );
#266 = EDGE_CURVE( '', #307, #310, #311, .T. );
#267 = EDGE_CURVE( '', #312, #310, #313, .T. );
#268 = EDGE_CURVE( '', #314, #312, #315, .T. );
#269 = EDGE_CURVE( '', #314, #316, #317, .T. );
#270 = EDGE_CURVE( '', #318, #316, #319, .T. );
#271 = EDGE_CURVE( '', #318, #320, #321, .T. );
#272 = EDGE_CURVE( '', #320, #308, #322, .T. );
#273 = FILL_AREA_STYLE( '', ( #323 ) );
#274 = EDGE_CURVE( '', #324, #325, #326, .T. );
#275 = EDGE_CURVE( '', #320, #325, #327, .T. );
#276 = EDGE_CURVE( '', #328, #318, #329, .T. );
#277 = EDGE_CURVE( '', #330, #328, #331, .T. );
#278 = EDGE_CURVE( '', #330, #324, #332, .T. );
#279 = FILL_AREA_STYLE( '', ( #333 ) );
#280 = EDGE_CURVE( '', #334, #316, #335, .T. );
#281 = EDGE_CURVE( '', #328, #334, #336, .T. );
#282 = FILL_AREA_STYLE( '', ( #337 ) );
#283 = EDGE_CURVE( '', #338, #339, #340, .T. );
#284 = EDGE_CURVE( '', #341, #338, #342, .T. );
#285 = EDGE_CURVE( '', #343, #341, #344, .T. );
#286 = EDGE_CURVE( '', #343, #339, #345, .T. );
#287 = FILL_AREA_STYLE( '', ( #346 ) );
#288 = EDGE_CURVE( '', #324, #347, #348, .T. );
#289 = EDGE_CURVE( '', #347, #349, #350, .T. );
#290 = EDGE_CURVE( '', #325, #349, #351, .T. );
#291 = FILL_AREA_STYLE( '', ( #352 ) );
#292 = EDGE_CURVE( '', #339, #310, #353, .T. );
#293 = EDGE_CURVE( '', #343, #312, #354, .T. );
#294 = FILL_AREA_STYLE( '', ( #355 ) );
#295 = EDGE_CURVE( '', #308, #349, #356, .T. );
#296 = FILL_AREA_STYLE( '', ( #357 ) );
#297 = EDGE_CURVE( '', #338, #307, #358, .T. );
#298 = FILL_AREA_STYLE( '', ( #359 ) );
#299 = EDGE_CURVE( '', #360, #334, #361, .T. );
#300 = EDGE_CURVE( '', #330, #360, #362, .T. );
#301 = FILL_AREA_STYLE( '', ( #363 ) );
#302 = EDGE_CURVE( '', #360, #314, #364, .T. );
#303 = EDGE_CURVE( '', #341, #347, #365, .T. );
#304 = FILL_AREA_STYLE( '', ( #366 ) );
#305 = FILL_AREA_STYLE( '', ( #367 ) );
#306 = FILL_AREA_STYLE_COLOUR( '', #368 );
#307 = VERTEX_POINT( '', #369 );
#308 = VERTEX_POINT( '', #370 );
#309 = LINE( '', #371, #372 );
#310 = VERTEX_POINT( '', #373 );
#311 = LINE( '', #374, #375 );
#312 = VERTEX_POINT( '', #376 );
#313 = LINE( '', #377, #378 );
#314 = VERTEX_POINT( '', #379 );
#315 = LINE( '', #380, #381 );
#316 = VERTEX_POINT( '', #382 );
#317 = LINE( '', #383, #384 );
#318 = VERTEX_POINT( '', #385 );
#319 = LINE( '', #386, #387 );
#320 = VERTEX_POINT( '', #388 );
#321 = LINE( '', #389, #390 );
#322 = LINE( '', #391, #392 );
#323 = FILL_AREA_STYLE_COLOUR( '', #393 );
#324 = VERTEX_POINT( '', #394 );
#325 = VERTEX_POINT( '', #395 );
#326 = LINE( '', #396, #397 );
#327 = LINE( '', #398, #399 );
#328 = VERTEX_POINT( '', #400 );
#329 = LINE( '', #401, #402 );
#330 = VERTEX_POINT( '', #403 );
#331 = LINE( '', #404, #405 );
#332 = LINE( '', #406, #407 );
#333 = FILL_AREA_STYLE_COLOUR( '', #408 );
#334 = VERTEX_POINT( '', #409 );
#335 = LINE( '', #410, #411 );
#336 = LINE( '', #412, #413 );
#337 = FILL_AREA_STYLE_COLOUR( '', #414 );
#338 = VERTEX_POINT( '', #415 );
#339 = VERTEX_POINT( '', #416 );
#340 = LINE( '', #417, #418 );
#341 = VERTEX_POINT( '', #419 );
#342 = LINE( '', #420, #421 );
#343 = VERTEX_POINT( '', #422 );
#344 = LINE( '', #423, #424 );
#345 = LINE( '', #425, #426 );
#346 = FILL_AREA_STYLE_COLOUR( '', #427 );
#347 = VERTEX_POINT( '', #428 );
#348 = LINE( '', #429, #430 );
#349 = VERTEX_POINT( '', #431 );
#350 = LINE( '', #432, #433 );
#351 = LINE( '', #434, #435 );
#352 = FILL_AREA_STYLE_COLOUR( '', #436 );
#353 = LINE( '', #437, #438 );
#354 = LINE( '', #439, #440 );
#355 = FILL_AREA_STYLE_COLOUR( '', #441 );
#356 = LINE( '', #442, #443 );
#357 = FILL_AREA_STYLE_COLOUR( '', #444 );
#358 = LINE( '', #445, #446 );
#359 = FILL_AREA_STYLE_COLOUR( '', #447 );
#360 = VERTEX_POINT( '', #448 );
#361 = LINE( '', #449, #450 );
#362 = LINE( '', #451, #452 );
#363 = FILL_AREA_STYLE_COLOUR( '', #453 );
#364 = LINE( '', #454, #455 );
#365 = LINE( '', #456, #457 );
#366 = FILL_AREA_STYLE_COLOUR( '', #458 );
#367 = FILL_AREA_STYLE_COLOUR( '', #459 );
#368 = COLOUR_RGB( '', 0.231372550100000, 0.380392164000000, 0.705882370500000 );
#369 = CARTESIAN_POINT( '', ( 0.115000000000000, 0.0457500000000000, 0.0950000000000000 ) );
#370 = CARTESIAN_POINT( '', ( 0.115000000000000, -0.0807500000000000, 0.0950000000000000 ) );
#371 = CARTESIAN_POINT( '', ( 0.115000000000000, -0.00500000000000000, 0.0950000000000000 ) );
#372 = VECTOR( '', #460, 1.00000000000000 );
#373 = CARTESIAN_POINT( '', ( 0.100000000000000, 0.0457500000000000, 0.0950000000000000 ) );
#374 = CARTESIAN_POINT( '', ( 0.107500000000000, 0.0457500000000000, 0.0950000000000000 ) );
#375 = VECTOR( '', #461, 1.00000000000000 );
#376 = CARTESIAN_POINT( '', ( 0.100000000000000, 0.0707500000000000, 0.0950000000000000 ) );
#377 = CARTESIAN_POINT( '', ( 0.100000000000000, 0.0582500000000000, 0.0950000000000000 ) );
#378 = VECTOR( '', #462, 1.00000000000000 );
#379 = CARTESIAN_POINT( '', ( 0.0306000000000000, 0.0707500000000000, 0.0950000000000000 ) );
#380 = CARTESIAN_POINT( '', ( 0.0653000000000000, 0.0707500000000000, 0.0950000000000000 ) );
#381 = VECTOR( '', #463, 1.00000000000000 );
#382 = CARTESIAN_POINT( '', ( 0.0306000000000000, 0.0457500000000000, 0.0950000000000000 ) );
#383 = CARTESIAN_POINT( '', ( 0.0306000000000000, 0.0582500000000000, 0.0950000000000000 ) );
#384 = VECTOR( '', #464, 1.00000000000000 );
#385 = CARTESIAN_POINT( '', ( 0.0156000000000000, 0.0457500000000000, 0.0950000000000000 ) );
#386 = CARTESIAN_POINT( '', ( 0.0231000000000000, 0.0457500000000000, 0.0950000000000000 ) );
#387 = VECTOR( '', #465, 1.00000000000000 );
#388 = CARTESIAN_POINT( '', ( 0.0156000000000000, -0.0807500000000000, 0.0950000000000000 ) );
#389 = CARTESIAN_POINT( '', ( 0.0156000000000000, -0.00500000000000000, 0.0950000000000000 ) );
#390 = VECTOR( '', #466, 1.00000000000000 );
#391 = CARTESIAN_POINT( '', ( 0.0653000000000000, -0.0807500000000000, 0.0950000000000000 ) );
#392 = VECTOR( '', #467, 1.00000000000000 );
#393 = COLOUR_RGB( '', 0.231372550100000, 0.380392164000000, 0.705882370500000 );
#394 = CARTESIAN_POINT( '', ( 0.0156000000000000, 0.0707500000000000, 0.00000000000000 ) );
#395 = CARTESIAN_POINT( '', ( 0.0156000000000000, -0.0807500000000000, 0.00000000000000 ) );
#396 = CARTESIAN_POINT( '', ( 0.0156000000000000, -0.00500000000000000, 0.00000000000000 ) );
#397 = VECTOR( '', #468, 1.00000000000000 );
#398 = CARTESIAN_POINT( '', ( 0.0156000000000000, -0.0807500000000000, 0.0950000000000000 ) );
#399 = VECTOR( '', #469, 1.00000000000000 );
#400 = CARTESIAN_POINT( '', ( 0.0156000000000000, 0.0457500000000000, 0.0990000000000000 ) );
#401 = CARTESIAN_POINT( '', ( 0.0156000000000000, 0.0457500000000000, 0.0990000000000000 ) );
#402 = VECTOR( '', #470, 1.00000000000000 );
#403 = CARTESIAN_POINT( '', ( 0.0156000000000000, 0.0707500000000000, 0.0990000000000000 ) );
#404 = CARTESIAN_POINT( '', ( 0.0156000000000000, -0.00500000000000000, 0.0990000000000000 ) );
#405 = VECTOR( '', #471, 1.00000000000000 );
#406 = CARTESIAN_POINT( '', ( 0.0156000000000000, 0.0707500000000000, 0.0950000000000000 ) );
#407 = VECTOR( '', #472, 1.00000000000000 );
#408 = COLOUR_RGB( '', 0.231372550100000, 0.380392164000000, 0.705882370500000 );
#409 = CARTESIAN_POINT( '', ( 0.0306000000000000, 0.0457500000000000, 0.0990000000000000 ) );
#410 = CARTESIAN_POINT( '', ( 0.0306000000000000, 0.0457500000000000, 0.0990000000000000 ) );
#411 = VECTOR( '', #473, 1.00000000000000 );
#412 = CARTESIAN_POINT( '', ( 0.0231000000000000, 0.0457500000000000, 0.0990000000000000 ) );
#413 = VECTOR( '', #474, 1.00000000000000 );
#414 = COLOUR_RGB( '', 0.231372550100000, 0.380392164000000, 0.705882370500000 );
#415 = CARTESIAN_POINT( '', ( 0.115000000000000, 0.0457500000000000, 0.0990000000000000 ) );
#416 = CARTESIAN_POINT( '', ( 0.100000000000000, 0.0457500000000000, 0.0990000000000000 ) );
#417 = CARTESIAN_POINT( '', ( 0.107500000000000, 0.0457500000000000, 0.0990000000000000 ) );
#418 = VECTOR( '', #475, 1.00000000000000 );
#419 = CARTESIAN_POINT( '', ( 0.115000000000000, 0.0707500000000000, 0.0990000000000000 ) );
#420 = CARTESIAN_POINT( '', ( 0.115000000000000, -0.00500000000000000, 0.0990000000000000 ) );
#421 = VECTOR( '', #476, 1.00000000000000 );
#422 = CARTESIAN_POINT( '', ( 0.100000000000000, 0.0707500000000000, 0.0990000000000000 ) );
#423 = CARTESIAN_POINT( '', ( 0.0653000000000000, 0.0707500000000000, 0.0990000000000000 ) );
#424 = VECTOR( '', #477, 1.00000000000000 );
#425 = CARTESIAN_POINT( '', ( 0.100000000000000, 0.0582500000000000, 0.0990000000000000 ) );
#426 = VECTOR( '', #478, 1.00000000000000 );
#427 = COLOUR_RGB( '', 0.231372550100000, 0.380392164000000, 0.705882370500000 );
#428 = CARTESIAN_POINT( '', ( 0.115000000000000, 0.0707500000000000, 0.00000000000000 ) );
#429 = CARTESIAN_POINT( '', ( 0.0653000000000000, 0.0707500000000000, 0.00000000000000 ) );
#430 = VECTOR( '', #479, 1.00000000000000 );
#431 = CARTESIAN_POINT( '', ( 0.115000000000000, -0.0807500000000000, 0.00000000000000 ) );
#432 = CARTESIAN_POINT( '', ( 0.115000000000000, -0.00500000000000000, 0.00000000000000 ) );
#433 = VECTOR( '', #480, 1.00000000000000 );
#434 = CARTESIAN_POINT( '', ( 0.0653000000000000, -0.0807500000000000, 0.00000000000000 ) );
#435 = VECTOR( '', #481, 1.00000000000000 );
#436 = COLOUR_RGB( '', 0.231372550100000, 0.380392164000000, 0.705882370500000 );
#437 = CARTESIAN_POINT( '', ( 0.100000000000000, 0.0457500000000000, 0.0990000000000000 ) );
#438 = VECTOR( '', #482, 1.00000000000000 );
#439 = CARTESIAN_POINT( '', ( 0.100000000000000, 0.0707500000000000, 0.0990000000000000 ) );
#440 = VECTOR( '', #483, 1.00000000000000 );
#441 = COLOUR_RGB( '', 0.231372550100000, 0.380392164000000, 0.705882370500000 );
#442 = CARTESIAN_POINT( '', ( 0.115000000000000, -0.0807500000000000, 0.0950000000000000 ) );
#443 = VECTOR( '', #484, 1.00000000000000 );
#444 = COLOUR_RGB( '', 0.231372550100000, 0.380392164000000, 0.705882370500000 );
#445 = CARTESIAN_POINT( '', ( 0.115000000000000, 0.0457500000000000, 0.0990000000000000 ) );
#446 = VECTOR( '', #485, 1.00000000000000 );
#447 = COLOUR_RGB( '', 0.231372550100000, 0.380392164000000, 0.705882370500000 );
#448 = CARTESIAN_POINT( '', ( 0.0306000000000000, 0.0707500000000000, 0.0990000000000000 ) );
#449 = CARTESIAN_POINT( '', ( 0.0306000000000000, 0.0582500000000000, 0.0990000000000000 ) );
#450 = VECTOR( '', #486, 1.00000000000000 );
#451 = CARTESIAN_POINT( '', ( 0.0653000000000000, 0.0707500000000000, 0.0990000000000000 ) );
#452 = VECTOR( '', #487, 1.00000000000000 );
#453 = COLOUR_RGB( '', 0.231372550100000, 0.380392164000000, 0.705882370500000 );
#454 = CARTESIAN_POINT( '', ( 0.0306000000000000, 0.0707500000000000, 0.0990000000000000 ) );
#455 = VECTOR( '', #488, 1.00000000000000 );
#456 = CARTESIAN_POINT( '', ( 0.115000000000000, 0.0707500000000000, 0.0950000000000000 ) );
#457 = VECTOR( '', #489, 1.00000000000000 );
#458 = COLOUR_RGB( '', 0.231372550100000, 0.380392164000000, 0.705882370500000 );
#459 = COLOUR_RGB( '', 0.231372550100000, 0.380392164000000, 0.705882370500000 );
#460 = DIRECTION( '', ( 0.00000000000000, -1.00000000000000, 0.00000000000000 ) );
#461 = DIRECTION( '', ( -1.00000000000000, 0.00000000000000, 0.00000000000000 ) );
#462 = DIRECTION( '', ( 0.00000000000000, -1.00000000000000, 0.00000000000000 ) );
#463 = DIRECTION( '', ( 1.00000000000000, 2.79231143014376E-16, 0.00000000000000 ) );
#464 = DIRECTION( '', ( 0.00000000000000, -1.00000000000000, 0.00000000000000 ) );
#465 = DIRECTION( '', ( 1.00000000000000, 0.00000000000000, 0.00000000000000 ) );
#466 = DIRECTION( '', ( 5.72515998672214E-17, -1.00000000000000, 0.00000000000000 ) );
#467 = DIRECTION( '', ( 1.00000000000000, 2.79231143014376E-16, 0.00000000000000 ) );
#468 = DIRECTION( '', ( 5.72515998672214E-17, -1.00000000000000, 0.00000000000000 ) );
#469 = DIRECTION( '', ( 0.00000000000000, 0.00000000000000, -1.00000000000000 ) );
#470 = DIRECTION( '', ( 0.00000000000000, 0.00000000000000, -1.00000000000000 ) );
#471 = DIRECTION( '', ( 5.72515998672214E-17, -1.00000000000000, 0.00000000000000 ) );
#472 = DIRECTION( '', ( 0.00000000000000, 0.00000000000000, -1.00000000000000 ) );
#473 = DIRECTION( '', ( 0.00000000000000, 0.00000000000000, -1.00000000000000 ) );
#474 = DIRECTION( '', ( 1.00000000000000, 0.00000000000000, 0.00000000000000 ) );
#475 = DIRECTION( '', ( -1.00000000000000, 0.00000000000000, 0.00000000000000 ) );
#476 = DIRECTION( '', ( 0.00000000000000, -1.00000000000000, 0.00000000000000 ) );
#477 = DIRECTION( '', ( 1.00000000000000, 2.79231143014376E-16, 0.00000000000000 ) );
#478 = DIRECTION( '', ( 0.00000000000000, -1.00000000000000, 0.00000000000000 ) );
#479 = DIRECTION( '', ( 1.00000000000000, 2.79231143014376E-16, 0.00000000000000 ) );
#480 = DIRECTION( '', ( 0.00000000000000, -1.00000000000000, 0.00000000000000 ) );
#481 = DIRECTION( '', ( 1.00000000000000, 2.79231143014376E-16, 0.00000000000000 ) );
#482 = DIRECTION( '', ( 0.00000000000000, 0.00000000000000, -1.00000000000000 ) );
#483 = DIRECTION( '', ( 0.00000000000000, 0.00000000000000, -1.00000000000000 ) );
#484 = DIRECTION( '', ( 0.00000000000000, 0.00000000000000, -1.00000000000000 ) );
#485 = DIRECTION( '', ( 0.00000000000000, 0.00000000000000, -1.00000000000000 ) );
#486 = DIRECTION( '', ( 0.00000000000000, -1.00000000000000, 0.00000000000000 ) );
#487 = DIRECTION( '', ( 1.00000000000000, 2.79231143014376E-16, 0.00000000000000 ) );
#488 = DIRECTION( '', ( 0.00000000000000, 0.00000000000000, -1.00000000000000 ) );
#489 = DIRECTION( '', ( 0.00000000000000, 0.00000000000000, -1.00000000000000 ) );
ENDSEC;
END-ISO-10303-21;
