ISO-10303-21;
HEADER;
FILE_DESCRIPTION( ( '' ), ' ' );
FILE_NAME( '/vol/tmp/translate-16910123994663369184/5eb6fd8f989cf415cf5a58c5.step', '2020-05-09T18:59:28', ( '' ), ( '' ), ' ', ' ', ' ' );
FILE_SCHEMA( ( 'AUTOMOTIVE_DESIGN { 1 0 10303 214 1 1 1 1 }' ) );
ENDSEC;
DATA;
#1 = MECHANICAL_DESIGN_GEOMETRIC_PRESENTATION_REPRESENTATION( ' ', ( #10, #11, #12, #13, #14, #15, #16, #17, #18, #19 ), #6 );
#2 = PRODUCT_DEFINITION_CONTEXT( '', #20, 'design' );
#3 = APPLICATION_PROTOCOL_DEFINITION( 'international standard', 'automotive_design', 2001, #20 );
#4 = PRODUCT_CATEGORY_RELATIONSHIP( 'NONE', 'NONE', #21, #22 );
#5 = SHAPE_DEFINITION_REPRESENTATION( #23, #24 );
#6 =  ( GEOMETRIC_REPRESENTATION_CONTEXT( 3 )GLOBAL_UNCERTAINTY_ASSIGNED_CONTEXT( ( #27 ) )GLOBAL_UNIT_ASSIGNED_CONTEXT( ( #29, #30, #31 ) )REPRESENTATION_CONTEXT( 'NONE', 'WORKSPACE' ) );
#10 = STYLED_ITEM( '', ( #33 ), #34 );
#11 = STYLED_ITEM( '', ( #35 ), #36 );
#12 = STYLED_ITEM( '', ( #37 ), #38 );
#13 = STYLED_ITEM( '', ( #39 ), #40 );
#14 = STYLED_ITEM( '', ( #41 ), #42 );
#15 = STYLED_ITEM( '', ( #43 ), #44 );
#16 = STYLED_ITEM( '', ( #45 ), #46 );
#17 = STYLED_ITEM( '', ( #47 ), #48 );
#18 = STYLED_ITEM( '', ( #49 ), #50 );
#19 = STYLED_ITEM( '', ( #51 ), #52 );
#20 = APPLICATION_CONTEXT( 'core data for automotive mechanical design processes' );
#21 = PRODUCT_CATEGORY( 'part', 'NONE' );
#22 = PRODUCT_RELATED_PRODUCT_CATEGORY( 'detail', ' ', ( #53 ) );
#23 = PRODUCT_DEFINITION_SHAPE( 'NONE', 'NONE', #54 );
#24 = ADVANCED_BREP_SHAPE_REPRESENTATION( 'Rigid_side_x2', ( #55, #56 ), #6 );
#27 = UNCERTAINTY_MEASURE_WITH_UNIT( LENGTH_MEASURE( 1.00000000000000E-06 ), #29, '', '' );
#29 =  ( CONVERSION_BASED_UNIT( 'METRE', #59 )LENGTH_UNIT(  )NAMED_UNIT( #62 ) );
#30 =  ( NAMED_UNIT( #64 )PLANE_ANGLE_UNIT(  )SI_UNIT( $, .RADIAN. ) );
#31 =  ( NAMED_UNIT( #64 )SI_UNIT( $, .STERADIAN. )SOLID_ANGLE_UNIT(  ) );
#33 = PRESENTATION_STYLE_ASSIGNMENT( ( #70 ) );
#34 = ADVANCED_FACE( '', ( #71 ), #72, .T. );
#35 = PRESENTATION_STYLE_ASSIGNMENT( ( #73 ) );
#36 = ADVANCED_FACE( '', ( #74 ), #75, .F. );
#37 = PRESENTATION_STYLE_ASSIGNMENT( ( #76 ) );
#38 = ADVANCED_FACE( '', ( #77 ), #78, .T. );
#39 = PRESENTATION_STYLE_ASSIGNMENT( ( #79 ) );
#40 = ADVANCED_FACE( '', ( #80 ), #81, .T. );
#41 = PRESENTATION_STYLE_ASSIGNMENT( ( #82 ) );
#42 = ADVANCED_FACE( '', ( #83 ), #84, .F. );
#43 = PRESENTATION_STYLE_ASSIGNMENT( ( #85 ) );
#44 = ADVANCED_FACE( '', ( #86 ), #87, .T. );
#45 = PRESENTATION_STYLE_ASSIGNMENT( ( #88 ) );
#46 = ADVANCED_FACE( '', ( #89 ), #90, .T. );
#47 = PRESENTATION_STYLE_ASSIGNMENT( ( #91 ) );
#48 = ADVANCED_FACE( '', ( #92 ), #93, .T. );
#49 = PRESENTATION_STYLE_ASSIGNMENT( ( #94 ) );
#50 = ADVANCED_FACE( '', ( #95 ), #96, .T. );
#51 = PRESENTATION_STYLE_ASSIGNMENT( ( #97 ) );
#52 = ADVANCED_FACE( '', ( #98 ), #99, .F. );
#53 = PRODUCT( 'Rigid_side_x2', 'Rigid_side_x2', 'PART-Rigid_side_x2-DESC', ( #100 ) );
#54 = PRODUCT_DEFINITION( 'NONE', 'NONE', #101, #2 );
#55 = MANIFOLD_SOLID_BREP( 'Rigid_side_x2', #102 );
#56 = AXIS2_PLACEMENT_3D( '', #103, #104, #105 );
#59 = LENGTH_MEASURE_WITH_UNIT( LENGTH_MEASURE( 1.00000000000000 ), #106 );
#62 = DIMENSIONAL_EXPONENTS( 1.00000000000000, 0.00000000000000, 0.00000000000000, 0.00000000000000, 0.00000000000000, 0.00000000000000, 0.00000000000000 );
#64 = DIMENSIONAL_EXPONENTS( 0.00000000000000, 0.00000000000000, 0.00000000000000, 0.00000000000000, 0.00000000000000, 0.00000000000000, 0.00000000000000 );
#70 = SURFACE_STYLE_USAGE( .BOTH., #107 );
#71 = FACE_OUTER_BOUND( '', #108, .T. );
#72 = CYLINDRICAL_SURFACE( '', #109, 0.0100000000000000 );
#73 = SURFACE_STYLE_USAGE( .BOTH., #110 );
#74 = FACE_OUTER_BOUND( '', #111, .T. );
#75 = PLANE( '', #112 );
#76 = SURFACE_STYLE_USAGE( .BOTH., #113 );
#77 = FACE_OUTER_BOUND( '', #114, .T. );
#78 = CYLINDRICAL_SURFACE( '', #115, 0.0100000000000000 );
#79 = SURFACE_STYLE_USAGE( .BOTH., #116 );
#80 = FACE_OUTER_BOUND( '', #117, .T. );
#81 = CYLINDRICAL_SURFACE( '', #118, 0.0100000000000000 );
#82 = SURFACE_STYLE_USAGE( .BOTH., #119 );
#83 = FACE_OUTER_BOUND( '', #120, .T. );
#84 = PLANE( '', #121 );
#85 = SURFACE_STYLE_USAGE( .BOTH., #122 );
#86 = FACE_OUTER_BOUND( '', #123, .T. );
#87 = PLANE( '', #124 );
#88 = SURFACE_STYLE_USAGE( .BOTH., #125 );
#89 = FACE_OUTER_BOUND( '', #126, .T. );
#90 = CYLINDRICAL_SURFACE( '', #127, 0.0100000000000000 );
#91 = SURFACE_STYLE_USAGE( .BOTH., #128 );
#92 = FACE_OUTER_BOUND( '', #129, .T. );
#93 = PLANE( '', #130 );
#94 = SURFACE_STYLE_USAGE( .BOTH., #131 );
#95 = FACE_OUTER_BOUND( '', #132, .T. );
#96 = PLANE( '', #133 );
#97 = SURFACE_STYLE_USAGE( .BOTH., #134 );
#98 = FACE_OUTER_BOUND( '', #135, .T. );
#99 = PLANE( '', #136 );
#100 = PRODUCT_CONTEXT( '', #20, 'mechanical' );
#101 = PRODUCT_DEFINITION_FORMATION_WITH_SPECIFIED_SOURCE( ' ', 'NONE', #53, .NOT_KNOWN. );
#102 = CLOSED_SHELL( '', ( #44, #40, #48, #46, #42, #34, #52, #38, #36, #50 ) );
#103 = CARTESIAN_POINT( '', ( 0.00000000000000, 0.00000000000000, 0.00000000000000 ) );
#104 = DIRECTION( '', ( 0.00000000000000, 0.00000000000000, 1.00000000000000 ) );
#105 = DIRECTION( '', ( 1.00000000000000, 0.00000000000000, 0.00000000000000 ) );
#106 =  ( LENGTH_UNIT(  )NAMED_UNIT( #62 )SI_UNIT( $, .METRE. ) );
#107 = SURFACE_SIDE_STYLE( '', ( #138 ) );
#108 = EDGE_LOOP( '', ( #139, #140, #141, #142 ) );
#109 = AXIS2_PLACEMENT_3D( '', #143, #144, #145 );
#110 = SURFACE_SIDE_STYLE( '', ( #146 ) );
#111 = EDGE_LOOP( '', ( #147, #148, #149, #150, #151, #152, #153, #154 ) );
#112 = AXIS2_PLACEMENT_3D( '', #155, #156, #157 );
#113 = SURFACE_SIDE_STYLE( '', ( #158 ) );
#114 = EDGE_LOOP( '', ( #159, #160, #161, #162 ) );
#115 = AXIS2_PLACEMENT_3D( '', #163, #164, #165 );
#116 = SURFACE_SIDE_STYLE( '', ( #166 ) );
#117 = EDGE_LOOP( '', ( #167, #168, #169, #170 ) );
#118 = AXIS2_PLACEMENT_3D( '', #171, #172, #173 );
#119 = SURFACE_SIDE_STYLE( '', ( #174 ) );
#120 = EDGE_LOOP( '', ( #175, #176, #177, #178 ) );
#121 = AXIS2_PLACEMENT_3D( '', #179, #180, #181 );
#122 = SURFACE_SIDE_STYLE( '', ( #182 ) );
#123 = EDGE_LOOP( '', ( #183, #184, #185, #186 ) );
#124 = AXIS2_PLACEMENT_3D( '', #187, #188, #189 );
#125 = SURFACE_SIDE_STYLE( '', ( #190 ) );
#126 = EDGE_LOOP( '', ( #191, #192, #193, #194 ) );
#127 = AXIS2_PLACEMENT_3D( '', #195, #196, #197 );
#128 = SURFACE_SIDE_STYLE( '', ( #198 ) );
#129 = EDGE_LOOP( '', ( #199, #200, #201, #202 ) );
#130 = AXIS2_PLACEMENT_3D( '', #203, #204, #205 );
#131 = SURFACE_SIDE_STYLE( '', ( #206 ) );
#132 = EDGE_LOOP( '', ( #207, #208, #209, #210, #211, #212, #213, #214 ) );
#133 = AXIS2_PLACEMENT_3D( '', #215, #216, #217 );
#134 = SURFACE_SIDE_STYLE( '', ( #218 ) );
#135 = EDGE_LOOP( '', ( #219, #220, #221, #222 ) );
#136 = AXIS2_PLACEMENT_3D( '', #223, #224, #225 );
#138 = SURFACE_STYLE_FILL_AREA( #226 );
#139 = ORIENTED_EDGE( '', *, *, #227, .T. );
#140 = ORIENTED_EDGE( '', *, *, #228, .F. );
#141 = ORIENTED_EDGE( '', *, *, #229, .F. );
#142 = ORIENTED_EDGE( '', *, *, #230, .T. );
#143 = CARTESIAN_POINT( '', ( 0.182000000000000, -0.0730000000000000, 0.0127000000000000 ) );
#144 = DIRECTION( '', ( 1.00000000000000, -0.00000000000000, -0.00000000000000 ) );
#145 = DIRECTION( '', ( 0.00000000000000, 0.00000000000000, 1.00000000000000 ) );
#146 = SURFACE_STYLE_FILL_AREA( #231 );
#147 = ORIENTED_EDGE( '', *, *, #232, .T. );
#148 = ORIENTED_EDGE( '', *, *, #233, .F. );
#149 = ORIENTED_EDGE( '', *, *, #234, .F. );
#150 = ORIENTED_EDGE( '', *, *, #227, .F. );
#151 = ORIENTED_EDGE( '', *, *, #235, .F. );
#152 = ORIENTED_EDGE( '', *, *, #236, .F. );
#153 = ORIENTED_EDGE( '', *, *, #237, .T. );
#154 = ORIENTED_EDGE( '', *, *, #238, .F. );
#155 = CARTESIAN_POINT( '', ( 0.180000000000000, 0.00700000000000000, 0.0602000000000000 ) );
#156 = DIRECTION( '', ( 1.00000000000000, 0.00000000000000, 0.00000000000000 ) );
#157 = DIRECTION( '', ( 0.00000000000000, 1.00000000000000, 0.00000000000000 ) );
#158 = SURFACE_STYLE_FILL_AREA( #239 );
#159 = ORIENTED_EDGE( '', *, *, #233, .T. );
#160 = ORIENTED_EDGE( '', *, *, #240, .F. );
#161 = ORIENTED_EDGE( '', *, *, #241, .F. );
#162 = ORIENTED_EDGE( '', *, *, #242, .T. );
#163 = CARTESIAN_POINT( '', ( 0.182000000000000, 0.0870000000000000, 0.0127000000000000 ) );
#164 = DIRECTION( '', ( 1.00000000000000, -0.00000000000000, -0.00000000000000 ) );
#165 = DIRECTION( '', ( 0.00000000000000, 0.00000000000000, 1.00000000000000 ) );
#166 = SURFACE_STYLE_FILL_AREA( #243 );
#167 = ORIENTED_EDGE( '', *, *, #238, .T. );
#168 = ORIENTED_EDGE( '', *, *, #244, .F. );
#169 = ORIENTED_EDGE( '', *, *, #245, .F. );
#170 = ORIENTED_EDGE( '', *, *, #246, .T. );
#171 = CARTESIAN_POINT( '', ( 0.182000000000000, 0.0870000000000000, 0.107700000000000 ) );
#172 = DIRECTION( '', ( 1.00000000000000, -0.00000000000000, -0.00000000000000 ) );
#173 = DIRECTION( '', ( 0.00000000000000, 0.00000000000000, 1.00000000000000 ) );
#174 = SURFACE_STYLE_FILL_AREA( #247 );
#175 = ORIENTED_EDGE( '', *, *, #235, .T. );
#176 = ORIENTED_EDGE( '', *, *, #230, .F. );
#177 = ORIENTED_EDGE( '', *, *, #248, .F. );
#178 = ORIENTED_EDGE( '', *, *, #249, .T. );
#179 = CARTESIAN_POINT( '', ( 0.182000000000000, -0.0830000000000000, 0.0602000000000000 ) );
#180 = DIRECTION( '', ( 0.00000000000000, 1.00000000000000, 0.00000000000000 ) );
#181 = DIRECTION( '', ( 0.00000000000000, 0.00000000000000, 1.00000000000000 ) );
#182 = SURFACE_STYLE_FILL_AREA( #250 );
#183 = ORIENTED_EDGE( '', *, *, #232, .F. );
#184 = ORIENTED_EDGE( '', *, *, #246, .F. );
#185 = ORIENTED_EDGE( '', *, *, #251, .T. );
#186 = ORIENTED_EDGE( '', *, *, #240, .T. );
#187 = CARTESIAN_POINT( '', ( 0.182000000000000, 0.0970000000000000, 0.0602000000000000 ) );
#188 = DIRECTION( '', ( 0.00000000000000, 1.00000000000000, 0.00000000000000 ) );
#189 = DIRECTION( '', ( 0.00000000000000, 0.00000000000000, 1.00000000000000 ) );
#190 = SURFACE_STYLE_FILL_AREA( #252 );
#191 = ORIENTED_EDGE( '', *, *, #236, .T. );
#192 = ORIENTED_EDGE( '', *, *, #249, .F. );
#193 = ORIENTED_EDGE( '', *, *, #253, .F. );
#194 = ORIENTED_EDGE( '', *, *, #254, .T. );
#195 = CARTESIAN_POINT( '', ( 0.182000000000000, -0.0730000000000000, 0.107700000000000 ) );
#196 = DIRECTION( '', ( 1.00000000000000, -0.00000000000000, -0.00000000000000 ) );
#197 = DIRECTION( '', ( 0.00000000000000, 0.00000000000000, 1.00000000000000 ) );
#198 = SURFACE_STYLE_FILL_AREA( #255 );
#199 = ORIENTED_EDGE( '', *, *, #237, .F. );
#200 = ORIENTED_EDGE( '', *, *, #254, .F. );
#201 = ORIENTED_EDGE( '', *, *, #256, .T. );
#202 = ORIENTED_EDGE( '', *, *, #244, .T. );
#203 = CARTESIAN_POINT( '', ( 0.182000000000000, 0.00700000000000000, 0.117700000000000 ) );
#204 = DIRECTION( '', ( 0.00000000000000, 0.00000000000000, 1.00000000000000 ) );
#205 = DIRECTION( '', ( 1.00000000000000, 0.00000000000000, 0.00000000000000 ) );
#206 = SURFACE_STYLE_FILL_AREA( #257 );
#207 = ORIENTED_EDGE( '', *, *, #251, .F. );
#208 = ORIENTED_EDGE( '', *, *, #245, .T. );
#209 = ORIENTED_EDGE( '', *, *, #256, .F. );
#210 = ORIENTED_EDGE( '', *, *, #253, .T. );
#211 = ORIENTED_EDGE( '', *, *, #248, .T. );
#212 = ORIENTED_EDGE( '', *, *, #229, .T. );
#213 = ORIENTED_EDGE( '', *, *, #258, .T. );
#214 = ORIENTED_EDGE( '', *, *, #241, .T. );
#215 = CARTESIAN_POINT( '', ( 0.182000000000000, 0.00700000000000000, 0.0602000000000000 ) );
#216 = DIRECTION( '', ( 1.00000000000000, 0.00000000000000, 0.00000000000000 ) );
#217 = DIRECTION( '', ( 0.00000000000000, 1.00000000000000, 0.00000000000000 ) );
#218 = SURFACE_STYLE_FILL_AREA( #259 );
#219 = ORIENTED_EDGE( '', *, *, #234, .T. );
#220 = ORIENTED_EDGE( '', *, *, #242, .F. );
#221 = ORIENTED_EDGE( '', *, *, #258, .F. );
#222 = ORIENTED_EDGE( '', *, *, #228, .T. );
#223 = CARTESIAN_POINT( '', ( 0.182000000000000, 0.00700000000000000, 0.00270000000000000 ) );
#224 = DIRECTION( '', ( 0.00000000000000, 0.00000000000000, 1.00000000000000 ) );
#225 = DIRECTION( '', ( 1.00000000000000, 0.00000000000000, 0.00000000000000 ) );
#226 = FILL_AREA_STYLE( '', ( #260 ) );
#227 = EDGE_CURVE( '', #261, #262, #263, .T. );
#228 = EDGE_CURVE( '', #264, #262, #265, .T. );
#229 = EDGE_CURVE( '', #266, #264, #267, .T. );
#230 = EDGE_CURVE( '', #266, #261, #268, .T. );
#231 = FILL_AREA_STYLE( '', ( #269 ) );
#232 = EDGE_CURVE( '', #270, #271, #272, .T. );
#233 = EDGE_CURVE( '', #273, #271, #274, .T. );
#234 = EDGE_CURVE( '', #262, #273, #275, .T. );
#235 = EDGE_CURVE( '', #276, #261, #277, .T. );
#236 = EDGE_CURVE( '', #278, #276, #279, .T. );
#237 = EDGE_CURVE( '', #278, #280, #281, .T. );
#238 = EDGE_CURVE( '', #270, #280, #282, .T. );
#239 = FILL_AREA_STYLE( '', ( #283 ) );
#240 = EDGE_CURVE( '', #284, #271, #285, .T. );
#241 = EDGE_CURVE( '', #286, #284, #287, .T. );
#242 = EDGE_CURVE( '', #286, #273, #288, .T. );
#243 = FILL_AREA_STYLE( '', ( #289 ) );
#244 = EDGE_CURVE( '', #290, #280, #291, .T. );
#245 = EDGE_CURVE( '', #292, #290, #293, .T. );
#246 = EDGE_CURVE( '', #292, #270, #294, .T. );
#247 = FILL_AREA_STYLE( '', ( #295 ) );
#248 = EDGE_CURVE( '', #296, #266, #297, .T. );
#249 = EDGE_CURVE( '', #296, #276, #298, .T. );
#250 = FILL_AREA_STYLE( '', ( #299 ) );
#251 = EDGE_CURVE( '', #292, #284, #300, .T. );
#252 = FILL_AREA_STYLE( '', ( #301 ) );
#253 = EDGE_CURVE( '', #302, #296, #303, .T. );
#254 = EDGE_CURVE( '', #302, #278, #304, .T. );
#255 = FILL_AREA_STYLE( '', ( #305 ) );
#256 = EDGE_CURVE( '', #302, #290, #306, .T. );
#257 = FILL_AREA_STYLE( '', ( #307 ) );
#258 = EDGE_CURVE( '', #264, #286, #308, .T. );
#259 = FILL_AREA_STYLE( '', ( #309 ) );
#260 = FILL_AREA_STYLE_COLOUR( '', #310 );
#261 = VERTEX_POINT( '', #311 );
#262 = VERTEX_POINT( '', #312 );
#263 = CIRCLE( '', #313, 0.0100000000000000 );
#264 = VERTEX_POINT( '', #314 );
#265 = LINE( '', #315, #316 );
#266 = VERTEX_POINT( '', #317 );
#267 = CIRCLE( '', #318, 0.0100000000000000 );
#268 = LINE( '', #319, #320 );
#269 = FILL_AREA_STYLE_COLOUR( '', #321 );
#270 = VERTEX_POINT( '', #322 );
#271 = VERTEX_POINT( '', #323 );
#272 = LINE( '', #324, #325 );
#273 = VERTEX_POINT( '', #326 );
#274 = CIRCLE( '', #327, 0.0100000000000000 );
#275 = LINE( '', #328, #329 );
#276 = VERTEX_POINT( '', #330 );
#277 = LINE( '', #331, #332 );
#278 = VERTEX_POINT( '', #333 );
#279 = CIRCLE( '', #334, 0.0100000000000000 );
#280 = VERTEX_POINT( '', #335 );
#281 = LINE( '', #336, #337 );
#282 = CIRCLE( '', #338, 0.0100000000000000 );
#283 = FILL_AREA_STYLE_COLOUR( '', #339 );
#284 = VERTEX_POINT( '', #340 );
#285 = LINE( '', #341, #342 );
#286 = VERTEX_POINT( '', #343 );
#287 = CIRCLE( '', #344, 0.0100000000000000 );
#288 = LINE( '', #345, #346 );
#289 = FILL_AREA_STYLE_COLOUR( '', #347 );
#290 = VERTEX_POINT( '', #348 );
#291 = LINE( '', #349, #350 );
#292 = VERTEX_POINT( '', #351 );
#293 = CIRCLE( '', #352, 0.0100000000000000 );
#294 = LINE( '', #353, #354 );
#295 = FILL_AREA_STYLE_COLOUR( '', #355 );
#296 = VERTEX_POINT( '', #356 );
#297 = LINE( '', #357, #358 );
#298 = LINE( '', #359, #360 );
#299 = FILL_AREA_STYLE_COLOUR( '', #361 );
#300 = LINE( '', #362, #363 );
#301 = FILL_AREA_STYLE_COLOUR( '', #364 );
#302 = VERTEX_POINT( '', #365 );
#303 = CIRCLE( '', #366, 0.0100000000000000 );
#304 = LINE( '', #367, #368 );
#305 = FILL_AREA_STYLE_COLOUR( '', #369 );
#306 = LINE( '', #370, #371 );
#307 = FILL_AREA_STYLE_COLOUR( '', #372 );
#308 = LINE( '', #373, #374 );
#309 = FILL_AREA_STYLE_COLOUR( '', #375 );
#310 = COLOUR_RGB( '', 0.980392158000000, 0.713725507300000, 0.00392156890000000 );
#311 = CARTESIAN_POINT( '', ( 0.180000000000000, -0.0830000000000000, 0.0127000000000000 ) );
#312 = CARTESIAN_POINT( '', ( 0.180000000000000, -0.0730000000000000, 0.00270000000000000 ) );
#313 = AXIS2_PLACEMENT_3D( '', #376, #377, #378 );
#314 = CARTESIAN_POINT( '', ( 0.182000000000000, -0.0730000000000000, 0.00270000000000000 ) );
#315 = CARTESIAN_POINT( '', ( 0.182000000000000, -0.0730000000000000, 0.00270000000000000 ) );
#316 = VECTOR( '', #379, 1.00000000000000 );
#317 = CARTESIAN_POINT( '', ( 0.182000000000000, -0.0830000000000000, 0.0127000000000000 ) );
#318 = AXIS2_PLACEMENT_3D( '', #380, #381, #382 );
#319 = CARTESIAN_POINT( '', ( 0.182000000000000, -0.0830000000000000, 0.0127000000000000 ) );
#320 = VECTOR( '', #383, 1.00000000000000 );
#321 = COLOUR_RGB( '', 0.980392158000000, 0.713725507300000, 0.00392156890000000 );
#322 = CARTESIAN_POINT( '', ( 0.180000000000000, 0.0970000000000000, 0.107700000000000 ) );
#323 = CARTESIAN_POINT( '', ( 0.180000000000000, 0.0970000000000000, 0.0127000000000000 ) );
#324 = CARTESIAN_POINT( '', ( 0.180000000000000, 0.0970000000000000, 0.0602000000000000 ) );
#325 = VECTOR( '', #384, 1.00000000000000 );
#326 = CARTESIAN_POINT( '', ( 0.180000000000000, 0.0870000000000000, 0.00270000000000000 ) );
#327 = AXIS2_PLACEMENT_3D( '', #385, #386, #387 );
#328 = CARTESIAN_POINT( '', ( 0.180000000000000, 0.00700000000000000, 0.00270000000000000 ) );
#329 = VECTOR( '', #388, 1.00000000000000 );
#330 = CARTESIAN_POINT( '', ( 0.180000000000000, -0.0830000000000000, 0.107700000000000 ) );
#331 = CARTESIAN_POINT( '', ( 0.180000000000000, -0.0830000000000000, 0.0602000000000000 ) );
#332 = VECTOR( '', #389, 1.00000000000000 );
#333 = CARTESIAN_POINT( '', ( 0.180000000000000, -0.0730000000000000, 0.117700000000000 ) );
#334 = AXIS2_PLACEMENT_3D( '', #390, #391, #392 );
#335 = CARTESIAN_POINT( '', ( 0.180000000000000, 0.0870000000000000, 0.117700000000000 ) );
#336 = CARTESIAN_POINT( '', ( 0.180000000000000, 0.00700000000000000, 0.117700000000000 ) );
#337 = VECTOR( '', #393, 1.00000000000000 );
#338 = AXIS2_PLACEMENT_3D( '', #394, #395, #396 );
#339 = COLOUR_RGB( '', 0.980392158000000, 0.713725507300000, 0.00392156890000000 );
#340 = CARTESIAN_POINT( '', ( 0.182000000000000, 0.0970000000000000, 0.0127000000000000 ) );
#341 = CARTESIAN_POINT( '', ( 0.182000000000000, 0.0970000000000000, 0.0127000000000000 ) );
#342 = VECTOR( '', #397, 1.00000000000000 );
#343 = CARTESIAN_POINT( '', ( 0.182000000000000, 0.0870000000000000, 0.00270000000000000 ) );
#344 = AXIS2_PLACEMENT_3D( '', #398, #399, #400 );
#345 = CARTESIAN_POINT( '', ( 0.182000000000000, 0.0870000000000000, 0.00270000000000000 ) );
#346 = VECTOR( '', #401, 1.00000000000000 );
#347 = COLOUR_RGB( '', 0.980392158000000, 0.713725507300000, 0.00392156890000000 );
#348 = CARTESIAN_POINT( '', ( 0.182000000000000, 0.0870000000000000, 0.117700000000000 ) );
#349 = CARTESIAN_POINT( '', ( 0.182000000000000, 0.0870000000000000, 0.117700000000000 ) );
#350 = VECTOR( '', #402, 1.00000000000000 );
#351 = CARTESIAN_POINT( '', ( 0.182000000000000, 0.0970000000000000, 0.107700000000000 ) );
#352 = AXIS2_PLACEMENT_3D( '', #403, #404, #405 );
#353 = CARTESIAN_POINT( '', ( 0.182000000000000, 0.0970000000000000, 0.107700000000000 ) );
#354 = VECTOR( '', #406, 1.00000000000000 );
#355 = COLOUR_RGB( '', 0.980392158000000, 0.713725507300000, 0.00392156890000000 );
#356 = CARTESIAN_POINT( '', ( 0.182000000000000, -0.0830000000000000, 0.107700000000000 ) );
#357 = CARTESIAN_POINT( '', ( 0.182000000000000, -0.0830000000000000, 0.0602000000000000 ) );
#358 = VECTOR( '', #407, 1.00000000000000 );
#359 = CARTESIAN_POINT( '', ( 0.182000000000000, -0.0830000000000000, 0.107700000000000 ) );
#360 = VECTOR( '', #408, 1.00000000000000 );
#361 = COLOUR_RGB( '', 0.980392158000000, 0.713725507300000, 0.00392156890000000 );
#362 = CARTESIAN_POINT( '', ( 0.182000000000000, 0.0970000000000000, 0.0602000000000000 ) );
#363 = VECTOR( '', #409, 1.00000000000000 );
#364 = COLOUR_RGB( '', 0.980392158000000, 0.713725507300000, 0.00392156890000000 );
#365 = CARTESIAN_POINT( '', ( 0.182000000000000, -0.0730000000000000, 0.117700000000000 ) );
#366 = AXIS2_PLACEMENT_3D( '', #410, #411, #412 );
#367 = CARTESIAN_POINT( '', ( 0.182000000000000, -0.0730000000000000, 0.117700000000000 ) );
#368 = VECTOR( '', #413, 1.00000000000000 );
#369 = COLOUR_RGB( '', 0.980392158000000, 0.713725507300000, 0.00392156890000000 );
#370 = CARTESIAN_POINT( '', ( 0.182000000000000, 0.00700000000000000, 0.117700000000000 ) );
#371 = VECTOR( '', #414, 1.00000000000000 );
#372 = COLOUR_RGB( '', 0.980392158000000, 0.713725507300000, 0.00392156890000000 );
#373 = CARTESIAN_POINT( '', ( 0.182000000000000, 0.00700000000000000, 0.00270000000000000 ) );
#374 = VECTOR( '', #415, 1.00000000000000 );
#375 = COLOUR_RGB( '', 0.980392158000000, 0.713725507300000, 0.00392156890000000 );
#376 = CARTESIAN_POINT( '', ( 0.180000000000000, -0.0730000000000000, 0.0127000000000000 ) );
#377 = DIRECTION( '', ( 1.00000000000000, 0.00000000000000, 0.00000000000000 ) );
#378 = DIRECTION( '', ( 0.00000000000000, 0.00000000000000, -1.00000000000000 ) );
#379 = DIRECTION( '', ( -1.00000000000000, 0.00000000000000, 0.00000000000000 ) );
#380 = CARTESIAN_POINT( '', ( 0.182000000000000, -0.0730000000000000, 0.0127000000000000 ) );
#381 = DIRECTION( '', ( 1.00000000000000, 0.00000000000000, 0.00000000000000 ) );
#382 = DIRECTION( '', ( 0.00000000000000, 0.00000000000000, -1.00000000000000 ) );
#383 = DIRECTION( '', ( -1.00000000000000, 0.00000000000000, 0.00000000000000 ) );
#384 = DIRECTION( '', ( 0.00000000000000, 0.00000000000000, -1.00000000000000 ) );
#385 = CARTESIAN_POINT( '', ( 0.180000000000000, 0.0870000000000000, 0.0127000000000000 ) );
#386 = DIRECTION( '', ( 1.00000000000000, 0.00000000000000, 0.00000000000000 ) );
#387 = DIRECTION( '', ( 0.00000000000000, 0.00000000000000, -1.00000000000000 ) );
#388 = DIRECTION( '', ( 0.00000000000000, 1.00000000000000, 0.00000000000000 ) );
#389 = DIRECTION( '', ( 0.00000000000000, 0.00000000000000, -1.00000000000000 ) );
#390 = CARTESIAN_POINT( '', ( 0.180000000000000, -0.0730000000000000, 0.107700000000000 ) );
#391 = DIRECTION( '', ( 1.00000000000000, 0.00000000000000, 0.00000000000000 ) );
#392 = DIRECTION( '', ( 0.00000000000000, 0.00000000000000, -1.00000000000000 ) );
#393 = DIRECTION( '', ( 0.00000000000000, 1.00000000000000, 0.00000000000000 ) );
#394 = CARTESIAN_POINT( '', ( 0.180000000000000, 0.0870000000000000, 0.107700000000000 ) );
#395 = DIRECTION( '', ( 1.00000000000000, 0.00000000000000, 0.00000000000000 ) );
#396 = DIRECTION( '', ( 0.00000000000000, 0.00000000000000, -1.00000000000000 ) );
#397 = DIRECTION( '', ( -1.00000000000000, 0.00000000000000, 0.00000000000000 ) );
#398 = CARTESIAN_POINT( '', ( 0.182000000000000, 0.0870000000000000, 0.0127000000000000 ) );
#399 = DIRECTION( '', ( 1.00000000000000, 0.00000000000000, 0.00000000000000 ) );
#400 = DIRECTION( '', ( 0.00000000000000, 0.00000000000000, -1.00000000000000 ) );
#401 = DIRECTION( '', ( -1.00000000000000, 0.00000000000000, 0.00000000000000 ) );
#402 = DIRECTION( '', ( -1.00000000000000, 0.00000000000000, 0.00000000000000 ) );
#403 = CARTESIAN_POINT( '', ( 0.182000000000000, 0.0870000000000000, 0.107700000000000 ) );
#404 = DIRECTION( '', ( 1.00000000000000, 0.00000000000000, 0.00000000000000 ) );
#405 = DIRECTION( '', ( 0.00000000000000, 0.00000000000000, -1.00000000000000 ) );
#406 = DIRECTION( '', ( -1.00000000000000, 0.00000000000000, 0.00000000000000 ) );
#407 = DIRECTION( '', ( 0.00000000000000, 0.00000000000000, -1.00000000000000 ) );
#408 = DIRECTION( '', ( -1.00000000000000, 0.00000000000000, 0.00000000000000 ) );
#409 = DIRECTION( '', ( 0.00000000000000, 0.00000000000000, -1.00000000000000 ) );
#410 = CARTESIAN_POINT( '', ( 0.182000000000000, -0.0730000000000000, 0.107700000000000 ) );
#411 = DIRECTION( '', ( 1.00000000000000, 0.00000000000000, 0.00000000000000 ) );
#412 = DIRECTION( '', ( 0.00000000000000, 0.00000000000000, -1.00000000000000 ) );
#413 = DIRECTION( '', ( -1.00000000000000, 0.00000000000000, 0.00000000000000 ) );
#414 = DIRECTION( '', ( 0.00000000000000, 1.00000000000000, 0.00000000000000 ) );
#415 = DIRECTION( '', ( 0.00000000000000, 1.00000000000000, 0.00000000000000 ) );
ENDSEC;
END-ISO-10303-21;
