ISO-10303-21;
HEADER;
FILE_DESCRIPTION( ( '' ), ' ' );
FILE_NAME( '/vol/tmp/translate-11065737558782352180/5eb6fea0989cf415cf5a59d8.step', '2020-05-09T19:04:01', ( '' ), ( '' ), ' ', ' ', ' ' );
FILE_SCHEMA( ( 'AUTOMOTIVE_DESIGN { 1 0 10303 214 1 1 1 1 }' ) );
ENDSEC;
DATA;
#1 = MECHANICAL_DESIGN_GEOMETRIC_PRESENTATION_REPRESENTATION( ' ', ( #10, #11, #12, #13, #14, #15, #16, #17, #18, #19, #20, #21, #22, #23, #24, #25, #26, #27, #28, #29, #30, #31, #32, #33, #34, #35, #36, #37, #38, #39, #40, #41, #42, #43, #44, #45, #46, #47 ), #6 );
#2 = PRODUCT_DEFINITION_CONTEXT( '', #48, 'design' );
#3 = APPLICATION_PROTOCOL_DEFINITION( 'international standard', 'automotive_design', 2001, #48 );
#4 = PRODUCT_CATEGORY_RELATIONSHIP( 'NONE', 'NONE', #49, #50 );
#5 = SHAPE_DEFINITION_REPRESENTATION( #51, #52 );
#6 =  ( GEOMETRIC_REPRESENTATION_CONTEXT( 3 )GLOBAL_UNCERTAINTY_ASSIGNED_CONTEXT( ( #55 ) )GLOBAL_UNIT_ASSIGNED_CONTEXT( ( #57, #58, #59 ) )REPRESENTATION_CONTEXT( 'NONE', 'WORKSPACE' ) );
#10 = STYLED_ITEM( '', ( #61 ), #62 );
#11 = STYLED_ITEM( '', ( #63 ), #64 );
#12 = STYLED_ITEM( '', ( #65 ), #66 );
#13 = STYLED_ITEM( '', ( #67 ), #68 );
#14 = STYLED_ITEM( '', ( #69 ), #70 );
#15 = STYLED_ITEM( '', ( #71 ), #72 );
#16 = STYLED_ITEM( '', ( #73 ), #74 );
#17 = STYLED_ITEM( '', ( #75 ), #76 );
#18 = STYLED_ITEM( '', ( #77 ), #78 );
#19 = STYLED_ITEM( '', ( #79 ), #80 );
#20 = STYLED_ITEM( '', ( #81 ), #82 );
#21 = STYLED_ITEM( '', ( #83 ), #84 );
#22 = STYLED_ITEM( '', ( #85 ), #86 );
#23 = STYLED_ITEM( '', ( #87 ), #88 );
#24 = STYLED_ITEM( '', ( #89 ), #90 );
#25 = STYLED_ITEM( '', ( #91 ), #92 );
#26 = STYLED_ITEM( '', ( #93 ), #94 );
#27 = STYLED_ITEM( '', ( #95 ), #96 );
#28 = STYLED_ITEM( '', ( #97 ), #98 );
#29 = STYLED_ITEM( '', ( #99 ), #100 );
#30 = STYLED_ITEM( '', ( #101 ), #102 );
#31 = STYLED_ITEM( '', ( #103 ), #104 );
#32 = STYLED_ITEM( '', ( #105 ), #106 );
#33 = STYLED_ITEM( '', ( #107 ), #108 );
#34 = STYLED_ITEM( '', ( #109 ), #110 );
#35 = STYLED_ITEM( '', ( #111 ), #112 );
#36 = STYLED_ITEM( '', ( #113 ), #114 );
#37 = STYLED_ITEM( '', ( #115 ), #116 );
#38 = STYLED_ITEM( '', ( #117 ), #118 );
#39 = STYLED_ITEM( '', ( #119 ), #120 );
#40 = STYLED_ITEM( '', ( #121 ), #122 );
#41 = STYLED_ITEM( '', ( #123 ), #124 );
#42 = STYLED_ITEM( '', ( #125 ), #126 );
#43 = STYLED_ITEM( '', ( #127 ), #128 );
#44 = STYLED_ITEM( '', ( #129 ), #130 );
#45 = STYLED_ITEM( '', ( #131 ), #132 );
#46 = STYLED_ITEM( '', ( #133 ), #134 );
#47 = STYLED_ITEM( '', ( #135 ), #136 );
#48 = APPLICATION_CONTEXT( 'core data for automotive mechanical design processes' );
#49 = PRODUCT_CATEGORY( 'part', 'NONE' );
#50 = PRODUCT_RELATED_PRODUCT_CATEGORY( 'detail', ' ', ( #137 ) );
#51 = PRODUCT_DEFINITION_SHAPE( 'NONE', 'NONE', #138 );
#52 = ADVANCED_BREP_SHAPE_REPRESENTATION( 'carrying_bag_bottom_x2', ( #139, #140 ), #6 );
#55 = UNCERTAINTY_MEASURE_WITH_UNIT( LENGTH_MEASURE( 1.00000000000000E-06 ), #57, '', '' );
#57 =  ( CONVERSION_BASED_UNIT( 'METRE', #143 )LENGTH_UNIT(  )NAMED_UNIT( #146 ) );
#58 =  ( NAMED_UNIT( #148 )PLANE_ANGLE_UNIT(  )SI_UNIT( $, .RADIAN. ) );
#59 =  ( NAMED_UNIT( #148 )SI_UNIT( $, .STERADIAN. )SOLID_ANGLE_UNIT(  ) );
#61 = PRESENTATION_STYLE_ASSIGNMENT( ( #154 ) );
#62 = ADVANCED_FACE( '', ( #155 ), #156, .F. );
#63 = PRESENTATION_STYLE_ASSIGNMENT( ( #157 ) );
#64 = ADVANCED_FACE( '', ( #158 ), #159, .F. );
#65 = PRESENTATION_STYLE_ASSIGNMENT( ( #160 ) );
#66 = ADVANCED_FACE( '', ( #161 ), #162, .F. );
#67 = PRESENTATION_STYLE_ASSIGNMENT( ( #163 ) );
#68 = ADVANCED_FACE( '', ( #164 ), #165, .F. );
#69 = PRESENTATION_STYLE_ASSIGNMENT( ( #166 ) );
#70 = ADVANCED_FACE( '', ( #167 ), #168, .T. );
#71 = PRESENTATION_STYLE_ASSIGNMENT( ( #169 ) );
#72 = ADVANCED_FACE( '', ( #170 ), #171, .F. );
#73 = PRESENTATION_STYLE_ASSIGNMENT( ( #172 ) );
#74 = ADVANCED_FACE( '', ( #173 ), #174, .F. );
#75 = PRESENTATION_STYLE_ASSIGNMENT( ( #175 ) );
#76 = ADVANCED_FACE( '', ( #176 ), #177, .T. );
#77 = PRESENTATION_STYLE_ASSIGNMENT( ( #178 ) );
#78 = ADVANCED_FACE( '', ( #179 ), #180, .F. );
#79 = PRESENTATION_STYLE_ASSIGNMENT( ( #181 ) );
#80 = ADVANCED_FACE( '', ( #182 ), #183, .T. );
#81 = PRESENTATION_STYLE_ASSIGNMENT( ( #184 ) );
#82 = ADVANCED_FACE( '', ( #185 ), #186, .T. );
#83 = PRESENTATION_STYLE_ASSIGNMENT( ( #187 ) );
#84 = ADVANCED_FACE( '', ( #188 ), #189, .F. );
#85 = PRESENTATION_STYLE_ASSIGNMENT( ( #190 ) );
#86 = ADVANCED_FACE( '', ( #191 ), #192, .T. );
#87 = PRESENTATION_STYLE_ASSIGNMENT( ( #193 ) );
#88 = ADVANCED_FACE( '', ( #194 ), #195, .F. );
#89 = PRESENTATION_STYLE_ASSIGNMENT( ( #196 ) );
#90 = ADVANCED_FACE( '', ( #197 ), #198, .T. );
#91 = PRESENTATION_STYLE_ASSIGNMENT( ( #199 ) );
#92 = ADVANCED_FACE( '', ( #200 ), #201, .T. );
#93 = PRESENTATION_STYLE_ASSIGNMENT( ( #202 ) );
#94 = ADVANCED_FACE( '', ( #203 ), #204, .F. );
#95 = PRESENTATION_STYLE_ASSIGNMENT( ( #205 ) );
#96 = ADVANCED_FACE( '', ( #206 ), #207, .T. );
#97 = PRESENTATION_STYLE_ASSIGNMENT( ( #208 ) );
#98 = ADVANCED_FACE( '', ( #209 ), #210, .F. );
#99 = PRESENTATION_STYLE_ASSIGNMENT( ( #211 ) );
#100 = ADVANCED_FACE( '', ( #212 ), #213, .F. );
#101 = PRESENTATION_STYLE_ASSIGNMENT( ( #214 ) );
#102 = ADVANCED_FACE( '', ( #215 ), #216, .F. );
#103 = PRESENTATION_STYLE_ASSIGNMENT( ( #217 ) );
#104 = ADVANCED_FACE( '', ( #218 ), #219, .F. );
#105 = PRESENTATION_STYLE_ASSIGNMENT( ( #220 ) );
#106 = ADVANCED_FACE( '', ( #221 ), #222, .T. );
#107 = PRESENTATION_STYLE_ASSIGNMENT( ( #223 ) );
#108 = ADVANCED_FACE( '', ( #224 ), #225, .T. );
#109 = PRESENTATION_STYLE_ASSIGNMENT( ( #226 ) );
#110 = ADVANCED_FACE( '', ( #227 ), #228, .F. );
#111 = PRESENTATION_STYLE_ASSIGNMENT( ( #229 ) );
#112 = ADVANCED_FACE( '', ( #230 ), #231, .F. );
#113 = PRESENTATION_STYLE_ASSIGNMENT( ( #232 ) );
#114 = ADVANCED_FACE( '', ( #233 ), #234, .T. );
#115 = PRESENTATION_STYLE_ASSIGNMENT( ( #235 ) );
#116 = ADVANCED_FACE( '', ( #236 ), #237, .F. );
#117 = PRESENTATION_STYLE_ASSIGNMENT( ( #238 ) );
#118 = ADVANCED_FACE( '', ( #239 ), #240, .F. );
#119 = PRESENTATION_STYLE_ASSIGNMENT( ( #241 ) );
#120 = ADVANCED_FACE( '', ( #242 ), #243, .F. );
#121 = PRESENTATION_STYLE_ASSIGNMENT( ( #244 ) );
#122 = ADVANCED_FACE( '', ( #245 ), #246, .T. );
#123 = PRESENTATION_STYLE_ASSIGNMENT( ( #247 ) );
#124 = ADVANCED_FACE( '', ( #248 ), #249, .F. );
#125 = PRESENTATION_STYLE_ASSIGNMENT( ( #250 ) );
#126 = ADVANCED_FACE( '', ( #251 ), #252, .F. );
#127 = PRESENTATION_STYLE_ASSIGNMENT( ( #253 ) );
#128 = ADVANCED_FACE( '', ( #254 ), #255, .F. );
#129 = PRESENTATION_STYLE_ASSIGNMENT( ( #256 ) );
#130 = ADVANCED_FACE( '', ( #257 ), #258, .F. );
#131 = PRESENTATION_STYLE_ASSIGNMENT( ( #259 ) );
#132 = ADVANCED_FACE( '', ( #260 ), #261, .F. );
#133 = PRESENTATION_STYLE_ASSIGNMENT( ( #262 ) );
#134 = ADVANCED_FACE( '', ( #263 ), #264, .F. );
#135 = PRESENTATION_STYLE_ASSIGNMENT( ( #265 ) );
#136 = ADVANCED_FACE( '', ( #266 ), #267, .T. );
#137 = PRODUCT( 'carrying_bag_bottom_x2', 'carrying_bag_bottom_x2', 'PART-carrying_bag_bottom_x2-DESC', ( #268 ) );
#138 = PRODUCT_DEFINITION( 'NONE', 'NONE', #269, #2 );
#139 = MANIFOLD_SOLID_BREP( 'carrying_bag_bottom_x2', #270 );
#140 = AXIS2_PLACEMENT_3D( '', #271, #272, #273 );
#143 = LENGTH_MEASURE_WITH_UNIT( LENGTH_MEASURE( 1.00000000000000 ), #274 );
#146 = DIMENSIONAL_EXPONENTS( 1.00000000000000, 0.00000000000000, 0.00000000000000, 0.00000000000000, 0.00000000000000, 0.00000000000000, 0.00000000000000 );
#148 = DIMENSIONAL_EXPONENTS( 0.00000000000000, 0.00000000000000, 0.00000000000000, 0.00000000000000, 0.00000000000000, 0.00000000000000, 0.00000000000000 );
#154 = SURFACE_STYLE_USAGE( .BOTH., #275 );
#155 = FACE_OUTER_BOUND( '', #276, .T. );
#156 = PLANE( '', #277 );
#157 = SURFACE_STYLE_USAGE( .BOTH., #278 );
#158 = FACE_OUTER_BOUND( '', #279, .T. );
#159 = PLANE( '', #280 );
#160 = SURFACE_STYLE_USAGE( .BOTH., #281 );
#161 = FACE_OUTER_BOUND( '', #282, .T. );
#162 = PLANE( '', #283 );
#163 = SURFACE_STYLE_USAGE( .BOTH., #284 );
#164 = FACE_OUTER_BOUND( '', #285, .T. );
#165 = CYLINDRICAL_SURFACE( '', #286, 0.00100000000000000 );
#166 = SURFACE_STYLE_USAGE( .BOTH., #287 );
#167 = FACE_OUTER_BOUND( '', #288, .T. );
#168 = PLANE( '', #289 );
#169 = SURFACE_STYLE_USAGE( .BOTH., #290 );
#170 = FACE_OUTER_BOUND( '', #291, .T. );
#171 = PLANE( '', #292 );
#172 = SURFACE_STYLE_USAGE( .BOTH., #293 );
#173 = FACE_OUTER_BOUND( '', #294, .T. );
#174 = PLANE( '', #295 );
#175 = SURFACE_STYLE_USAGE( .BOTH., #296 );
#176 = FACE_OUTER_BOUND( '', #297, .T. );
#177 = PLANE( '', #298 );
#178 = SURFACE_STYLE_USAGE( .BOTH., #299 );
#179 = FACE_OUTER_BOUND( '', #300, .T. );
#180 = PLANE( '', #301 );
#181 = SURFACE_STYLE_USAGE( .BOTH., #302 );
#182 = FACE_OUTER_BOUND( '', #303, .T. );
#183 = PLANE( '', #304 );
#184 = SURFACE_STYLE_USAGE( .BOTH., #305 );
#185 = FACE_OUTER_BOUND( '', #306, .T. );
#186 = CYLINDRICAL_SURFACE( '', #307, 0.00140000000000000 );
#187 = SURFACE_STYLE_USAGE( .BOTH., #308 );
#188 = FACE_OUTER_BOUND( '', #309, .T. );
#189 = PLANE( '', #310 );
#190 = SURFACE_STYLE_USAGE( .BOTH., #311 );
#191 = FACE_OUTER_BOUND( '', #312, .T. );
#192 = PLANE( '', #313 );
#193 = SURFACE_STYLE_USAGE( .BOTH., #314 );
#194 = FACE_OUTER_BOUND( '', #315, .T. );
#195 = PLANE( '', #316 );
#196 = SURFACE_STYLE_USAGE( .BOTH., #317 );
#197 = FACE_OUTER_BOUND( '', #318, .T. );
#198 = CYLINDRICAL_SURFACE( '', #319, 0.00140000000000000 );
#199 = SURFACE_STYLE_USAGE( .BOTH., #320 );
#200 = FACE_OUTER_BOUND( '', #321, .T. );
#201 = PLANE( '', #322 );
#202 = SURFACE_STYLE_USAGE( .BOTH., #323 );
#203 = FACE_OUTER_BOUND( '', #324, .T. );
#204 = CYLINDRICAL_SURFACE( '', #325, 0.00100000000000000 );
#205 = SURFACE_STYLE_USAGE( .BOTH., #326 );
#206 = FACE_OUTER_BOUND( '', #327, .T. );
#207 = PLANE( '', #328 );
#208 = SURFACE_STYLE_USAGE( .BOTH., #329 );
#209 = FACE_OUTER_BOUND( '', #330, .T. );
#210 = PLANE( '', #331 );
#211 = SURFACE_STYLE_USAGE( .BOTH., #332 );
#212 = FACE_OUTER_BOUND( '', #333, .T. );
#213 = PLANE( '', #334 );
#214 = SURFACE_STYLE_USAGE( .BOTH., #335 );
#215 = FACE_OUTER_BOUND( '', #336, .T. );
#216 = PLANE( '', #337 );
#217 = SURFACE_STYLE_USAGE( .BOTH., #338 );
#218 = FACE_OUTER_BOUND( '', #339, .T. );
#219 = PLANE( '', #340 );
#220 = SURFACE_STYLE_USAGE( .BOTH., #341 );
#221 = FACE_OUTER_BOUND( '', #342, .T. );
#222 = CYLINDRICAL_SURFACE( '', #343, 0.00140000000000000 );
#223 = SURFACE_STYLE_USAGE( .BOTH., #344 );
#224 = FACE_OUTER_BOUND( '', #345, .T. );
#225 = PLANE( '', #346 );
#226 = SURFACE_STYLE_USAGE( .BOTH., #347 );
#227 = FACE_OUTER_BOUND( '', #348, .T. );
#228 = PLANE( '', #349 );
#229 = SURFACE_STYLE_USAGE( .BOTH., #350 );
#230 = FACE_OUTER_BOUND( '', #351, .T. );
#231 = CYLINDRICAL_SURFACE( '', #352, 0.00100000000000000 );
#232 = SURFACE_STYLE_USAGE( .BOTH., #353 );
#233 = FACE_OUTER_BOUND( '', #354, .T. );
#234 = CYLINDRICAL_SURFACE( '', #355, 0.00140000000000000 );
#235 = SURFACE_STYLE_USAGE( .BOTH., #356 );
#236 = FACE_OUTER_BOUND( '', #357, .T. );
#237 = PLANE( '', #358 );
#238 = SURFACE_STYLE_USAGE( .BOTH., #359 );
#239 = FACE_OUTER_BOUND( '', #360, .T. );
#240 = PLANE( '', #361 );
#241 = SURFACE_STYLE_USAGE( .BOTH., #362 );
#242 = FACE_OUTER_BOUND( '', #363, .T. );
#243 = PLANE( '', #364 );
#244 = SURFACE_STYLE_USAGE( .BOTH., #365 );
#245 = FACE_OUTER_BOUND( '', #366, .T. );
#246 = PLANE( '', #367 );
#247 = SURFACE_STYLE_USAGE( .BOTH., #368 );
#248 = FACE_OUTER_BOUND( '', #369, .T. );
#249 = PLANE( '', #370 );
#250 = SURFACE_STYLE_USAGE( .BOTH., #371 );
#251 = FACE_OUTER_BOUND( '', #372, .T. );
#252 = PLANE( '', #373 );
#253 = SURFACE_STYLE_USAGE( .BOTH., #374 );
#254 = FACE_OUTER_BOUND( '', #375, .T. );
#255 = PLANE( '', #376 );
#256 = SURFACE_STYLE_USAGE( .BOTH., #377 );
#257 = FACE_OUTER_BOUND( '', #378, .T. );
#258 = PLANE( '', #379 );
#259 = SURFACE_STYLE_USAGE( .BOTH., #380 );
#260 = FACE_OUTER_BOUND( '', #381, .T. );
#261 = PLANE( '', #382 );
#262 = SURFACE_STYLE_USAGE( .BOTH., #383 );
#263 = FACE_OUTER_BOUND( '', #384, .T. );
#264 = CYLINDRICAL_SURFACE( '', #385, 0.00100000000000000 );
#265 = SURFACE_STYLE_USAGE( .BOTH., #386 );
#266 = FACE_OUTER_BOUND( '', #387, .T. );
#267 = PLANE( '', #388 );
#268 = PRODUCT_CONTEXT( '', #48, 'mechanical' );
#269 = PRODUCT_DEFINITION_FORMATION_WITH_SPECIFIED_SOURCE( ' ', 'NONE', #137, .NOT_KNOWN. );
#270 = CLOSED_SHELL( '', ( #126, #62, #84, #96, #116, #104, #64, #128, #88, #76, #98, #70, #134, #106, #132, #130, #120, #118, #92, #74, #80, #112, #114, #122, #110, #72, #86, #90, #94, #78, #66, #102, #136, #124, #100, #108, #82, #68 ) );
#271 = CARTESIAN_POINT( '', ( 0.00000000000000, 0.00000000000000, 0.00000000000000 ) );
#272 = DIRECTION( '', ( 0.00000000000000, 0.00000000000000, 1.00000000000000 ) );
#273 = DIRECTION( '', ( 1.00000000000000, 0.00000000000000, 0.00000000000000 ) );
#274 =  ( LENGTH_UNIT(  )NAMED_UNIT( #146 )SI_UNIT( $, .METRE. ) );
#275 = SURFACE_SIDE_STYLE( '', ( #390 ) );
#276 = EDGE_LOOP( '', ( #391, #392, #393, #394 ) );
#277 = AXIS2_PLACEMENT_3D( '', #395, #396, #397 );
#278 = SURFACE_SIDE_STYLE( '', ( #398 ) );
#279 = EDGE_LOOP( '', ( #399, #400, #401, #402 ) );
#280 = AXIS2_PLACEMENT_3D( '', #403, #404, #405 );
#281 = SURFACE_SIDE_STYLE( '', ( #406 ) );
#282 = EDGE_LOOP( '', ( #407, #408, #409, #410 ) );
#283 = AXIS2_PLACEMENT_3D( '', #411, #412, #413 );
#284 = SURFACE_SIDE_STYLE( '', ( #414 ) );
#285 = EDGE_LOOP( '', ( #415, #416, #417, #418 ) );
#286 = AXIS2_PLACEMENT_3D( '', #419, #420, #421 );
#287 = SURFACE_SIDE_STYLE( '', ( #422 ) );
#288 = EDGE_LOOP( '', ( #423, #424, #425, #426 ) );
#289 = AXIS2_PLACEMENT_3D( '', #427, #428, #429 );
#290 = SURFACE_SIDE_STYLE( '', ( #430 ) );
#291 = EDGE_LOOP( '', ( #431, #432, #433, #434 ) );
#292 = AXIS2_PLACEMENT_3D( '', #435, #436, #437 );
#293 = SURFACE_SIDE_STYLE( '', ( #438 ) );
#294 = EDGE_LOOP( '', ( #439, #440, #441, #442 ) );
#295 = AXIS2_PLACEMENT_3D( '', #443, #444, #445 );
#296 = SURFACE_SIDE_STYLE( '', ( #446 ) );
#297 = EDGE_LOOP( '', ( #447, #448, #449, #450 ) );
#298 = AXIS2_PLACEMENT_3D( '', #451, #452, #453 );
#299 = SURFACE_SIDE_STYLE( '', ( #454 ) );
#300 = EDGE_LOOP( '', ( #455, #456, #457, #458 ) );
#301 = AXIS2_PLACEMENT_3D( '', #459, #460, #461 );
#302 = SURFACE_SIDE_STYLE( '', ( #462 ) );
#303 = EDGE_LOOP( '', ( #463, #464, #465, #466 ) );
#304 = AXIS2_PLACEMENT_3D( '', #467, #468, #469 );
#305 = SURFACE_SIDE_STYLE( '', ( #470 ) );
#306 = EDGE_LOOP( '', ( #471, #472, #473, #474 ) );
#307 = AXIS2_PLACEMENT_3D( '', #475, #476, #477 );
#308 = SURFACE_SIDE_STYLE( '', ( #478 ) );
#309 = EDGE_LOOP( '', ( #479, #480, #481, #482 ) );
#310 = AXIS2_PLACEMENT_3D( '', #483, #484, #485 );
#311 = SURFACE_SIDE_STYLE( '', ( #486 ) );
#312 = EDGE_LOOP( '', ( #487, #488, #489, #490 ) );
#313 = AXIS2_PLACEMENT_3D( '', #491, #492, #493 );
#314 = SURFACE_SIDE_STYLE( '', ( #494 ) );
#315 = EDGE_LOOP( '', ( #495, #496, #497, #498 ) );
#316 = AXIS2_PLACEMENT_3D( '', #499, #500, #501 );
#317 = SURFACE_SIDE_STYLE( '', ( #502 ) );
#318 = EDGE_LOOP( '', ( #503, #504, #505, #506 ) );
#319 = AXIS2_PLACEMENT_3D( '', #507, #508, #509 );
#320 = SURFACE_SIDE_STYLE( '', ( #510 ) );
#321 = EDGE_LOOP( '', ( #511, #512, #513, #514 ) );
#322 = AXIS2_PLACEMENT_3D( '', #515, #516, #517 );
#323 = SURFACE_SIDE_STYLE( '', ( #518 ) );
#324 = EDGE_LOOP( '', ( #519, #520, #521, #522 ) );
#325 = AXIS2_PLACEMENT_3D( '', #523, #524, #525 );
#326 = SURFACE_SIDE_STYLE( '', ( #526 ) );
#327 = EDGE_LOOP( '', ( #527, #528, #529, #530 ) );
#328 = AXIS2_PLACEMENT_3D( '', #531, #532, #533 );
#329 = SURFACE_SIDE_STYLE( '', ( #534 ) );
#330 = EDGE_LOOP( '', ( #535, #536, #537, #538 ) );
#331 = AXIS2_PLACEMENT_3D( '', #539, #540, #541 );
#332 = SURFACE_SIDE_STYLE( '', ( #542 ) );
#333 = EDGE_LOOP( '', ( #543, #544, #545, #546 ) );
#334 = AXIS2_PLACEMENT_3D( '', #547, #548, #549 );
#335 = SURFACE_SIDE_STYLE( '', ( #550 ) );
#336 = EDGE_LOOP( '', ( #551, #552, #553, #554 ) );
#337 = AXIS2_PLACEMENT_3D( '', #555, #556, #557 );
#338 = SURFACE_SIDE_STYLE( '', ( #558 ) );
#339 = EDGE_LOOP( '', ( #559, #560, #561, #562 ) );
#340 = AXIS2_PLACEMENT_3D( '', #563, #564, #565 );
#341 = SURFACE_SIDE_STYLE( '', ( #566 ) );
#342 = EDGE_LOOP( '', ( #567, #568, #569, #570 ) );
#343 = AXIS2_PLACEMENT_3D( '', #571, #572, #573 );
#344 = SURFACE_SIDE_STYLE( '', ( #574 ) );
#345 = EDGE_LOOP( '', ( #575, #576, #577, #578 ) );
#346 = AXIS2_PLACEMENT_3D( '', #579, #580, #581 );
#347 = SURFACE_SIDE_STYLE( '', ( #582 ) );
#348 = EDGE_LOOP( '', ( #583, #584, #585, #586 ) );
#349 = AXIS2_PLACEMENT_3D( '', #587, #588, #589 );
#350 = SURFACE_SIDE_STYLE( '', ( #590 ) );
#351 = EDGE_LOOP( '', ( #591, #592, #593, #594 ) );
#352 = AXIS2_PLACEMENT_3D( '', #595, #596, #597 );
#353 = SURFACE_SIDE_STYLE( '', ( #598 ) );
#354 = EDGE_LOOP( '', ( #599, #600, #601, #602 ) );
#355 = AXIS2_PLACEMENT_3D( '', #603, #604, #605 );
#356 = SURFACE_SIDE_STYLE( '', ( #606 ) );
#357 = EDGE_LOOP( '', ( #607, #608, #609, #610 ) );
#358 = AXIS2_PLACEMENT_3D( '', #611, #612, #613 );
#359 = SURFACE_SIDE_STYLE( '', ( #614 ) );
#360 = EDGE_LOOP( '', ( #615, #616, #617, #618 ) );
#361 = AXIS2_PLACEMENT_3D( '', #619, #620, #621 );
#362 = SURFACE_SIDE_STYLE( '', ( #622 ) );
#363 = EDGE_LOOP( '', ( #623, #624, #625, #626 ) );
#364 = AXIS2_PLACEMENT_3D( '', #627, #628, #629 );
#365 = SURFACE_SIDE_STYLE( '', ( #630 ) );
#366 = EDGE_LOOP( '', ( #631, #632, #633, #634 ) );
#367 = AXIS2_PLACEMENT_3D( '', #635, #636, #637 );
#368 = SURFACE_SIDE_STYLE( '', ( #638 ) );
#369 = EDGE_LOOP( '', ( #639, #640, #641, #642 ) );
#370 = AXIS2_PLACEMENT_3D( '', #643, #644, #645 );
#371 = SURFACE_SIDE_STYLE( '', ( #646 ) );
#372 = EDGE_LOOP( '', ( #647, #648, #649, #650 ) );
#373 = AXIS2_PLACEMENT_3D( '', #651, #652, #653 );
#374 = SURFACE_SIDE_STYLE( '', ( #654 ) );
#375 = EDGE_LOOP( '', ( #655, #656, #657, #658 ) );
#376 = AXIS2_PLACEMENT_3D( '', #659, #660, #661 );
#377 = SURFACE_SIDE_STYLE( '', ( #662 ) );
#378 = EDGE_LOOP( '', ( #663, #664, #665, #666 ) );
#379 = AXIS2_PLACEMENT_3D( '', #667, #668, #669 );
#380 = SURFACE_SIDE_STYLE( '', ( #670 ) );
#381 = EDGE_LOOP( '', ( #671, #672, #673, #674 ) );
#382 = AXIS2_PLACEMENT_3D( '', #675, #676, #677 );
#383 = SURFACE_SIDE_STYLE( '', ( #678 ) );
#384 = EDGE_LOOP( '', ( #679, #680, #681, #682 ) );
#385 = AXIS2_PLACEMENT_3D( '', #683, #684, #685 );
#386 = SURFACE_SIDE_STYLE( '', ( #686 ) );
#387 = EDGE_LOOP( '', ( #687, #688, #689, #690 ) );
#388 = AXIS2_PLACEMENT_3D( '', #691, #692, #693 );
#390 = SURFACE_STYLE_FILL_AREA( #694 );
#391 = ORIENTED_EDGE( '', *, *, #695, .F. );
#392 = ORIENTED_EDGE( '', *, *, #696, .T. );
#393 = ORIENTED_EDGE( '', *, *, #697, .T. );
#394 = ORIENTED_EDGE( '', *, *, #698, .F. );
#395 = CARTESIAN_POINT( '', ( 0.166262384566050, -0.0796966991411009, 0.00693431457505084 ) );
#396 = DIRECTION( '', ( 0.500000000000000, -0.500000000000000, 0.707106781186548 ) );
#397 = DIRECTION( '', ( 0.500000000000000, -0.500000000000000, -0.707106781186547 ) );
#398 = SURFACE_STYLE_FILL_AREA( #699 );
#399 = ORIENTED_EDGE( '', *, *, #700, .F. );
#400 = ORIENTED_EDGE( '', *, *, #701, .F. );
#401 = ORIENTED_EDGE( '', *, *, #702, .T. );
#402 = ORIENTED_EDGE( '', *, *, #703, .T. );
#403 = CARTESIAN_POINT( '', ( 0.0376000000000000, -0.0743933982822018, 0.110759083707151 ) );
#404 = DIRECTION( '', ( -8.24866248760806E-17, -0.707106781186548, 0.707106781186548 ) );
#405 = DIRECTION( '', ( 1.00000000000000, -6.15471719122367E-18, 1.10498986422911E-16 ) );
#406 = SURFACE_STYLE_FILL_AREA( #704 );
#407 = ORIENTED_EDGE( '', *, *, #705, .F. );
#408 = ORIENTED_EDGE( '', *, *, #706, .F. );
#409 = ORIENTED_EDGE( '', *, *, #707, .T. );
#410 = ORIENTED_EDGE( '', *, *, #708, .T. );
#411 = CARTESIAN_POINT( '', ( -0.0910623845660501, -0.0796966991411009, 0.00693431457505080 ) );
#412 = DIRECTION( '', ( -0.500000000000000, -0.500000000000000, 0.707106781186548 ) );
#413 = DIRECTION( '', ( 0.500000000000000, 0.500000000000000, 0.707106781186547 ) );
#414 = SURFACE_STYLE_FILL_AREA( #709 );
#415 = ORIENTED_EDGE( '', *, *, #710, .F. );
#416 = ORIENTED_EDGE( '', *, *, #711, .T. );
#417 = ORIENTED_EDGE( '', *, *, #712, .T. );
#418 = ORIENTED_EDGE( '', *, *, #713, .F. );
#419 = CARTESIAN_POINT( '', ( -0.0929857864376269, -0.0836000000000000, 0.0604000000000000 ) );
#420 = DIRECTION( '', ( -4.55265538674160E-16, -0.00000000000000, 1.00000000000000 ) );
#421 = DIRECTION( '', ( -0.923879532511287, -0.382683432365090, -4.20610513038782E-16 ) );
#422 = SURFACE_STYLE_FILL_AREA( #714 );
#423 = ORIENTED_EDGE( '', *, *, #715, .F. );
#424 = ORIENTED_EDGE( '', *, *, #716, .T. );
#425 = ORIENTED_EDGE( '', *, *, #717, .T. );
#426 = ORIENTED_EDGE( '', *, *, #718, .F. );
#427 = CARTESIAN_POINT( '', ( 0.168185786437627, -0.0836000000000000, 0.117985786437627 ) );
#428 = DIRECTION( '', ( 1.00000000000000, 5.17960542051984E-17, 5.17960542051984E-17 ) );
#429 = DIRECTION( '', ( 5.17960542051984E-17, 0.00000000000000, -1.00000000000000 ) );
#430 = SURFACE_STYLE_FILL_AREA( #719 );
#431 = ORIENTED_EDGE( '', *, *, #720, .F. );
#432 = ORIENTED_EDGE( '', *, *, #721, .F. );
#433 = ORIENTED_EDGE( '', *, *, #715, .T. );
#434 = ORIENTED_EDGE( '', *, *, #722, .T. );
#435 = CARTESIAN_POINT( '', ( 0.168185786437627, -0.0836000000000000, 0.117985786437627 ) );
#436 = DIRECTION( '', ( 4.55265538674161E-16, 0.00000000000000, -1.00000000000000 ) );
#437 = DIRECTION( '', ( -1.00000000000000, 0.00000000000000, -4.55265538674161E-16 ) );
#438 = SURFACE_STYLE_FILL_AREA( #723 );
#439 = ORIENTED_EDGE( '', *, *, #724, .F. );
#440 = ORIENTED_EDGE( '', *, *, #725, .F. );
#441 = ORIENTED_EDGE( '', *, *, #726, .T. );
#442 = ORIENTED_EDGE( '', *, *, #727, .T. );
#443 = CARTESIAN_POINT( '', ( 0.168185786437627, -0.0836000000000000, 0.00281421356237318 ) );
#444 = DIRECTION( '', ( -1.00000000000000, -5.17960542051984E-17, -1.79667563024282E-16 ) );
#445 = DIRECTION( '', ( -1.79667563024282E-16, 0.00000000000000, 1.00000000000000 ) );
#446 = SURFACE_STYLE_FILL_AREA( #728 );
#447 = ORIENTED_EDGE( '', *, *, #729, .F. );
#448 = ORIENTED_EDGE( '', *, *, #730, .F. );
#449 = ORIENTED_EDGE( '', *, *, #703, .F. );
#450 = ORIENTED_EDGE( '', *, *, #731, .F. );
#451 = CARTESIAN_POINT( '', ( 0.0376000000000000, -0.0796966991411009, 0.116062384566050 ) );
#452 = DIRECTION( '', ( -7.37825403516812E-17, 0.707106781186548, 0.707106781186548 ) );
#453 = DIRECTION( '', ( 0.00000000000000, -0.707106781186548, 0.707106781186548 ) );
#454 = SURFACE_STYLE_FILL_AREA( #732 );
#455 = ORIENTED_EDGE( '', *, *, #733, .F. );
#456 = ORIENTED_EDGE( '', *, *, #734, .F. );
#457 = ORIENTED_EDGE( '', *, *, #705, .T. );
#458 = ORIENTED_EDGE( '', *, *, #735, .T. );
#459 = CARTESIAN_POINT( '', ( -0.0857590837071510, -0.0743933982822018, 0.0604000000000000 ) );
#460 = DIRECTION( '', ( -0.707106781186548, -0.707106781186548, -2.13487034426930E-16 ) );
#461 = DIRECTION( '', ( -3.24430477336369E-16, 2.25142178589925E-17, 1.00000000000000 ) );
#462 = SURFACE_STYLE_FILL_AREA( #736 );
#463 = ORIENTED_EDGE( '', *, *, #737, .F. );
#464 = ORIENTED_EDGE( '', *, *, #738, .T. );
#465 = ORIENTED_EDGE( '', *, *, #739, .T. );
#466 = ORIENTED_EDGE( '', *, *, #740, .F. );
#467 = CARTESIAN_POINT( '', ( -0.0929857864376269, -0.0836000000000000, 0.00281421356237313 ) );
#468 = DIRECTION( '', ( -1.00000000000000, -5.17960542051984E-17, -1.79667563024282E-16 ) );
#469 = DIRECTION( '', ( -1.79667563024282E-16, 0.00000000000000, 1.00000000000000 ) );
#470 = SURFACE_STYLE_FILL_AREA( #741 );
#471 = ORIENTED_EDGE( '', *, *, #742, .T. );
#472 = ORIENTED_EDGE( '', *, *, #743, .T. );
#473 = ORIENTED_EDGE( '', *, *, #744, .F. );
#474 = ORIENTED_EDGE( '', *, *, #745, .F. );
#475 = CARTESIAN_POINT( '', ( -0.0929857864376269, -0.0836000000000000, 0.0604000000000000 ) );
#476 = DIRECTION( '', ( -4.55265538674160E-16, 2.39896806290263E-32, 1.00000000000000 ) );
#477 = DIRECTION( '', ( -0.923879532511287, -0.382683432365090, -4.20610513038782E-16 ) );
#478 = SURFACE_STYLE_FILL_AREA( #746 );
#479 = ORIENTED_EDGE( '', *, *, #696, .F. );
#480 = ORIENTED_EDGE( '', *, *, #747, .F. );
#481 = ORIENTED_EDGE( '', *, *, #748, .T. );
#482 = ORIENTED_EDGE( '', *, *, #749, .T. );
#483 = CARTESIAN_POINT( '', ( 0.160959083707151, -0.0743933982822018, 0.0604000000000000 ) );
#484 = DIRECTION( '', ( 0.707106781186548, -0.707106781186548, 4.26974068853861E-16 ) );
#485 = DIRECTION( '', ( 5.33212722940951E-16, -7.06197960138026E-17, -1.00000000000000 ) );
#486 = SURFACE_STYLE_FILL_AREA( #750 );
#487 = ORIENTED_EDGE( '', *, *, #726, .F. );
#488 = ORIENTED_EDGE( '', *, *, #751, .T. );
#489 = ORIENTED_EDGE( '', *, *, #698, .T. );
#490 = ORIENTED_EDGE( '', *, *, #752, .F. );
#491 = CARTESIAN_POINT( '', ( 0.168185786437627, -0.0836000000000000, 0.00281421356237320 ) );
#492 = DIRECTION( '', ( 4.55265538674161E-16, 0.00000000000000, -1.00000000000000 ) );
#493 = DIRECTION( '', ( -1.00000000000000, 0.00000000000000, -4.55265538674161E-16 ) );
#494 = SURFACE_STYLE_FILL_AREA( #753 );
#495 = ORIENTED_EDGE( '', *, *, #754, .T. );
#496 = ORIENTED_EDGE( '', *, *, #755, .T. );
#497 = ORIENTED_EDGE( '', *, *, #701, .T. );
#498 = ORIENTED_EDGE( '', *, *, #756, .T. );
#499 = CARTESIAN_POINT( '', ( 0.0376000000000000, -0.0799795418535755, 0.115779541853576 ) );
#500 = DIRECTION( '', ( -7.37825403516812E-17, 0.707106781186548, 0.707106781186548 ) );
#501 = DIRECTION( '', ( 0.00000000000000, -0.707106781186548, 0.707106781186548 ) );
#502 = SURFACE_STYLE_FILL_AREA( #757 );
#503 = ORIENTED_EDGE( '', *, *, #752, .T. );
#504 = ORIENTED_EDGE( '', *, *, #758, .F. );
#505 = ORIENTED_EDGE( '', *, *, #722, .F. );
#506 = ORIENTED_EDGE( '', *, *, #759, .T. );
#507 = CARTESIAN_POINT( '', ( 0.168185786437627, -0.0836000000000000, 0.0604000000000000 ) );
#508 = DIRECTION( '', ( 4.55265538674161E-16, 2.39896806290263E-32, -1.00000000000000 ) );
#509 = DIRECTION( '', ( 0.923879532511287, -0.382683432365090, 4.20610513038783E-16 ) );
#510 = SURFACE_STYLE_FILL_AREA( #760 );
#511 = ORIENTED_EDGE( '', *, *, #761, .T. );
#512 = ORIENTED_EDGE( '', *, *, #762, .F. );
#513 = ORIENTED_EDGE( '', *, *, #763, .F. );
#514 = ORIENTED_EDGE( '', *, *, #764, .F. );
#515 = CARTESIAN_POINT( '', ( 0.0376000000000000, -0.0796966991411009, 0.00473761543394993 ) );
#516 = DIRECTION( '', ( 8.66080209987508E-17, 0.707106781186548, -0.707106781186548 ) );
#517 = DIRECTION( '', ( 0.00000000000000, 0.707106781186548, 0.707106781186548 ) );
#518 = SURFACE_STYLE_FILL_AREA( #765 );
#519 = ORIENTED_EDGE( '', *, *, #751, .F. );
#520 = ORIENTED_EDGE( '', *, *, #766, .F. );
#521 = ORIENTED_EDGE( '', *, *, #721, .T. );
#522 = ORIENTED_EDGE( '', *, *, #767, .T. );
#523 = CARTESIAN_POINT( '', ( 0.168185786437627, -0.0836000000000000, 0.0604000000000000 ) );
#524 = DIRECTION( '', ( 4.55265538674161E-16, -0.00000000000000, -1.00000000000000 ) );
#525 = DIRECTION( '', ( 0.923879532511287, -0.382683432365090, 4.20610513038783E-16 ) );
#526 = SURFACE_STYLE_FILL_AREA( #768 );
#527 = ORIENTED_EDGE( '', *, *, #759, .F. );
#528 = ORIENTED_EDGE( '', *, *, #769, .T. );
#529 = ORIENTED_EDGE( '', *, *, #745, .T. );
#530 = ORIENTED_EDGE( '', *, *, #770, .F. );
#531 = CARTESIAN_POINT( '', ( 0.0376000000000000, -0.0850000000000000, 0.0604000000000000 ) );
#532 = DIRECTION( '', ( 0.00000000000000, -1.00000000000000, 0.00000000000000 ) );
#533 = DIRECTION( '', ( 1.00000000000000, 0.00000000000000, 0.00000000000000 ) );
#534 = SURFACE_STYLE_FILL_AREA( #771 );
#535 = ORIENTED_EDGE( '', *, *, #772, .F. );
#536 = ORIENTED_EDGE( '', *, *, #773, .F. );
#537 = ORIENTED_EDGE( '', *, *, #774, .T. );
#538 = ORIENTED_EDGE( '', *, *, #775, .T. );
#539 = CARTESIAN_POINT( '', ( -0.0929857864376269, -0.0836000000000000, 0.117985786437627 ) );
#540 = DIRECTION( '', ( 1.00000000000000, 5.17960542051984E-17, 5.17960542051984E-17 ) );
#541 = DIRECTION( '', ( 5.17960542051984E-17, 0.00000000000000, -1.00000000000000 ) );
#542 = SURFACE_STYLE_FILL_AREA( #776 );
#543 = ORIENTED_EDGE( '', *, *, #707, .F. );
#544 = ORIENTED_EDGE( '', *, *, #712, .F. );
#545 = ORIENTED_EDGE( '', *, *, #737, .T. );
#546 = ORIENTED_EDGE( '', *, *, #744, .T. );
#547 = CARTESIAN_POINT( '', ( -0.0929857864376269, -0.0836000000000000, 0.00281421356237316 ) );
#548 = DIRECTION( '', ( -4.55265538674160E-16, 0.00000000000000, 1.00000000000000 ) );
#549 = DIRECTION( '', ( 1.00000000000000, 0.00000000000000, 4.55265538674160E-16 ) );
#550 = SURFACE_STYLE_FILL_AREA( #777 );
#551 = ORIENTED_EDGE( '', *, *, #778, .F. );
#552 = ORIENTED_EDGE( '', *, *, #733, .T. );
#553 = ORIENTED_EDGE( '', *, *, #779, .T. );
#554 = ORIENTED_EDGE( '', *, *, #780, .F. );
#555 = CARTESIAN_POINT( '', ( -0.0910623845660501, -0.0796966991411009, 0.113865685424949 ) );
#556 = DIRECTION( '', ( -0.500000000000000, -0.500000000000000, -0.707106781186548 ) );
#557 = DIRECTION( '', ( -0.500000000000000, -0.500000000000000, 0.707106781186547 ) );
#558 = SURFACE_STYLE_FILL_AREA( #781 );
#559 = ORIENTED_EDGE( '', *, *, #756, .F. );
#560 = ORIENTED_EDGE( '', *, *, #700, .T. );
#561 = ORIENTED_EDGE( '', *, *, #730, .T. );
#562 = ORIENTED_EDGE( '', *, *, #717, .F. );
#563 = CARTESIAN_POINT( '', ( 0.164065685424949, -0.0796966991411009, 0.116062384566050 ) );
#564 = DIRECTION( '', ( -0.707106781186548, -0.500000000000000, 0.500000000000000 ) );
#565 = DIRECTION( '', ( 0.707106781186547, -0.500000000000000, 0.500000000000000 ) );
#566 = SURFACE_STYLE_FILL_AREA( #782 );
#567 = ORIENTED_EDGE( '', *, *, #718, .T. );
#568 = ORIENTED_EDGE( '', *, *, #729, .T. );
#569 = ORIENTED_EDGE( '', *, *, #775, .F. );
#570 = ORIENTED_EDGE( '', *, *, #769, .F. );
#571 = CARTESIAN_POINT( '', ( 0.0376000000000000, -0.0836000000000000, 0.117985786437627 ) );
#572 = DIRECTION( '', ( 1.00000000000000, 5.17960542051984E-17, 5.17960542051984E-17 ) );
#573 = DIRECTION( '', ( -2.80318225388144E-17, -0.382683432365090, 0.923879532511287 ) );
#574 = SURFACE_STYLE_FILL_AREA( #783 );
#575 = ORIENTED_EDGE( '', *, *, #774, .F. );
#576 = ORIENTED_EDGE( '', *, *, #710, .T. );
#577 = ORIENTED_EDGE( '', *, *, #780, .T. );
#578 = ORIENTED_EDGE( '', *, *, #742, .F. );
#579 = CARTESIAN_POINT( '', ( -0.0929857864376269, -0.0836000000000000, 0.117985786437627 ) );
#580 = DIRECTION( '', ( -4.55265538674160E-16, 0.00000000000000, 1.00000000000000 ) );
#581 = DIRECTION( '', ( 1.00000000000000, 0.00000000000000, 4.55265538674160E-16 ) );
#582 = SURFACE_STYLE_FILL_AREA( #784 );
#583 = ORIENTED_EDGE( '', *, *, #767, .F. );
#584 = ORIENTED_EDGE( '', *, *, #785, .T. );
#585 = ORIENTED_EDGE( '', *, *, #747, .T. );
#586 = ORIENTED_EDGE( '', *, *, #695, .T. );
#587 = CARTESIAN_POINT( '', ( 0.165979541853575, -0.0799795418535755, 0.0604000000000000 ) );
#588 = DIRECTION( '', ( 0.707106781186548, 0.707106781186548, 3.27102595559120E-16 ) );
#589 = DIRECTION( '', ( 2.44041391778947E-31, -4.62592926927149E-16, 1.00000000000000 ) );
#590 = SURFACE_STYLE_FILL_AREA( #786 );
#591 = ORIENTED_EDGE( '', *, *, #738, .F. );
#592 = ORIENTED_EDGE( '', *, *, #787, .F. );
#593 = ORIENTED_EDGE( '', *, *, #725, .T. );
#594 = ORIENTED_EDGE( '', *, *, #788, .T. );
#595 = CARTESIAN_POINT( '', ( 0.0376000000000000, -0.0836000000000000, 0.00281421356237315 ) );
#596 = DIRECTION( '', ( -1.00000000000000, -5.17960542051984E-17, -1.79667563024282E-16 ) );
#597 = DIRECTION( '', ( 1.85812675940529E-16, -0.382683432365090, -0.923879532511287 ) );
#598 = SURFACE_STYLE_FILL_AREA( #789 );
#599 = ORIENTED_EDGE( '', *, *, #740, .T. );
#600 = ORIENTED_EDGE( '', *, *, #761, .F. );
#601 = ORIENTED_EDGE( '', *, *, #727, .F. );
#602 = ORIENTED_EDGE( '', *, *, #770, .T. );
#603 = CARTESIAN_POINT( '', ( 0.0376000000000000, -0.0836000000000000, 0.00281421356237315 ) );
#604 = DIRECTION( '', ( -1.00000000000000, -5.17960542051984E-17, -1.79667563024282E-16 ) );
#605 = DIRECTION( '', ( 1.85812675940529E-16, -0.382683432365090, -0.923879532511287 ) );
#606 = SURFACE_STYLE_FILL_AREA( #790 );
#607 = ORIENTED_EDGE( '', *, *, #766, .T. );
#608 = ORIENTED_EDGE( '', *, *, #787, .T. );
#609 = ORIENTED_EDGE( '', *, *, #711, .F. );
#610 = ORIENTED_EDGE( '', *, *, #791, .F. );
#611 = CARTESIAN_POINT( '', ( 0.0376000000000000, -0.0846000000000000, 0.0604000000000000 ) );
#612 = DIRECTION( '', ( 0.00000000000000, -1.00000000000000, 0.00000000000000 ) );
#613 = DIRECTION( '', ( 1.00000000000000, 0.00000000000000, 0.00000000000000 ) );
#614 = SURFACE_STYLE_FILL_AREA( #792 );
#615 = ORIENTED_EDGE( '', *, *, #788, .F. );
#616 = ORIENTED_EDGE( '', *, *, #793, .T. );
#617 = ORIENTED_EDGE( '', *, *, #794, .T. );
#618 = ORIENTED_EDGE( '', *, *, #795, .T. );
#619 = CARTESIAN_POINT( '', ( 0.0376000000000000, -0.0799795418535755, 0.00502045814642455 ) );
#620 = DIRECTION( '', ( 8.66080209987508E-17, 0.707106781186548, -0.707106781186548 ) );
#621 = DIRECTION( '', ( 0.00000000000000, 0.707106781186548, 0.707106781186548 ) );
#622 = SURFACE_STYLE_FILL_AREA( #796 );
#623 = ORIENTED_EDGE( '', *, *, #797, .F. );
#624 = ORIENTED_EDGE( '', *, *, #793, .F. );
#625 = ORIENTED_EDGE( '', *, *, #724, .T. );
#626 = ORIENTED_EDGE( '', *, *, #764, .T. );
#627 = CARTESIAN_POINT( '', ( 0.164065685424949, -0.0796966991411009, 0.00473761543394995 ) );
#628 = DIRECTION( '', ( -0.707106781186547, -0.500000000000000, -0.500000000000000 ) );
#629 = DIRECTION( '', ( -0.707106781186548, 0.500000000000000, 0.500000000000000 ) );
#630 = SURFACE_STYLE_FILL_AREA( #798 );
#631 = ORIENTED_EDGE( '', *, *, #758, .T. );
#632 = ORIENTED_EDGE( '', *, *, #697, .F. );
#633 = ORIENTED_EDGE( '', *, *, #749, .F. );
#634 = ORIENTED_EDGE( '', *, *, #799, .F. );
#635 = CARTESIAN_POINT( '', ( 0.166262384566050, -0.0796966991411009, 0.0604000000000000 ) );
#636 = DIRECTION( '', ( 0.707106781186548, 0.707106781186548, 3.27102595559120E-16 ) );
#637 = DIRECTION( '', ( 2.44041391778947E-31, -4.62592926927149E-16, 1.00000000000000 ) );
#638 = SURFACE_STYLE_FILL_AREA( #800 );
#639 = ORIENTED_EDGE( '', *, *, #713, .T. );
#640 = ORIENTED_EDGE( '', *, *, #706, .T. );
#641 = ORIENTED_EDGE( '', *, *, #734, .T. );
#642 = ORIENTED_EDGE( '', *, *, #778, .T. );
#643 = CARTESIAN_POINT( '', ( -0.0907795418535755, -0.0799795418535755, 0.0604000000000000 ) );
#644 = DIRECTION( '', ( -0.707106781186548, 0.707106781186548, -2.45326946669340E-16 ) );
#645 = DIRECTION( '', ( 6.97261119368420E-32, 3.46944695195361E-16, 1.00000000000000 ) );
#646 = SURFACE_STYLE_FILL_AREA( #801 );
#647 = ORIENTED_EDGE( '', *, *, #748, .F. );
#648 = ORIENTED_EDGE( '', *, *, #785, .F. );
#649 = ORIENTED_EDGE( '', *, *, #720, .T. );
#650 = ORIENTED_EDGE( '', *, *, #799, .T. );
#651 = CARTESIAN_POINT( '', ( 0.166262384566050, -0.0796966991411009, 0.113865685424949 ) );
#652 = DIRECTION( '', ( 0.500000000000000, -0.500000000000000, -0.707106781186548 ) );
#653 = DIRECTION( '', ( -0.500000000000000, 0.500000000000000, -0.707106781186547 ) );
#654 = SURFACE_STYLE_FILL_AREA( #802 );
#655 = ORIENTED_EDGE( '', *, *, #702, .F. );
#656 = ORIENTED_EDGE( '', *, *, #755, .F. );
#657 = ORIENTED_EDGE( '', *, *, #772, .T. );
#658 = ORIENTED_EDGE( '', *, *, #731, .T. );
#659 = CARTESIAN_POINT( '', ( -0.0888656854249492, -0.0796966991411009, 0.116062384566050 ) );
#660 = DIRECTION( '', ( 0.707106781186547, -0.500000000000000, 0.500000000000000 ) );
#661 = DIRECTION( '', ( 0.707106781186548, 0.500000000000000, -0.500000000000000 ) );
#662 = SURFACE_STYLE_FILL_AREA( #803 );
#663 = ORIENTED_EDGE( '', *, *, #804, .F. );
#664 = ORIENTED_EDGE( '', *, *, #794, .F. );
#665 = ORIENTED_EDGE( '', *, *, #797, .T. );
#666 = ORIENTED_EDGE( '', *, *, #763, .T. );
#667 = CARTESIAN_POINT( '', ( 0.0376000000000000, -0.0743933982822018, 0.0100409162928490 ) );
#668 = DIRECTION( '', ( 8.24866248760806E-17, -0.707106781186548, -0.707106781186548 ) );
#669 = DIRECTION( '', ( -1.00000000000000, 2.91426714629600E-18, -1.19567970760431E-16 ) );
#670 = SURFACE_STYLE_FILL_AREA( #805 );
#671 = ORIENTED_EDGE( '', *, *, #795, .F. );
#672 = ORIENTED_EDGE( '', *, *, #804, .T. );
#673 = ORIENTED_EDGE( '', *, *, #762, .T. );
#674 = ORIENTED_EDGE( '', *, *, #739, .F. );
#675 = CARTESIAN_POINT( '', ( -0.0888656854249492, -0.0796966991411009, 0.00473761543394991 ) );
#676 = DIRECTION( '', ( 0.707106781186548, -0.500000000000000, -0.500000000000000 ) );
#677 = DIRECTION( '', ( -0.707106781186547, -0.500000000000000, -0.500000000000000 ) );
#678 = SURFACE_STYLE_FILL_AREA( #806 );
#679 = ORIENTED_EDGE( '', *, *, #716, .F. );
#680 = ORIENTED_EDGE( '', *, *, #791, .T. );
#681 = ORIENTED_EDGE( '', *, *, #773, .T. );
#682 = ORIENTED_EDGE( '', *, *, #754, .F. );
#683 = CARTESIAN_POINT( '', ( 0.0376000000000000, -0.0836000000000000, 0.117985786437627 ) );
#684 = DIRECTION( '', ( 1.00000000000000, 5.17960542051984E-17, 5.17960542051984E-17 ) );
#685 = DIRECTION( '', ( -2.80318225388144E-17, -0.382683432365090, 0.923879532511287 ) );
#686 = SURFACE_STYLE_FILL_AREA( #807 );
#687 = ORIENTED_EDGE( '', *, *, #743, .F. );
#688 = ORIENTED_EDGE( '', *, *, #779, .F. );
#689 = ORIENTED_EDGE( '', *, *, #735, .F. );
#690 = ORIENTED_EDGE( '', *, *, #708, .F. );
#691 = CARTESIAN_POINT( '', ( -0.0910623845660501, -0.0796966991411009, 0.0604000000000000 ) );
#692 = DIRECTION( '', ( -0.707106781186548, 0.707106781186548, -2.45326946669340E-16 ) );
#693 = DIRECTION( '', ( 6.97261119368420E-32, 3.46944695195361E-16, 1.00000000000000 ) );
#694 = FILL_AREA_STYLE( '', ( #808 ) );
#695 = EDGE_CURVE( '', #809, #810, #811, .T. );
#696 = EDGE_CURVE( '', #809, #812, #813, .T. );
#697 = EDGE_CURVE( '', #812, #814, #815, .T. );
#698 = EDGE_CURVE( '', #810, #814, #816, .T. );
#699 = FILL_AREA_STYLE( '', ( #817 ) );
#700 = EDGE_CURVE( '', #818, #819, #820, .T. );
#701 = EDGE_CURVE( '', #821, #818, #822, .T. );
#702 = EDGE_CURVE( '', #821, #823, #824, .T. );
#703 = EDGE_CURVE( '', #823, #819, #825, .T. );
#704 = FILL_AREA_STYLE( '', ( #826 ) );
#705 = EDGE_CURVE( '', #827, #828, #829, .T. );
#706 = EDGE_CURVE( '', #830, #827, #831, .T. );
#707 = EDGE_CURVE( '', #830, #832, #833, .T. );
#708 = EDGE_CURVE( '', #832, #828, #834, .T. );
#709 = FILL_AREA_STYLE( '', ( #835 ) );
#710 = EDGE_CURVE( '', #836, #837, #838, .T. );
#711 = EDGE_CURVE( '', #836, #839, #840, .T. );
#712 = EDGE_CURVE( '', #839, #830, #841, .T. );
#713 = EDGE_CURVE( '', #837, #830, #842, .F. );
#714 = FILL_AREA_STYLE( '', ( #843 ) );
#715 = EDGE_CURVE( '', #844, #845, #846, .T. );
#716 = EDGE_CURVE( '', #844, #847, #848, .T. );
#717 = EDGE_CURVE( '', #847, #849, #850, .T. );
#718 = EDGE_CURVE( '', #845, #849, #851, .T. );
#719 = FILL_AREA_STYLE( '', ( #852 ) );
#720 = EDGE_CURVE( '', #853, #854, #855, .T. );
#721 = EDGE_CURVE( '', #844, #853, #856, .T. );
#722 = EDGE_CURVE( '', #845, #854, #857, .T. );
#723 = FILL_AREA_STYLE( '', ( #858 ) );
#724 = EDGE_CURVE( '', #859, #860, #861, .T. );
#725 = EDGE_CURVE( '', #862, #859, #863, .T. );
#726 = EDGE_CURVE( '', #862, #864, #865, .T. );
#727 = EDGE_CURVE( '', #864, #860, #866, .T. );
#728 = FILL_AREA_STYLE( '', ( #867 ) );
#729 = EDGE_CURVE( '', #849, #868, #869, .F. );
#730 = EDGE_CURVE( '', #819, #849, #870, .T. );
#731 = EDGE_CURVE( '', #868, #823, #871, .T. );
#732 = FILL_AREA_STYLE( '', ( #872 ) );
#733 = EDGE_CURVE( '', #873, #874, #875, .T. );
#734 = EDGE_CURVE( '', #827, #873, #876, .T. );
#735 = EDGE_CURVE( '', #828, #874, #877, .T. );
#736 = FILL_AREA_STYLE( '', ( #878 ) );
#737 = EDGE_CURVE( '', #839, #879, #880, .T. );
#738 = EDGE_CURVE( '', #839, #881, #882, .T. );
#739 = EDGE_CURVE( '', #881, #883, #884, .T. );
#740 = EDGE_CURVE( '', #879, #883, #885, .T. );
#741 = FILL_AREA_STYLE( '', ( #886 ) );
#742 = EDGE_CURVE( '', #887, #888, #889, .T. );
#743 = EDGE_CURVE( '', #888, #832, #890, .F. );
#744 = EDGE_CURVE( '', #879, #832, #891, .T. );
#745 = EDGE_CURVE( '', #887, #879, #892, .T. );
#746 = FILL_AREA_STYLE( '', ( #893 ) );
#747 = EDGE_CURVE( '', #894, #809, #895, .F. );
#748 = EDGE_CURVE( '', #894, #896, #897, .T. );
#749 = EDGE_CURVE( '', #896, #812, #898, .T. );
#750 = FILL_AREA_STYLE( '', ( #899 ) );
#751 = EDGE_CURVE( '', #862, #810, #900, .T. );
#752 = EDGE_CURVE( '', #864, #814, #901, .T. );
#753 = FILL_AREA_STYLE( '', ( #902 ) );
#754 = EDGE_CURVE( '', #847, #903, #904, .F. );
#755 = EDGE_CURVE( '', #903, #821, #905, .T. );
#756 = EDGE_CURVE( '', #818, #847, #906, .T. );
#757 = FILL_AREA_STYLE( '', ( #907 ) );
#758 = EDGE_CURVE( '', #854, #814, #908, .F. );
#759 = EDGE_CURVE( '', #845, #864, #909, .T. );
#760 = FILL_AREA_STYLE( '', ( #910 ) );
#761 = EDGE_CURVE( '', #860, #883, #911, .F. );
#762 = EDGE_CURVE( '', #912, #883, #913, .T. );
#763 = EDGE_CURVE( '', #914, #912, #915, .T. );
#764 = EDGE_CURVE( '', #860, #914, #916, .T. );
#765 = FILL_AREA_STYLE( '', ( #917 ) );
#766 = EDGE_CURVE( '', #844, #862, #918, .T. );
#767 = EDGE_CURVE( '', #853, #810, #919, .F. );
#768 = FILL_AREA_STYLE( '', ( #920 ) );
#769 = EDGE_CURVE( '', #845, #887, #921, .T. );
#770 = EDGE_CURVE( '', #864, #879, #922, .T. );
#771 = FILL_AREA_STYLE( '', ( #923 ) );
#772 = EDGE_CURVE( '', #903, #868, #924, .T. );
#773 = EDGE_CURVE( '', #836, #903, #925, .T. );
#774 = EDGE_CURVE( '', #836, #887, #926, .T. );
#775 = EDGE_CURVE( '', #887, #868, #927, .T. );
#776 = FILL_AREA_STYLE( '', ( #928 ) );
#777 = FILL_AREA_STYLE( '', ( #929 ) );
#778 = EDGE_CURVE( '', #873, #837, #930, .T. );
#779 = EDGE_CURVE( '', #874, #888, #931, .T. );
#780 = EDGE_CURVE( '', #837, #888, #932, .T. );
#781 = FILL_AREA_STYLE( '', ( #933 ) );
#782 = FILL_AREA_STYLE( '', ( #934 ) );
#783 = FILL_AREA_STYLE( '', ( #935 ) );
#784 = FILL_AREA_STYLE( '', ( #936 ) );
#785 = EDGE_CURVE( '', #853, #894, #937, .T. );
#786 = FILL_AREA_STYLE( '', ( #938 ) );
#787 = EDGE_CURVE( '', #862, #839, #939, .T. );
#788 = EDGE_CURVE( '', #859, #881, #940, .F. );
#789 = FILL_AREA_STYLE( '', ( #941 ) );
#790 = FILL_AREA_STYLE( '', ( #942 ) );
#791 = EDGE_CURVE( '', #844, #836, #943, .T. );
#792 = FILL_AREA_STYLE( '', ( #944 ) );
#793 = EDGE_CURVE( '', #859, #945, #946, .T. );
#794 = EDGE_CURVE( '', #945, #947, #948, .F. );
#795 = EDGE_CURVE( '', #947, #881, #949, .T. );
#796 = FILL_AREA_STYLE( '', ( #950 ) );
#797 = EDGE_CURVE( '', #945, #914, #951, .T. );
#798 = FILL_AREA_STYLE( '', ( #952 ) );
#799 = EDGE_CURVE( '', #854, #896, #953, .T. );
#800 = FILL_AREA_STYLE( '', ( #954 ) );
#801 = FILL_AREA_STYLE( '', ( #955 ) );
#802 = FILL_AREA_STYLE( '', ( #956 ) );
#803 = FILL_AREA_STYLE( '', ( #957 ) );
#804 = EDGE_CURVE( '', #947, #912, #958, .T. );
#805 = FILL_AREA_STYLE( '', ( #959 ) );
#806 = FILL_AREA_STYLE( '', ( #960 ) );
#807 = FILL_AREA_STYLE( '', ( #961 ) );
#808 = FILL_AREA_STYLE_COLOUR( '', #962 );
#809 = VERTEX_POINT( '', #963 );
#810 = VERTEX_POINT( '', #964 );
#811 = LINE( '', #965, #966 );
#812 = VERTEX_POINT( '', #967 );
#813 = LINE( '', #968, #969 );
#814 = VERTEX_POINT( '', #970 );
#815 = LINE( '', #971, #972 );
#816 = LINE( '', #973, #974 );
#817 = FILL_AREA_STYLE_COLOUR( '', #975 );
#818 = VERTEX_POINT( '', #976 );
#819 = VERTEX_POINT( '', #977 );
#820 = LINE( '', #978, #979 );
#821 = VERTEX_POINT( '', #980 );
#822 = LINE( '', #981, #982 );
#823 = VERTEX_POINT( '', #983 );
#824 = LINE( '', #984, #985 );
#825 = LINE( '', #986, #987 );
#826 = FILL_AREA_STYLE_COLOUR( '', #988 );
#827 = VERTEX_POINT( '', #989 );
#828 = VERTEX_POINT( '', #990 );
#829 = LINE( '', #991, #992 );
#830 = VERTEX_POINT( '', #993 );
#831 = LINE( '', #994, #995 );
#832 = VERTEX_POINT( '', #996 );
#833 = LINE( '', #997, #998 );
#834 = LINE( '', #999, #1000 );
#835 = FILL_AREA_STYLE_COLOUR( '', #1001 );
#836 = VERTEX_POINT( '', #1002 );
#837 = VERTEX_POINT( '', #1003 );
#838 = CIRCLE( '', #1004, 0.00100000000000000 );
#839 = VERTEX_POINT( '', #1005 );
#840 = LINE( '', #1006, #1007 );
#841 = CIRCLE( '', #1008, 0.00100000000000000 );
#842 = LINE( '', #1009, #1010 );
#843 = FILL_AREA_STYLE_COLOUR( '', #1011 );
#844 = VERTEX_POINT( '', #1012 );
#845 = VERTEX_POINT( '', #1013 );
#846 = LINE( '', #1014, #1015 );
#847 = VERTEX_POINT( '', #1016 );
#848 = CIRCLE( '', #1017, 0.00100000000000000 );
#849 = VERTEX_POINT( '', #1018 );
#850 = LINE( '', #1019, #1020 );
#851 = CIRCLE( '', #1021, 0.00140000000000000 );
#852 = FILL_AREA_STYLE_COLOUR( '', #1022 );
#853 = VERTEX_POINT( '', #1023 );
#854 = VERTEX_POINT( '', #1024 );
#855 = LINE( '', #1025, #1026 );
#856 = CIRCLE( '', #1027, 0.00100000000000000 );
#857 = CIRCLE( '', #1028, 0.00140000000000000 );
#858 = FILL_AREA_STYLE_COLOUR( '', #1029 );
#859 = VERTEX_POINT( '', #1030 );
#860 = VERTEX_POINT( '', #1031 );
#861 = LINE( '', #1032, #1033 );
#862 = VERTEX_POINT( '', #1034 );
#863 = CIRCLE( '', #1035, 0.00100000000000000 );
#864 = VERTEX_POINT( '', #1036 );
#865 = LINE( '', #1037, #1038 );
#866 = CIRCLE( '', #1039, 0.00140000000000000 );
#867 = FILL_AREA_STYLE_COLOUR( '', #1040 );
#868 = VERTEX_POINT( '', #1041 );
#869 = LINE( '', #1042, #1043 );
#870 = LINE( '', #1044, #1045 );
#871 = LINE( '', #1046, #1047 );
#872 = FILL_AREA_STYLE_COLOUR( '', #1048 );
#873 = VERTEX_POINT( '', #1049 );
#874 = VERTEX_POINT( '', #1050 );
#875 = LINE( '', #1051, #1052 );
#876 = LINE( '', #1053, #1054 );
#877 = LINE( '', #1055, #1056 );
#878 = FILL_AREA_STYLE_COLOUR( '', #1057 );
#879 = VERTEX_POINT( '', #1058 );
#880 = LINE( '', #1059, #1060 );
#881 = VERTEX_POINT( '', #1061 );
#882 = CIRCLE( '', #1062, 0.00100000000000000 );
#883 = VERTEX_POINT( '', #1063 );
#884 = LINE( '', #1064, #1065 );
#885 = CIRCLE( '', #1066, 0.00140000000000000 );
#886 = FILL_AREA_STYLE_COLOUR( '', #1067 );
#887 = VERTEX_POINT( '', #1068 );
#888 = VERTEX_POINT( '', #1069 );
#889 = CIRCLE( '', #1070, 0.00140000000000000 );
#890 = LINE( '', #1071, #1072 );
#891 = CIRCLE( '', #1073, 0.00140000000000000 );
#892 = LINE( '', #1074, #1075 );
#893 = FILL_AREA_STYLE_COLOUR( '', #1076 );
#894 = VERTEX_POINT( '', #1077 );
#895 = LINE( '', #1078, #1079 );
#896 = VERTEX_POINT( '', #1080 );
#897 = LINE( '', #1081, #1082 );
#898 = LINE( '', #1083, #1084 );
#899 = FILL_AREA_STYLE_COLOUR( '', #1085 );
#900 = CIRCLE( '', #1086, 0.00100000000000000 );
#901 = CIRCLE( '', #1087, 0.00140000000000000 );
#902 = FILL_AREA_STYLE_COLOUR( '', #1088 );
#903 = VERTEX_POINT( '', #1089 );
#904 = LINE( '', #1090, #1091 );
#905 = LINE( '', #1092, #1093 );
#906 = LINE( '', #1094, #1095 );
#907 = FILL_AREA_STYLE_COLOUR( '', #1096 );
#908 = LINE( '', #1097, #1098 );
#909 = LINE( '', #1099, #1100 );
#910 = FILL_AREA_STYLE_COLOUR( '', #1101 );
#911 = LINE( '', #1102, #1103 );
#912 = VERTEX_POINT( '', #1104 );
#913 = LINE( '', #1105, #1106 );
#914 = VERTEX_POINT( '', #1107 );
#915 = LINE( '', #1108, #1109 );
#916 = LINE( '', #1110, #1111 );
#917 = FILL_AREA_STYLE_COLOUR( '', #1112 );
#918 = LINE( '', #1113, #1114 );
#919 = LINE( '', #1115, #1116 );
#920 = FILL_AREA_STYLE_COLOUR( '', #1117 );
#921 = LINE( '', #1118, #1119 );
#922 = LINE( '', #1120, #1121 );
#923 = FILL_AREA_STYLE_COLOUR( '', #1122 );
#924 = LINE( '', #1123, #1124 );
#925 = CIRCLE( '', #1125, 0.00100000000000000 );
#926 = LINE( '', #1126, #1127 );
#927 = CIRCLE( '', #1128, 0.00140000000000000 );
#928 = FILL_AREA_STYLE_COLOUR( '', #1129 );
#929 = FILL_AREA_STYLE_COLOUR( '', #1130 );
#930 = LINE( '', #1131, #1132 );
#931 = LINE( '', #1133, #1134 );
#932 = LINE( '', #1135, #1136 );
#933 = FILL_AREA_STYLE_COLOUR( '', #1137 );
#934 = FILL_AREA_STYLE_COLOUR( '', #1138 );
#935 = FILL_AREA_STYLE_COLOUR( '', #1139 );
#936 = FILL_AREA_STYLE_COLOUR( '', #1140 );
#937 = LINE( '', #1141, #1142 );
#938 = FILL_AREA_STYLE_COLOUR( '', #1143 );
#939 = LINE( '', #1144, #1145 );
#940 = LINE( '', #1146, #1147 );
#941 = FILL_AREA_STYLE_COLOUR( '', #1148 );
#942 = FILL_AREA_STYLE_COLOUR( '', #1149 );
#943 = LINE( '', #1150, #1151 );
#944 = FILL_AREA_STYLE_COLOUR( '', #1152 );
#945 = VERTEX_POINT( '', #1153 );
#946 = LINE( '', #1154, #1155 );
#947 = VERTEX_POINT( '', #1156 );
#948 = LINE( '', #1157, #1158 );
#949 = LINE( '', #1159, #1160 );
#950 = FILL_AREA_STYLE_COLOUR( '', #1161 );
#951 = LINE( '', #1162, #1163 );
#952 = FILL_AREA_STYLE_COLOUR( '', #1164 );
#953 = LINE( '', #1165, #1166 );
#954 = FILL_AREA_STYLE_COLOUR( '', #1167 );
#955 = FILL_AREA_STYLE_COLOUR( '', #1168 );
#956 = FILL_AREA_STYLE_COLOUR( '', #1169 );
#957 = FILL_AREA_STYLE_COLOUR( '', #1170 );
#958 = LINE( '', #1171, #1172 );
#959 = FILL_AREA_STYLE_COLOUR( '', #1173 );
#960 = FILL_AREA_STYLE_COLOUR( '', #1174 );
#961 = FILL_AREA_STYLE_COLOUR( '', #1175 );
#962 = COLOUR_RGB( '', 0.600000023800000, 0.352941185200000, 0.0549019612000000 );
#963 = CARTESIAN_POINT( '', ( 0.160676240994676, -0.0746762409946764, 0.0144343145750508 ) );
#964 = CARTESIAN_POINT( '', ( 0.168892893218814, -0.0828928932188135, 0.00281421356237320 ) );
#965 = CARTESIAN_POINT( '', ( 0.165979541853575, -0.0799795418535755, 0.00693431457505084 ) );
#966 = VECTOR( '', #1176, 1.00000000000000 );
#967 = CARTESIAN_POINT( '', ( 0.160959083707151, -0.0743933982822018, 0.0144343145750508 ) );
#968 = CARTESIAN_POINT( '', ( 0.160959083707151, -0.0743933982822018, 0.0144343145750508 ) );
#969 = VECTOR( '', #1177, 1.00000000000000 );
#970 = CARTESIAN_POINT( '', ( 0.169175735931288, -0.0826100505063388, 0.00281421356237319 ) );
#971 = CARTESIAN_POINT( '', ( 0.166262384566050, -0.0796966991411009, 0.00693431457505084 ) );
#972 = VECTOR( '', #1178, 1.00000000000000 );
#973 = CARTESIAN_POINT( '', ( 0.169175735931288, -0.0826100505063388, 0.00281421356237319 ) );
#974 = VECTOR( '', #1179, 1.00000000000000 );
#975 = COLOUR_RGB( '', 0.600000023800000, 0.352941185200000, 0.0549019612000000 );
#976 = CARTESIAN_POINT( '', ( 0.156565685424949, -0.0746762409946764, 0.110476240994676 ) );
#977 = CARTESIAN_POINT( '', ( 0.156565685424949, -0.0743933982822018, 0.110759083707151 ) );
#978 = CARTESIAN_POINT( '', ( 0.156565685424949, -0.0743933982822018, 0.110759083707151 ) );
#979 = VECTOR( '', #1180, 1.00000000000000 );
#980 = CARTESIAN_POINT( '', ( -0.0813656854249492, -0.0746762409946764, 0.110476240994676 ) );
#981 = CARTESIAN_POINT( '', ( 0.0376000000000000, -0.0746762409946764, 0.110476240994676 ) );
#982 = VECTOR( '', #1181, 1.00000000000000 );
#983 = CARTESIAN_POINT( '', ( -0.0813656854249492, -0.0743933982822018, 0.110759083707151 ) );
#984 = CARTESIAN_POINT( '', ( -0.0813656854249492, -0.0743933982822018, 0.110759083707151 ) );
#985 = VECTOR( '', #1182, 1.00000000000000 );
#986 = CARTESIAN_POINT( '', ( 0.0376000000000000, -0.0743933982822018, 0.110759083707151 ) );
#987 = VECTOR( '', #1183, 1.00000000000000 );
#988 = COLOUR_RGB( '', 0.600000023800000, 0.352941185200000, 0.0549019612000000 );
#989 = CARTESIAN_POINT( '', ( -0.0854762409946764, -0.0746762409946764, 0.0144343145750508 ) );
#990 = CARTESIAN_POINT( '', ( -0.0857590837071510, -0.0743933982822018, 0.0144343145750508 ) );
#991 = CARTESIAN_POINT( '', ( -0.0857590837071510, -0.0743933982822018, 0.0144343145750508 ) );
#992 = VECTOR( '', #1184, 1.00000000000000 );
#993 = CARTESIAN_POINT( '', ( -0.0936928932188134, -0.0828928932188135, 0.00281421356237313 ) );
#994 = CARTESIAN_POINT( '', ( -0.0907795418535755, -0.0799795418535755, 0.00693431457505080 ) );
#995 = VECTOR( '', #1185, 1.00000000000000 );
#996 = CARTESIAN_POINT( '', ( -0.0939757359312880, -0.0826100505063389, 0.00281421356237316 ) );
#997 = CARTESIAN_POINT( '', ( -0.0939757359312880, -0.0826100505063388, 0.00281421356237313 ) );
#998 = VECTOR( '', #1186, 1.00000000000000 );
#999 = CARTESIAN_POINT( '', ( -0.0910623845660501, -0.0796966991411009, 0.00693431457505080 ) );
#1000 = VECTOR( '', #1187, 1.00000000000000 );
#1001 = COLOUR_RGB( '', 0.600000023800000, 0.352941185200000, 0.0549019612000000 );
#1002 = CARTESIAN_POINT( '', ( -0.0929857864376269, -0.0846000000000000, 0.117985786437627 ) );
#1003 = CARTESIAN_POINT( '', ( -0.0936928932188135, -0.0828928932188135, 0.117985786437627 ) );
#1004 = AXIS2_PLACEMENT_3D( '', #1188, #1189, #1190 );
#1005 = CARTESIAN_POINT( '', ( -0.0929857864376269, -0.0846000000000000, 0.00281421356237314 ) );
#1006 = CARTESIAN_POINT( '', ( -0.0929857864376269, -0.0846000000000000, 0.0604000000000000 ) );
#1007 = VECTOR( '', #1191, 1.00000000000000 );
#1008 = AXIS2_PLACEMENT_3D( '', #1192, #1193, #1194 );
#1009 = CARTESIAN_POINT( '', ( -0.0936928932188134, -0.0828928932188135, 0.0604000000000000 ) );
#1010 = VECTOR( '', #1195, 1.00000000000000 );
#1011 = COLOUR_RGB( '', 0.600000023800000, 0.352941185200000, 0.0549019612000000 );
#1012 = CARTESIAN_POINT( '', ( 0.168185786437627, -0.0846000000000000, 0.117985786437627 ) );
#1013 = CARTESIAN_POINT( '', ( 0.168185786437627, -0.0850000000000000, 0.117985786437627 ) );
#1014 = CARTESIAN_POINT( '', ( 0.168185786437627, -0.0850000000000000, 0.117985786437627 ) );
#1015 = VECTOR( '', #1196, 1.00000000000000 );
#1016 = CARTESIAN_POINT( '', ( 0.168185786437627, -0.0828928932188135, 0.118692893218813 ) );
#1017 = AXIS2_PLACEMENT_3D( '', #1197, #1198, #1199 );
#1018 = CARTESIAN_POINT( '', ( 0.168185786437627, -0.0826100505063389, 0.118975735931288 ) );
#1019 = CARTESIAN_POINT( '', ( 0.168185786437627, -0.0826100505063388, 0.118975735931288 ) );
#1020 = VECTOR( '', #1200, 1.00000000000000 );
#1021 = AXIS2_PLACEMENT_3D( '', #1201, #1202, #1203 );
#1022 = COLOUR_RGB( '', 0.600000023800000, 0.352941185200000, 0.0549019612000000 );
#1023 = CARTESIAN_POINT( '', ( 0.168892893218814, -0.0828928932188135, 0.117985786437627 ) );
#1024 = CARTESIAN_POINT( '', ( 0.169175735931288, -0.0826100505063388, 0.117985786437627 ) );
#1025 = CARTESIAN_POINT( '', ( 0.169175735931288, -0.0826100505063388, 0.117985786437627 ) );
#1026 = VECTOR( '', #1204, 1.00000000000000 );
#1027 = AXIS2_PLACEMENT_3D( '', #1205, #1206, #1207 );
#1028 = AXIS2_PLACEMENT_3D( '', #1208, #1209, #1210 );
#1029 = COLOUR_RGB( '', 0.600000023800000, 0.352941185200000, 0.0549019612000000 );
#1030 = CARTESIAN_POINT( '', ( 0.168185786437627, -0.0828928932188135, 0.00210710678118663 ) );
#1031 = CARTESIAN_POINT( '', ( 0.168185786437627, -0.0826100505063388, 0.00182426406871201 ) );
#1032 = CARTESIAN_POINT( '', ( 0.168185786437627, -0.0826100505063388, 0.00182426406871201 ) );
#1033 = VECTOR( '', #1211, 1.00000000000000 );
#1034 = CARTESIAN_POINT( '', ( 0.168185786437627, -0.0846000000000000, 0.00281421356237317 ) );
#1035 = AXIS2_PLACEMENT_3D( '', #1212, #1213, #1214 );
#1036 = CARTESIAN_POINT( '', ( 0.168185786437627, -0.0850000000000000, 0.00281421356237317 ) );
#1037 = CARTESIAN_POINT( '', ( 0.168185786437627, -0.0850000000000000, 0.00281421356237317 ) );
#1038 = VECTOR( '', #1215, 1.00000000000000 );
#1039 = AXIS2_PLACEMENT_3D( '', #1216, #1217, #1218 );
#1040 = COLOUR_RGB( '', 0.600000023800000, 0.352941185200000, 0.0549019612000000 );
#1041 = CARTESIAN_POINT( '', ( -0.0929857864376269, -0.0826100505063389, 0.118975735931288 ) );
#1042 = CARTESIAN_POINT( '', ( 0.0376000000000000, -0.0826100505063388, 0.118975735931288 ) );
#1043 = VECTOR( '', #1219, 1.00000000000000 );
#1044 = CARTESIAN_POINT( '', ( 0.164065685424949, -0.0796966991411009, 0.116062384566050 ) );
#1045 = VECTOR( '', #1220, 1.00000000000000 );
#1046 = CARTESIAN_POINT( '', ( -0.0888656854249492, -0.0796966991411009, 0.116062384566050 ) );
#1047 = VECTOR( '', #1221, 1.00000000000000 );
#1048 = COLOUR_RGB( '', 0.600000023800000, 0.352941185200000, 0.0549019612000000 );
#1049 = CARTESIAN_POINT( '', ( -0.0854762409946764, -0.0746762409946764, 0.106365685424949 ) );
#1050 = CARTESIAN_POINT( '', ( -0.0857590837071510, -0.0743933982822018, 0.106365685424949 ) );
#1051 = CARTESIAN_POINT( '', ( -0.0857590837071510, -0.0743933982822018, 0.106365685424949 ) );
#1052 = VECTOR( '', #1222, 1.00000000000000 );
#1053 = CARTESIAN_POINT( '', ( -0.0854762409946764, -0.0746762409946764, 0.0604000000000000 ) );
#1054 = VECTOR( '', #1223, 1.00000000000000 );
#1055 = CARTESIAN_POINT( '', ( -0.0857590837071510, -0.0743933982822018, 0.0604000000000000 ) );
#1056 = VECTOR( '', #1224, 1.00000000000000 );
#1057 = COLOUR_RGB( '', 0.600000023800000, 0.352941185200000, 0.0549019612000000 );
#1058 = CARTESIAN_POINT( '', ( -0.0929857864376269, -0.0850000000000000, 0.00281421356237316 ) );
#1059 = CARTESIAN_POINT( '', ( -0.0929857864376269, -0.0850000000000000, 0.00281421356237314 ) );
#1060 = VECTOR( '', #1225, 1.00000000000000 );
#1061 = CARTESIAN_POINT( '', ( -0.0929857864376269, -0.0828928932188135, 0.00210710678118659 ) );
#1062 = AXIS2_PLACEMENT_3D( '', #1226, #1227, #1228 );
#1063 = CARTESIAN_POINT( '', ( -0.0929857864376269, -0.0826100505063388, 0.00182426406871198 ) );
#1064 = CARTESIAN_POINT( '', ( -0.0929857864376269, -0.0826100505063388, 0.00182426406871197 ) );
#1065 = VECTOR( '', #1229, 1.00000000000000 );
#1066 = AXIS2_PLACEMENT_3D( '', #1230, #1231, #1232 );
#1067 = COLOUR_RGB( '', 0.600000023800000, 0.352941185200000, 0.0549019612000000 );
#1068 = CARTESIAN_POINT( '', ( -0.0929857864376269, -0.0850000000000000, 0.117985786437627 ) );
#1069 = CARTESIAN_POINT( '', ( -0.0939757359312881, -0.0826100505063388, 0.117985786437627 ) );
#1070 = AXIS2_PLACEMENT_3D( '', #1233, #1234, #1235 );
#1071 = CARTESIAN_POINT( '', ( -0.0939757359312881, -0.0826100505063388, 0.0604000000000000 ) );
#1072 = VECTOR( '', #1236, 1.00000000000000 );
#1073 = AXIS2_PLACEMENT_3D( '', #1237, #1238, #1239 );
#1074 = CARTESIAN_POINT( '', ( -0.0929857864376269, -0.0850000000000000, 0.0604000000000000 ) );
#1075 = VECTOR( '', #1240, 1.00000000000000 );
#1076 = COLOUR_RGB( '', 0.600000023800000, 0.352941185200000, 0.0549019612000000 );
#1077 = CARTESIAN_POINT( '', ( 0.160676240994676, -0.0746762409946764, 0.106365685424949 ) );
#1078 = CARTESIAN_POINT( '', ( 0.160676240994676, -0.0746762409946764, 0.0604000000000000 ) );
#1079 = VECTOR( '', #1241, 1.00000000000000 );
#1080 = CARTESIAN_POINT( '', ( 0.160959083707151, -0.0743933982822018, 0.106365685424949 ) );
#1081 = CARTESIAN_POINT( '', ( 0.160959083707151, -0.0743933982822018, 0.106365685424949 ) );
#1082 = VECTOR( '', #1242, 1.00000000000000 );
#1083 = CARTESIAN_POINT( '', ( 0.160959083707151, -0.0743933982822018, 0.0604000000000000 ) );
#1084 = VECTOR( '', #1243, 1.00000000000000 );
#1085 = COLOUR_RGB( '', 0.600000023800000, 0.352941185200000, 0.0549019612000000 );
#1086 = AXIS2_PLACEMENT_3D( '', #1244, #1245, #1246 );
#1087 = AXIS2_PLACEMENT_3D( '', #1247, #1248, #1249 );
#1088 = COLOUR_RGB( '', 0.600000023800000, 0.352941185200000, 0.0549019612000000 );
#1089 = CARTESIAN_POINT( '', ( -0.0929857864376269, -0.0828928932188135, 0.118692893218813 ) );
#1090 = CARTESIAN_POINT( '', ( 0.0376000000000000, -0.0828928932188135, 0.118692893218813 ) );
#1091 = VECTOR( '', #1250, 1.00000000000000 );
#1092 = CARTESIAN_POINT( '', ( -0.0888656854249492, -0.0799795418535755, 0.115779541853575 ) );
#1093 = VECTOR( '', #1251, 1.00000000000000 );
#1094 = CARTESIAN_POINT( '', ( 0.164065685424949, -0.0799795418535755, 0.115779541853576 ) );
#1095 = VECTOR( '', #1252, 1.00000000000000 );
#1096 = COLOUR_RGB( '', 0.600000023800000, 0.352941185200000, 0.0549019612000000 );
#1097 = CARTESIAN_POINT( '', ( 0.169175735931288, -0.0826100505063388, 0.0604000000000000 ) );
#1098 = VECTOR( '', #1253, 1.00000000000000 );
#1099 = CARTESIAN_POINT( '', ( 0.168185786437627, -0.0850000000000000, 0.0604000000000000 ) );
#1100 = VECTOR( '', #1254, 1.00000000000000 );
#1101 = COLOUR_RGB( '', 0.600000023800000, 0.352941185200000, 0.0549019612000000 );
#1102 = CARTESIAN_POINT( '', ( 0.0376000000000000, -0.0826100505063388, 0.00182426406871199 ) );
#1103 = VECTOR( '', #1255, 1.00000000000000 );
#1104 = CARTESIAN_POINT( '', ( -0.0813656854249492, -0.0743933982822018, 0.0100409162928490 ) );
#1105 = CARTESIAN_POINT( '', ( -0.0888656854249492, -0.0796966991411009, 0.00473761543394991 ) );
#1106 = VECTOR( '', #1256, 1.00000000000000 );
#1107 = CARTESIAN_POINT( '', ( 0.156565685424949, -0.0743933982822018, 0.0100409162928491 ) );
#1108 = CARTESIAN_POINT( '', ( 0.0376000000000000, -0.0743933982822018, 0.0100409162928490 ) );
#1109 = VECTOR( '', #1257, 1.00000000000000 );
#1110 = CARTESIAN_POINT( '', ( 0.164065685424949, -0.0796966991411009, 0.00473761543394995 ) );
#1111 = VECTOR( '', #1258, 1.00000000000000 );
#1112 = COLOUR_RGB( '', 0.600000023800000, 0.352941185200000, 0.0549019612000000 );
#1113 = CARTESIAN_POINT( '', ( 0.168185786437627, -0.0846000000000000, 0.0604000000000000 ) );
#1114 = VECTOR( '', #1259, 1.00000000000000 );
#1115 = CARTESIAN_POINT( '', ( 0.168892893218814, -0.0828928932188135, 0.0604000000000000 ) );
#1116 = VECTOR( '', #1260, 1.00000000000000 );
#1117 = COLOUR_RGB( '', 0.600000023800000, 0.352941185200000, 0.0549019612000000 );
#1118 = CARTESIAN_POINT( '', ( 0.0376000000000000, -0.0850000000000000, 0.117985786437627 ) );
#1119 = VECTOR( '', #1261, 1.00000000000000 );
#1120 = CARTESIAN_POINT( '', ( 0.0376000000000000, -0.0850000000000000, 0.00281421356237315 ) );
#1121 = VECTOR( '', #1262, 1.00000000000000 );
#1122 = COLOUR_RGB( '', 0.600000023800000, 0.352941185200000, 0.0549019612000000 );
#1123 = CARTESIAN_POINT( '', ( -0.0929857864376269, -0.0826100505063388, 0.118975735931288 ) );
#1124 = VECTOR( '', #1263, 1.00000000000000 );
#1125 = AXIS2_PLACEMENT_3D( '', #1264, #1265, #1266 );
#1126 = CARTESIAN_POINT( '', ( -0.0929857864376269, -0.0850000000000000, 0.117985786437627 ) );
#1127 = VECTOR( '', #1267, 1.00000000000000 );
#1128 = AXIS2_PLACEMENT_3D( '', #1268, #1269, #1270 );
#1129 = COLOUR_RGB( '', 0.600000023800000, 0.352941185200000, 0.0549019612000000 );
#1130 = COLOUR_RGB( '', 0.600000023800000, 0.352941185200000, 0.0549019612000000 );
#1131 = CARTESIAN_POINT( '', ( -0.0907795418535755, -0.0799795418535755, 0.113865685424949 ) );
#1132 = VECTOR( '', #1271, 1.00000000000000 );
#1133 = CARTESIAN_POINT( '', ( -0.0910623845660501, -0.0796966991411009, 0.113865685424949 ) );
#1134 = VECTOR( '', #1272, 1.00000000000000 );
#1135 = CARTESIAN_POINT( '', ( -0.0939757359312881, -0.0826100505063388, 0.117985786437627 ) );
#1136 = VECTOR( '', #1273, 1.00000000000000 );
#1137 = COLOUR_RGB( '', 0.600000023800000, 0.352941185200000, 0.0549019612000000 );
#1138 = COLOUR_RGB( '', 0.600000023800000, 0.352941185200000, 0.0549019612000000 );
#1139 = COLOUR_RGB( '', 0.600000023800000, 0.352941185200000, 0.0549019612000000 );
#1140 = COLOUR_RGB( '', 0.600000023800000, 0.352941185200000, 0.0549019612000000 );
#1141 = CARTESIAN_POINT( '', ( 0.165979541853575, -0.0799795418535755, 0.113865685424949 ) );
#1142 = VECTOR( '', #1274, 1.00000000000000 );
#1143 = COLOUR_RGB( '', 0.600000023800000, 0.352941185200000, 0.0549019612000000 );
#1144 = CARTESIAN_POINT( '', ( 0.0376000000000000, -0.0846000000000000, 0.00281421356237315 ) );
#1145 = VECTOR( '', #1275, 1.00000000000000 );
#1146 = CARTESIAN_POINT( '', ( 0.0376000000000000, -0.0828928932188135, 0.00210710678118661 ) );
#1147 = VECTOR( '', #1276, 1.00000000000000 );
#1148 = COLOUR_RGB( '', 0.600000023800000, 0.352941185200000, 0.0549019612000000 );
#1149 = COLOUR_RGB( '', 0.600000023800000, 0.352941185200000, 0.0549019612000000 );
#1150 = CARTESIAN_POINT( '', ( 0.0376000000000000, -0.0846000000000000, 0.117985786437627 ) );
#1151 = VECTOR( '', #1277, 1.00000000000000 );
#1152 = COLOUR_RGB( '', 0.600000023800000, 0.352941185200000, 0.0549019612000000 );
#1153 = CARTESIAN_POINT( '', ( 0.156565685424949, -0.0746762409946764, 0.0103237590053237 ) );
#1154 = CARTESIAN_POINT( '', ( 0.164065685424949, -0.0799795418535755, 0.00502045814642457 ) );
#1155 = VECTOR( '', #1278, 1.00000000000000 );
#1156 = CARTESIAN_POINT( '', ( -0.0813656854249492, -0.0746762409946764, 0.0103237590053236 ) );
#1157 = CARTESIAN_POINT( '', ( 0.0376000000000000, -0.0746762409946764, 0.0103237590053237 ) );
#1158 = VECTOR( '', #1279, 1.00000000000000 );
#1159 = CARTESIAN_POINT( '', ( -0.0888656854249492, -0.0799795418535755, 0.00502045814642453 ) );
#1160 = VECTOR( '', #1280, 1.00000000000000 );
#1161 = COLOUR_RGB( '', 0.600000023800000, 0.352941185200000, 0.0549019612000000 );
#1162 = CARTESIAN_POINT( '', ( 0.156565685424949, -0.0743933982822018, 0.0100409162928491 ) );
#1163 = VECTOR( '', #1281, 1.00000000000000 );
#1164 = COLOUR_RGB( '', 0.600000023800000, 0.352941185200000, 0.0549019612000000 );
#1165 = CARTESIAN_POINT( '', ( 0.166262384566050, -0.0796966991411009, 0.113865685424949 ) );
#1166 = VECTOR( '', #1282, 1.00000000000000 );
#1167 = COLOUR_RGB( '', 0.600000023800000, 0.352941185200000, 0.0549019612000000 );
#1168 = COLOUR_RGB( '', 0.600000023800000, 0.352941185200000, 0.0549019612000000 );
#1169 = COLOUR_RGB( '', 0.600000023800000, 0.352941185200000, 0.0549019612000000 );
#1170 = COLOUR_RGB( '', 0.600000023800000, 0.352941185200000, 0.0549019612000000 );
#1171 = CARTESIAN_POINT( '', ( -0.0813656854249492, -0.0743933982822018, 0.0100409162928490 ) );
#1172 = VECTOR( '', #1283, 1.00000000000000 );
#1173 = COLOUR_RGB( '', 0.600000023800000, 0.352941185200000, 0.0549019612000000 );
#1174 = COLOUR_RGB( '', 0.600000023800000, 0.352941185200000, 0.0549019612000000 );
#1175 = COLOUR_RGB( '', 0.600000023800000, 0.352941185200000, 0.0549019612000000 );
#1176 = DIRECTION( '', ( 0.500000000000000, -0.500000000000000, -0.707106781186547 ) );
#1177 = DIRECTION( '', ( 0.707106781186548, 0.707106781186548, 3.27102595559120E-16 ) );
#1178 = DIRECTION( '', ( 0.500000000000000, -0.500000000000000, -0.707106781186547 ) );
#1179 = DIRECTION( '', ( 0.707106781186548, 0.707106781186548, 2.68031548330893E-16 ) );
#1180 = DIRECTION( '', ( -7.37825403516811E-17, 0.707106781186548, 0.707106781186548 ) );
#1181 = DIRECTION( '', ( 1.00000000000000, 5.21721346158438E-17, 5.21721346158438E-17 ) );
#1182 = DIRECTION( '', ( -7.37825403516811E-17, 0.707106781186548, 0.707106781186548 ) );
#1183 = DIRECTION( '', ( 1.00000000000000, -6.15471719122371E-18, 1.10498986422911E-16 ) );
#1184 = DIRECTION( '', ( -0.707106781186548, 0.707106781186548, -2.45326946669340E-16 ) );
#1185 = DIRECTION( '', ( 0.500000000000000, 0.500000000000000, 0.707106781186548 ) );
#1186 = DIRECTION( '', ( -0.707106781186548, 0.707106781186548, -3.23542699562151E-16 ) );
#1187 = DIRECTION( '', ( 0.500000000000000, 0.500000000000000, 0.707106781186548 ) );
#1188 = CARTESIAN_POINT( '', ( -0.0929857864376269, -0.0836000000000000, 0.117985786437627 ) );
#1189 = DIRECTION( '', ( 4.55265538674160E-16, 0.00000000000000, -1.00000000000000 ) );
#1190 = DIRECTION( '', ( -1.00000000000000, 0.00000000000000, -4.55265538674160E-16 ) );
#1191 = DIRECTION( '', ( 3.46944695195362E-16, 0.00000000000000, -1.00000000000000 ) );
#1192 = CARTESIAN_POINT( '', ( -0.0929857864376269, -0.0836000000000000, 0.00281421356237316 ) );
#1193 = DIRECTION( '', ( 4.55265538674160E-16, 0.00000000000000, -1.00000000000000 ) );
#1194 = DIRECTION( '', ( -1.00000000000000, 0.00000000000000, -4.55265538674160E-16 ) );
#1195 = DIRECTION( '', ( -3.46944695195362E-16, 0.00000000000000, 1.00000000000000 ) );
#1196 = DIRECTION( '', ( 0.00000000000000, -1.00000000000000, 0.00000000000000 ) );
#1197 = CARTESIAN_POINT( '', ( 0.168185786437627, -0.0836000000000000, 0.117985786437627 ) );
#1198 = DIRECTION( '', ( -1.00000000000000, -5.17960542051984E-17, -5.17960542051984E-17 ) );
#1199 = DIRECTION( '', ( -5.17960542051984E-17, 0.00000000000000, 1.00000000000000 ) );
#1200 = DIRECTION( '', ( -1.01498094637120E-16, 0.707106781186548, 0.707106781186548 ) );
#1201 = CARTESIAN_POINT( '', ( 0.168185786437627, -0.0836000000000000, 0.117985786437627 ) );
#1202 = DIRECTION( '', ( -1.00000000000000, -5.17960542051984E-17, -5.17960542051984E-17 ) );
#1203 = DIRECTION( '', ( -5.17960542051984E-17, 0.00000000000000, 1.00000000000000 ) );
#1204 = DIRECTION( '', ( 0.707106781186548, 0.707106781186548, 3.23542699562151E-16 ) );
#1205 = CARTESIAN_POINT( '', ( 0.168185786437627, -0.0836000000000000, 0.117985786437627 ) );
#1206 = DIRECTION( '', ( -4.55265538674161E-16, 0.00000000000000, 1.00000000000000 ) );
#1207 = DIRECTION( '', ( 1.00000000000000, 0.00000000000000, 4.55265538674161E-16 ) );
#1208 = CARTESIAN_POINT( '', ( 0.168185786437627, -0.0836000000000000, 0.117985786437627 ) );
#1209 = DIRECTION( '', ( -4.55265538674161E-16, 0.00000000000000, 1.00000000000000 ) );
#1210 = DIRECTION( '', ( 1.00000000000000, 0.00000000000000, 4.55265538674161E-16 ) );
#1211 = DIRECTION( '', ( 0.00000000000000, 0.707106781186548, -0.707106781186548 ) );
#1212 = CARTESIAN_POINT( '', ( 0.168185786437627, -0.0836000000000000, 0.00281421356237318 ) );
#1213 = DIRECTION( '', ( 1.00000000000000, 5.17960542051984E-17, 1.79667563024282E-16 ) );
#1214 = DIRECTION( '', ( 1.79667563024282E-16, 0.00000000000000, -1.00000000000000 ) );
#1215 = DIRECTION( '', ( 0.00000000000000, -1.00000000000000, 0.00000000000000 ) );
#1216 = CARTESIAN_POINT( '', ( 0.168185786437627, -0.0836000000000000, 0.00281421356237318 ) );
#1217 = DIRECTION( '', ( 1.00000000000000, 5.17960542051984E-17, 1.79667563024282E-16 ) );
#1218 = DIRECTION( '', ( 1.79667563024282E-16, 0.00000000000000, -1.00000000000000 ) );
#1219 = DIRECTION( '', ( 1.00000000000000, 0.00000000000000, 1.04344269231688E-16 ) );
#1220 = DIRECTION( '', ( 0.707106781186547, -0.500000000000000, 0.500000000000000 ) );
#1221 = DIRECTION( '', ( 0.707106781186548, 0.500000000000000, -0.500000000000000 ) );
#1222 = DIRECTION( '', ( -0.707106781186548, 0.707106781186548, -2.45326946669340E-16 ) );
#1223 = DIRECTION( '', ( 0.00000000000000, 3.46944695195362E-16, 1.00000000000000 ) );
#1224 = DIRECTION( '', ( -3.24430477336369E-16, 2.25142178589922E-17, 1.00000000000000 ) );
#1225 = DIRECTION( '', ( 0.00000000000000, -1.00000000000000, 0.00000000000000 ) );
#1226 = CARTESIAN_POINT( '', ( -0.0929857864376269, -0.0836000000000000, 0.00281421356237313 ) );
#1227 = DIRECTION( '', ( 1.00000000000000, 5.17960542051984E-17, 1.79667563024282E-16 ) );
#1228 = DIRECTION( '', ( 1.79667563024282E-16, 0.00000000000000, -1.00000000000000 ) );
#1229 = DIRECTION( '', ( 1.06260198549818E-16, 0.707106781186548, -0.707106781186548 ) );
#1230 = CARTESIAN_POINT( '', ( -0.0929857864376269, -0.0836000000000000, 0.00281421356237313 ) );
#1231 = DIRECTION( '', ( 1.00000000000000, 5.17960542051984E-17, 1.79667563024282E-16 ) );
#1232 = DIRECTION( '', ( 1.79667563024282E-16, 0.00000000000000, -1.00000000000000 ) );
#1233 = CARTESIAN_POINT( '', ( -0.0929857864376269, -0.0836000000000000, 0.117985786437627 ) );
#1234 = DIRECTION( '', ( 4.55265538674160E-16, 0.00000000000000, -1.00000000000000 ) );
#1235 = DIRECTION( '', ( -1.00000000000000, 0.00000000000000, -4.55265538674160E-16 ) );
#1236 = DIRECTION( '', ( -3.46944695195362E-16, 0.00000000000000, 1.00000000000000 ) );
#1237 = CARTESIAN_POINT( '', ( -0.0929857864376269, -0.0836000000000000, 0.00281421356237316 ) );
#1238 = DIRECTION( '', ( 4.55265538674160E-16, 0.00000000000000, -1.00000000000000 ) );
#1239 = DIRECTION( '', ( -1.00000000000000, 0.00000000000000, -4.55265538674160E-16 ) );
#1240 = DIRECTION( '', ( 3.46944695195362E-16, 0.00000000000000, -1.00000000000000 ) );
#1241 = DIRECTION( '', ( 0.00000000000000, -4.62592926927149E-16, 1.00000000000000 ) );
#1242 = DIRECTION( '', ( 0.707106781186548, 0.707106781186548, 3.27102595559120E-16 ) );
#1243 = DIRECTION( '', ( 5.33212722940951E-16, -7.06197960138027E-17, -1.00000000000000 ) );
#1244 = CARTESIAN_POINT( '', ( 0.168185786437627, -0.0836000000000000, 0.00281421356237320 ) );
#1245 = DIRECTION( '', ( -4.55265538674161E-16, 0.00000000000000, 1.00000000000000 ) );
#1246 = DIRECTION( '', ( 1.00000000000000, 0.00000000000000, 4.55265538674161E-16 ) );
#1247 = CARTESIAN_POINT( '', ( 0.168185786437627, -0.0836000000000000, 0.00281421356237320 ) );
#1248 = DIRECTION( '', ( -4.55265538674161E-16, 0.00000000000000, 1.00000000000000 ) );
#1249 = DIRECTION( '', ( 1.00000000000000, 0.00000000000000, 4.55265538674161E-16 ) );
#1250 = DIRECTION( '', ( 1.00000000000000, 0.00000000000000, 1.04344269231688E-16 ) );
#1251 = DIRECTION( '', ( 0.707106781186548, 0.500000000000000, -0.500000000000000 ) );
#1252 = DIRECTION( '', ( 0.707106781186547, -0.500000000000000, 0.500000000000000 ) );
#1253 = DIRECTION( '', ( -4.62592926927149E-16, 0.00000000000000, 1.00000000000000 ) );
#1254 = DIRECTION( '', ( 4.62592926927149E-16, 0.00000000000000, -1.00000000000000 ) );
#1255 = DIRECTION( '', ( 1.00000000000000, 0.00000000000000, 1.22482237906727E-16 ) );
#1256 = DIRECTION( '', ( -0.707106781186547, -0.500000000000000, -0.500000000000000 ) );
#1257 = DIRECTION( '', ( -1.00000000000000, 2.91426714629602E-18, -1.19567970760431E-16 ) );
#1258 = DIRECTION( '', ( -0.707106781186548, 0.500000000000000, 0.500000000000000 ) );
#1259 = DIRECTION( '', ( 4.62592926927149E-16, 0.00000000000000, -1.00000000000000 ) );
#1260 = DIRECTION( '', ( -4.62592926927149E-16, 0.00000000000000, 1.00000000000000 ) );
#1261 = DIRECTION( '', ( -1.00000000000000, 0.00000000000000, -1.04344269231688E-16 ) );
#1262 = DIRECTION( '', ( -1.00000000000000, 0.00000000000000, -1.22482237906727E-16 ) );
#1263 = DIRECTION( '', ( 7.85046229341888E-17, 0.707106781186547, 0.707106781186548 ) );
#1264 = CARTESIAN_POINT( '', ( -0.0929857864376269, -0.0836000000000000, 0.117985786437627 ) );
#1265 = DIRECTION( '', ( -1.00000000000000, -5.17960542051984E-17, -5.17960542051984E-17 ) );
#1266 = DIRECTION( '', ( -5.17960542051984E-17, 0.00000000000000, 1.00000000000000 ) );
#1267 = DIRECTION( '', ( 0.00000000000000, -1.00000000000000, 0.00000000000000 ) );
#1268 = CARTESIAN_POINT( '', ( -0.0929857864376269, -0.0836000000000000, 0.117985786437627 ) );
#1269 = DIRECTION( '', ( -1.00000000000000, -5.17960542051984E-17, -5.17960542051984E-17 ) );
#1270 = DIRECTION( '', ( -5.17960542051984E-17, 0.00000000000000, 1.00000000000000 ) );
#1271 = DIRECTION( '', ( -0.500000000000000, -0.500000000000000, 0.707106781186547 ) );
#1272 = DIRECTION( '', ( -0.500000000000000, -0.500000000000000, 0.707106781186547 ) );
#1273 = DIRECTION( '', ( -0.707106781186548, 0.707106781186548, -2.28779236863799E-16 ) );
#1274 = DIRECTION( '', ( -0.500000000000000, 0.500000000000000, -0.707106781186548 ) );
#1275 = DIRECTION( '', ( -1.00000000000000, 0.00000000000000, -1.22482237906727E-16 ) );
#1276 = DIRECTION( '', ( 1.00000000000000, 0.00000000000000, 1.22482237906727E-16 ) );
#1277 = DIRECTION( '', ( -1.00000000000000, 0.00000000000000, -1.04344269231688E-16 ) );
#1278 = DIRECTION( '', ( -0.707106781186548, 0.500000000000000, 0.500000000000000 ) );
#1279 = DIRECTION( '', ( 1.00000000000000, -6.12411189533636E-17, 6.12411189533636E-17 ) );
#1280 = DIRECTION( '', ( -0.707106781186547, -0.500000000000000, -0.500000000000000 ) );
#1281 = DIRECTION( '', ( 8.66080209987507E-17, 0.707106781186548, -0.707106781186548 ) );
#1282 = DIRECTION( '', ( -0.500000000000000, 0.500000000000000, -0.707106781186548 ) );
#1283 = DIRECTION( '', ( 8.66080209987507E-17, 0.707106781186548, -0.707106781186548 ) );
ENDSEC;
END-ISO-10303-21;
