ISO-10303-21;
HEADER;
FILE_DESCRIPTION( ( '' ), ' ' );
FILE_NAME( '/vol/tmp/translate-13591698070563336095/5eb6fe46989cf415cf5a597b.step', '2020-05-09T19:02:31', ( '' ), ( '' ), ' ', ' ', ' ' );
FILE_SCHEMA( ( 'AUTOMOTIVE_DESIGN { 1 0 10303 214 1 1 1 1 }' ) );
ENDSEC;
DATA;
#1 = MECHANICAL_DESIGN_GEOMETRIC_PRESENTATION_REPRESENTATION( ' ', ( #10, #11, #12, #13, #14, #15, #16, #17, #18, #19 ), #6 );
#2 = PRODUCT_DEFINITION_CONTEXT( '', #20, 'design' );
#3 = APPLICATION_PROTOCOL_DEFINITION( 'international standard', 'automotive_design', 2001, #20 );
#4 = PRODUCT_CATEGORY_RELATIONSHIP( 'NONE', 'NONE', #21, #22 );
#5 = SHAPE_DEFINITION_REPRESENTATION( #23, #24 );
#6 =  ( GEOMETRIC_REPRESENTATION_CONTEXT( 3 )GLOBAL_UNCERTAINTY_ASSIGNED_CONTEXT( ( #27 ) )GLOBAL_UNIT_ASSIGNED_CONTEXT( ( #29, #30, #31 ) )REPRESENTATION_CONTEXT( 'NONE', 'WORKSPACE' ) );
#10 = STYLED_ITEM( '', ( #33 ), #34 );
#11 = STYLED_ITEM( '', ( #35 ), #36 );
#12 = STYLED_ITEM( '', ( #37 ), #38 );
#13 = STYLED_ITEM( '', ( #39 ), #40 );
#14 = STYLED_ITEM( '', ( #41 ), #42 );
#15 = STYLED_ITEM( '', ( #43 ), #44 );
#16 = STYLED_ITEM( '', ( #45 ), #46 );
#17 = STYLED_ITEM( '', ( #47 ), #48 );
#18 = STYLED_ITEM( '', ( #49 ), #50 );
#19 = STYLED_ITEM( '', ( #51 ), #52 );
#20 = APPLICATION_CONTEXT( 'core data for automotive mechanical design processes' );
#21 = PRODUCT_CATEGORY( 'part', 'NONE' );
#22 = PRODUCT_RELATED_PRODUCT_CATEGORY( 'detail', ' ', ( #53 ) );
#23 = PRODUCT_DEFINITION_SHAPE( 'NONE', 'NONE', #54 );
#24 = ADVANCED_BREP_SHAPE_REPRESENTATION( 'Rigid_bottom', ( #55, #56 ), #6 );
#27 = UNCERTAINTY_MEASURE_WITH_UNIT( LENGTH_MEASURE( 1.00000000000000E-06 ), #29, '', '' );
#29 =  ( CONVERSION_BASED_UNIT( 'METRE', #59 )LENGTH_UNIT(  )NAMED_UNIT( #62 ) );
#30 =  ( NAMED_UNIT( #64 )PLANE_ANGLE_UNIT(  )SI_UNIT( $, .RADIAN. ) );
#31 =  ( NAMED_UNIT( #64 )SI_UNIT( $, .STERADIAN. )SOLID_ANGLE_UNIT(  ) );
#33 = PRESENTATION_STYLE_ASSIGNMENT( ( #70 ) );
#34 = ADVANCED_FACE( '', ( #71 ), #72, .F. );
#35 = PRESENTATION_STYLE_ASSIGNMENT( ( #73 ) );
#36 = ADVANCED_FACE( '', ( #74 ), #75, .T. );
#37 = PRESENTATION_STYLE_ASSIGNMENT( ( #76 ) );
#38 = ADVANCED_FACE( '', ( #77 ), #78, .F. );
#39 = PRESENTATION_STYLE_ASSIGNMENT( ( #79 ) );
#40 = ADVANCED_FACE( '', ( #80 ), #81, .T. );
#41 = PRESENTATION_STYLE_ASSIGNMENT( ( #82 ) );
#42 = ADVANCED_FACE( '', ( #83 ), #84, .T. );
#43 = PRESENTATION_STYLE_ASSIGNMENT( ( #85 ) );
#44 = ADVANCED_FACE( '', ( #86 ), #87, .T. );
#45 = PRESENTATION_STYLE_ASSIGNMENT( ( #88 ) );
#46 = ADVANCED_FACE( '', ( #89 ), #90, .T. );
#47 = PRESENTATION_STYLE_ASSIGNMENT( ( #91 ) );
#48 = ADVANCED_FACE( '', ( #92 ), #93, .T. );
#49 = PRESENTATION_STYLE_ASSIGNMENT( ( #94 ) );
#50 = ADVANCED_FACE( '', ( #95 ), #96, .F. );
#51 = PRESENTATION_STYLE_ASSIGNMENT( ( #97 ) );
#52 = ADVANCED_FACE( '', ( #98 ), #99, .T. );
#53 = PRODUCT( 'Rigid_bottom', 'Rigid_bottom', 'PART-Rigid_bottom-DESC', ( #100 ) );
#54 = PRODUCT_DEFINITION( 'NONE', 'NONE', #101, #2 );
#55 = MANIFOLD_SOLID_BREP( 'Rigid_bottom', #102 );
#56 = AXIS2_PLACEMENT_3D( '', #103, #104, #105 );
#59 = LENGTH_MEASURE_WITH_UNIT( LENGTH_MEASURE( 1.00000000000000 ), #106 );
#62 = DIMENSIONAL_EXPONENTS( 1.00000000000000, 0.00000000000000, 0.00000000000000, 0.00000000000000, 0.00000000000000, 0.00000000000000, 0.00000000000000 );
#64 = DIMENSIONAL_EXPONENTS( 0.00000000000000, 0.00000000000000, 0.00000000000000, 0.00000000000000, 0.00000000000000, 0.00000000000000, 0.00000000000000 );
#70 = SURFACE_STYLE_USAGE( .BOTH., #107 );
#71 = FACE_OUTER_BOUND( '', #108, .T. );
#72 = PLANE( '', #109 );
#73 = SURFACE_STYLE_USAGE( .BOTH., #110 );
#74 = FACE_OUTER_BOUND( '', #111, .T. );
#75 = CYLINDRICAL_SURFACE( '', #112, 0.0100000000000000 );
#76 = SURFACE_STYLE_USAGE( .BOTH., #113 );
#77 = FACE_OUTER_BOUND( '', #114, .T. );
#78 = PLANE( '', #115 );
#79 = SURFACE_STYLE_USAGE( .BOTH., #116 );
#80 = FACE_OUTER_BOUND( '', #117, .T. );
#81 = PLANE( '', #118 );
#82 = SURFACE_STYLE_USAGE( .BOTH., #119 );
#83 = FACE_OUTER_BOUND( '', #120, .T. );
#84 = PLANE( '', #121 );
#85 = SURFACE_STYLE_USAGE( .BOTH., #122 );
#86 = FACE_OUTER_BOUND( '', #123, .T. );
#87 = PLANE( '', #124 );
#88 = SURFACE_STYLE_USAGE( .BOTH., #125 );
#89 = FACE_OUTER_BOUND( '', #126, .T. );
#90 = CYLINDRICAL_SURFACE( '', #127, 0.0100000000000000 );
#91 = SURFACE_STYLE_USAGE( .BOTH., #128 );
#92 = FACE_OUTER_BOUND( '', #129, .T. );
#93 = CYLINDRICAL_SURFACE( '', #130, 0.0100000000000000 );
#94 = SURFACE_STYLE_USAGE( .BOTH., #131 );
#95 = FACE_OUTER_BOUND( '', #132, .T. );
#96 = PLANE( '', #133 );
#97 = SURFACE_STYLE_USAGE( .BOTH., #134 );
#98 = FACE_OUTER_BOUND( '', #135, .T. );
#99 = CYLINDRICAL_SURFACE( '', #136, 0.0100000000000000 );
#100 = PRODUCT_CONTEXT( '', #20, 'mechanical' );
#101 = PRODUCT_DEFINITION_FORMATION_WITH_SPECIFIED_SOURCE( ' ', 'NONE', #53, .NOT_KNOWN. );
#102 = CLOSED_SHELL( '', ( #44, #46, #40, #36, #34, #52, #38, #48, #50, #42 ) );
#103 = CARTESIAN_POINT( '', ( 0.00000000000000, 0.00000000000000, 0.00000000000000 ) );
#104 = DIRECTION( '', ( 0.00000000000000, 0.00000000000000, 1.00000000000000 ) );
#105 = DIRECTION( '', ( 1.00000000000000, 0.00000000000000, 0.00000000000000 ) );
#106 =  ( LENGTH_UNIT(  )NAMED_UNIT( #62 )SI_UNIT( $, .METRE. ) );
#107 = SURFACE_SIDE_STYLE( '', ( #138 ) );
#108 = EDGE_LOOP( '', ( #139, #140, #141, #142 ) );
#109 = AXIS2_PLACEMENT_3D( '', #143, #144, #145 );
#110 = SURFACE_SIDE_STYLE( '', ( #146 ) );
#111 = EDGE_LOOP( '', ( #147, #148, #149, #150 ) );
#112 = AXIS2_PLACEMENT_3D( '', #151, #152, #153 );
#113 = SURFACE_SIDE_STYLE( '', ( #154 ) );
#114 = EDGE_LOOP( '', ( #155, #156, #157, #158 ) );
#115 = AXIS2_PLACEMENT_3D( '', #159, #160, #161 );
#116 = SURFACE_SIDE_STYLE( '', ( #162 ) );
#117 = EDGE_LOOP( '', ( #163, #164, #165, #166 ) );
#118 = AXIS2_PLACEMENT_3D( '', #167, #168, #169 );
#119 = SURFACE_SIDE_STYLE( '', ( #170 ) );
#120 = EDGE_LOOP( '', ( #171, #172, #173, #174, #175, #176, #177, #178 ) );
#121 = AXIS2_PLACEMENT_3D( '', #179, #180, #181 );
#122 = SURFACE_SIDE_STYLE( '', ( #182 ) );
#123 = EDGE_LOOP( '', ( #183, #184, #185, #186 ) );
#124 = AXIS2_PLACEMENT_3D( '', #187, #188, #189 );
#125 = SURFACE_SIDE_STYLE( '', ( #190 ) );
#126 = EDGE_LOOP( '', ( #191, #192, #193, #194 ) );
#127 = AXIS2_PLACEMENT_3D( '', #195, #196, #197 );
#128 = SURFACE_SIDE_STYLE( '', ( #198 ) );
#129 = EDGE_LOOP( '', ( #199, #200, #201, #202 ) );
#130 = AXIS2_PLACEMENT_3D( '', #203, #204, #205 );
#131 = SURFACE_SIDE_STYLE( '', ( #206 ) );
#132 = EDGE_LOOP( '', ( #207, #208, #209, #210, #211, #212, #213, #214 ) );
#133 = AXIS2_PLACEMENT_3D( '', #215, #216, #217 );
#134 = SURFACE_SIDE_STYLE( '', ( #218 ) );
#135 = EDGE_LOOP( '', ( #219, #220, #221, #222 ) );
#136 = AXIS2_PLACEMENT_3D( '', #223, #224, #225 );
#138 = SURFACE_STYLE_FILL_AREA( #226 );
#139 = ORIENTED_EDGE( '', *, *, #227, .T. );
#140 = ORIENTED_EDGE( '', *, *, #228, .F. );
#141 = ORIENTED_EDGE( '', *, *, #229, .F. );
#142 = ORIENTED_EDGE( '', *, *, #230, .T. );
#143 = CARTESIAN_POINT( '', ( -0.0924000000000000, -0.0870000000000000, 0.0604857864376268 ) );
#144 = DIRECTION( '', ( 1.00000000000000, 0.00000000000000, 0.00000000000000 ) );
#145 = DIRECTION( '', ( 0.00000000000000, 0.00000000000000, -1.00000000000000 ) );
#146 = SURFACE_STYLE_FILL_AREA( #231 );
#147 = ORIENTED_EDGE( '', *, *, #232, .T. );
#148 = ORIENTED_EDGE( '', *, *, #230, .F. );
#149 = ORIENTED_EDGE( '', *, *, #233, .F. );
#150 = ORIENTED_EDGE( '', *, *, #234, .T. );
#151 = CARTESIAN_POINT( '', ( -0.0824000000000000, -0.0870000000000000, 0.107985786437627 ) );
#152 = DIRECTION( '', ( -0.00000000000000, -1.00000000000000, -0.00000000000000 ) );
#153 = DIRECTION( '', ( 0.00000000000000, 0.00000000000000, 1.00000000000000 ) );
#154 = SURFACE_STYLE_FILL_AREA( #235 );
#155 = ORIENTED_EDGE( '', *, *, #236, .T. );
#156 = ORIENTED_EDGE( '', *, *, #237, .F. );
#157 = ORIENTED_EDGE( '', *, *, #238, .F. );
#158 = ORIENTED_EDGE( '', *, *, #239, .T. );
#159 = CARTESIAN_POINT( '', ( 0.0376000000000000, -0.0870000000000000, 0.00298578643762692 ) );
#160 = DIRECTION( '', ( 0.00000000000000, 0.00000000000000, 1.00000000000000 ) );
#161 = DIRECTION( '', ( 1.00000000000000, 0.00000000000000, 0.00000000000000 ) );
#162 = SURFACE_STYLE_FILL_AREA( #240 );
#163 = ORIENTED_EDGE( '', *, *, #241, .F. );
#164 = ORIENTED_EDGE( '', *, *, #234, .F. );
#165 = ORIENTED_EDGE( '', *, *, #242, .T. );
#166 = ORIENTED_EDGE( '', *, *, #243, .T. );
#167 = CARTESIAN_POINT( '', ( 0.0376000000000000, -0.0870000000000000, 0.117985786437627 ) );
#168 = DIRECTION( '', ( 0.00000000000000, 0.00000000000000, 1.00000000000000 ) );
#169 = DIRECTION( '', ( 1.00000000000000, 0.00000000000000, 0.00000000000000 ) );
#170 = SURFACE_STYLE_FILL_AREA( #244 );
#171 = ORIENTED_EDGE( '', *, *, #245, .F. );
#172 = ORIENTED_EDGE( '', *, *, #246, .T. );
#173 = ORIENTED_EDGE( '', *, *, #242, .F. );
#174 = ORIENTED_EDGE( '', *, *, #233, .T. );
#175 = ORIENTED_EDGE( '', *, *, #229, .T. );
#176 = ORIENTED_EDGE( '', *, *, #247, .T. );
#177 = ORIENTED_EDGE( '', *, *, #238, .T. );
#178 = ORIENTED_EDGE( '', *, *, #248, .T. );
#179 = CARTESIAN_POINT( '', ( 0.0376000000000000, -0.0870000000000000, 0.0604857864376269 ) );
#180 = DIRECTION( '', ( 0.00000000000000, -1.00000000000000, 0.00000000000000 ) );
#181 = DIRECTION( '', ( 1.00000000000000, 0.00000000000000, 0.00000000000000 ) );
#182 = SURFACE_STYLE_FILL_AREA( #249 );
#183 = ORIENTED_EDGE( '', *, *, #250, .F. );
#184 = ORIENTED_EDGE( '', *, *, #251, .F. );
#185 = ORIENTED_EDGE( '', *, *, #245, .T. );
#186 = ORIENTED_EDGE( '', *, *, #252, .T. );
#187 = CARTESIAN_POINT( '', ( 0.167600000000000, -0.0870000000000000, 0.0604857864376269 ) );
#188 = DIRECTION( '', ( 1.00000000000000, 0.00000000000000, 5.84327907697452E-16 ) );
#189 = DIRECTION( '', ( 5.84327907697452E-16, 0.00000000000000, -1.00000000000000 ) );
#190 = SURFACE_STYLE_FILL_AREA( #253 );
#191 = ORIENTED_EDGE( '', *, *, #254, .T. );
#192 = ORIENTED_EDGE( '', *, *, #243, .F. );
#193 = ORIENTED_EDGE( '', *, *, #246, .F. );
#194 = ORIENTED_EDGE( '', *, *, #251, .T. );
#195 = CARTESIAN_POINT( '', ( 0.157600000000000, -0.0870000000000000, 0.107985786437627 ) );
#196 = DIRECTION( '', ( -0.00000000000000, -1.00000000000000, -0.00000000000000 ) );
#197 = DIRECTION( '', ( 0.00000000000000, 0.00000000000000, 1.00000000000000 ) );
#198 = SURFACE_STYLE_FILL_AREA( #255 );
#199 = ORIENTED_EDGE( '', *, *, #256, .T. );
#200 = ORIENTED_EDGE( '', *, *, #252, .F. );
#201 = ORIENTED_EDGE( '', *, *, #248, .F. );
#202 = ORIENTED_EDGE( '', *, *, #237, .T. );
#203 = CARTESIAN_POINT( '', ( 0.157600000000000, -0.0870000000000000, 0.0129857864376270 ) );
#204 = DIRECTION( '', ( -0.00000000000000, -1.00000000000000, -0.00000000000000 ) );
#205 = DIRECTION( '', ( 0.00000000000000, 0.00000000000000, 1.00000000000000 ) );
#206 = SURFACE_STYLE_FILL_AREA( #257 );
#207 = ORIENTED_EDGE( '', *, *, #250, .T. );
#208 = ORIENTED_EDGE( '', *, *, #256, .F. );
#209 = ORIENTED_EDGE( '', *, *, #236, .F. );
#210 = ORIENTED_EDGE( '', *, *, #258, .F. );
#211 = ORIENTED_EDGE( '', *, *, #227, .F. );
#212 = ORIENTED_EDGE( '', *, *, #232, .F. );
#213 = ORIENTED_EDGE( '', *, *, #241, .T. );
#214 = ORIENTED_EDGE( '', *, *, #254, .F. );
#215 = CARTESIAN_POINT( '', ( 0.0376000000000000, -0.0850000000000000, 0.0604857864376269 ) );
#216 = DIRECTION( '', ( 0.00000000000000, -1.00000000000000, 0.00000000000000 ) );
#217 = DIRECTION( '', ( 1.00000000000000, 0.00000000000000, 0.00000000000000 ) );
#218 = SURFACE_STYLE_FILL_AREA( #259 );
#219 = ORIENTED_EDGE( '', *, *, #258, .T. );
#220 = ORIENTED_EDGE( '', *, *, #239, .F. );
#221 = ORIENTED_EDGE( '', *, *, #247, .F. );
#222 = ORIENTED_EDGE( '', *, *, #228, .T. );
#223 = CARTESIAN_POINT( '', ( -0.0824000000000000, -0.0870000000000000, 0.0129857864376269 ) );
#224 = DIRECTION( '', ( -0.00000000000000, -1.00000000000000, -0.00000000000000 ) );
#225 = DIRECTION( '', ( 0.00000000000000, 0.00000000000000, 1.00000000000000 ) );
#226 = FILL_AREA_STYLE( '', ( #260 ) );
#227 = EDGE_CURVE( '', #261, #262, #263, .T. );
#228 = EDGE_CURVE( '', #264, #262, #265, .T. );
#229 = EDGE_CURVE( '', #266, #264, #267, .T. );
#230 = EDGE_CURVE( '', #266, #261, #268, .T. );
#231 = FILL_AREA_STYLE( '', ( #269 ) );
#232 = EDGE_CURVE( '', #270, #261, #271, .T. );
#233 = EDGE_CURVE( '', #272, #266, #273, .T. );
#234 = EDGE_CURVE( '', #272, #270, #274, .T. );
#235 = FILL_AREA_STYLE( '', ( #275 ) );
#236 = EDGE_CURVE( '', #276, #277, #278, .T. );
#237 = EDGE_CURVE( '', #279, #277, #280, .T. );
#238 = EDGE_CURVE( '', #281, #279, #282, .T. );
#239 = EDGE_CURVE( '', #281, #276, #283, .T. );
#240 = FILL_AREA_STYLE( '', ( #284 ) );
#241 = EDGE_CURVE( '', #270, #285, #286, .T. );
#242 = EDGE_CURVE( '', #272, #287, #288, .T. );
#243 = EDGE_CURVE( '', #287, #285, #289, .T. );
#244 = FILL_AREA_STYLE( '', ( #290 ) );
#245 = EDGE_CURVE( '', #291, #292, #293, .T. );
#246 = EDGE_CURVE( '', #291, #287, #294, .T. );
#247 = EDGE_CURVE( '', #264, #281, #295, .T. );
#248 = EDGE_CURVE( '', #279, #292, #296, .T. );
#249 = FILL_AREA_STYLE( '', ( #297 ) );
#250 = EDGE_CURVE( '', #298, #299, #300, .T. );
#251 = EDGE_CURVE( '', #291, #298, #301, .T. );
#252 = EDGE_CURVE( '', #292, #299, #302, .T. );
#253 = FILL_AREA_STYLE( '', ( #303 ) );
#254 = EDGE_CURVE( '', #298, #285, #304, .T. );
#255 = FILL_AREA_STYLE( '', ( #305 ) );
#256 = EDGE_CURVE( '', #277, #299, #306, .T. );
#257 = FILL_AREA_STYLE( '', ( #307 ) );
#258 = EDGE_CURVE( '', #262, #276, #308, .T. );
#259 = FILL_AREA_STYLE( '', ( #309 ) );
#260 = FILL_AREA_STYLE_COLOUR( '', #310 );
#261 = VERTEX_POINT( '', #311 );
#262 = VERTEX_POINT( '', #312 );
#263 = LINE( '', #313, #314 );
#264 = VERTEX_POINT( '', #315 );
#265 = LINE( '', #316, #317 );
#266 = VERTEX_POINT( '', #318 );
#267 = LINE( '', #319, #320 );
#268 = LINE( '', #321, #322 );
#269 = FILL_AREA_STYLE_COLOUR( '', #323 );
#270 = VERTEX_POINT( '', #324 );
#271 = CIRCLE( '', #325, 0.0100000000000000 );
#272 = VERTEX_POINT( '', #326 );
#273 = CIRCLE( '', #327, 0.0100000000000000 );
#274 = LINE( '', #328, #329 );
#275 = FILL_AREA_STYLE_COLOUR( '', #330 );
#276 = VERTEX_POINT( '', #331 );
#277 = VERTEX_POINT( '', #332 );
#278 = LINE( '', #333, #334 );
#279 = VERTEX_POINT( '', #335 );
#280 = LINE( '', #336, #337 );
#281 = VERTEX_POINT( '', #338 );
#282 = LINE( '', #339, #340 );
#283 = LINE( '', #341, #342 );
#284 = FILL_AREA_STYLE_COLOUR( '', #343 );
#285 = VERTEX_POINT( '', #344 );
#286 = LINE( '', #345, #346 );
#287 = VERTEX_POINT( '', #347 );
#288 = LINE( '', #348, #349 );
#289 = LINE( '', #350, #351 );
#290 = FILL_AREA_STYLE_COLOUR( '', #352 );
#291 = VERTEX_POINT( '', #353 );
#292 = VERTEX_POINT( '', #354 );
#293 = LINE( '', #355, #356 );
#294 = CIRCLE( '', #357, 0.0100000000000000 );
#295 = CIRCLE( '', #358, 0.0100000000000000 );
#296 = CIRCLE( '', #359, 0.0100000000000000 );
#297 = FILL_AREA_STYLE_COLOUR( '', #360 );
#298 = VERTEX_POINT( '', #361 );
#299 = VERTEX_POINT( '', #362 );
#300 = LINE( '', #363, #364 );
#301 = LINE( '', #365, #366 );
#302 = LINE( '', #367, #368 );
#303 = FILL_AREA_STYLE_COLOUR( '', #369 );
#304 = CIRCLE( '', #370, 0.0100000000000000 );
#305 = FILL_AREA_STYLE_COLOUR( '', #371 );
#306 = CIRCLE( '', #372, 0.0100000000000000 );
#307 = FILL_AREA_STYLE_COLOUR( '', #373 );
#308 = CIRCLE( '', #374, 0.0100000000000000 );
#309 = FILL_AREA_STYLE_COLOUR( '', #375 );
#310 = COLOUR_RGB( '', 0.231372550100000, 0.380392164000000, 0.705882370500000 );
#311 = CARTESIAN_POINT( '', ( -0.0924000000000000, -0.0850000000000000, 0.107985786437627 ) );
#312 = CARTESIAN_POINT( '', ( -0.0924000000000000, -0.0850000000000000, 0.0129857864376269 ) );
#313 = CARTESIAN_POINT( '', ( -0.0924000000000000, -0.0850000000000000, 0.0604857864376268 ) );
#314 = VECTOR( '', #376, 1.00000000000000 );
#315 = CARTESIAN_POINT( '', ( -0.0924000000000000, -0.0870000000000000, 0.0129857864376269 ) );
#316 = CARTESIAN_POINT( '', ( -0.0924000000000000, -0.0870000000000000, 0.0129857864376269 ) );
#317 = VECTOR( '', #377, 1.00000000000000 );
#318 = CARTESIAN_POINT( '', ( -0.0924000000000000, -0.0870000000000000, 0.107985786437627 ) );
#319 = CARTESIAN_POINT( '', ( -0.0924000000000000, -0.0870000000000000, 0.0604857864376268 ) );
#320 = VECTOR( '', #378, 1.00000000000000 );
#321 = CARTESIAN_POINT( '', ( -0.0924000000000000, -0.0870000000000000, 0.107985786437627 ) );
#322 = VECTOR( '', #379, 1.00000000000000 );
#323 = COLOUR_RGB( '', 0.231372550100000, 0.380392164000000, 0.705882370500000 );
#324 = CARTESIAN_POINT( '', ( -0.0824000000000000, -0.0850000000000000, 0.117985786437627 ) );
#325 = AXIS2_PLACEMENT_3D( '', #380, #381, #382 );
#326 = CARTESIAN_POINT( '', ( -0.0824000000000000, -0.0870000000000000, 0.117985786437627 ) );
#327 = AXIS2_PLACEMENT_3D( '', #383, #384, #385 );
#328 = CARTESIAN_POINT( '', ( -0.0824000000000000, -0.0870000000000000, 0.117985786437627 ) );
#329 = VECTOR( '', #386, 1.00000000000000 );
#330 = COLOUR_RGB( '', 0.231372550100000, 0.380392164000000, 0.705882370500000 );
#331 = CARTESIAN_POINT( '', ( -0.0824000000000000, -0.0850000000000000, 0.00298578643762692 ) );
#332 = CARTESIAN_POINT( '', ( 0.157600000000000, -0.0850000000000000, 0.00298578643762692 ) );
#333 = CARTESIAN_POINT( '', ( 0.0376000000000000, -0.0850000000000000, 0.00298578643762692 ) );
#334 = VECTOR( '', #387, 1.00000000000000 );
#335 = CARTESIAN_POINT( '', ( 0.157600000000000, -0.0870000000000000, 0.00298578643762692 ) );
#336 = CARTESIAN_POINT( '', ( 0.157600000000000, -0.0870000000000000, 0.00298578643762692 ) );
#337 = VECTOR( '', #388, 1.00000000000000 );
#338 = CARTESIAN_POINT( '', ( -0.0824000000000000, -0.0870000000000000, 0.00298578643762692 ) );
#339 = CARTESIAN_POINT( '', ( 0.0376000000000000, -0.0870000000000000, 0.00298578643762692 ) );
#340 = VECTOR( '', #389, 1.00000000000000 );
#341 = CARTESIAN_POINT( '', ( -0.0824000000000000, -0.0870000000000000, 0.00298578643762692 ) );
#342 = VECTOR( '', #390, 1.00000000000000 );
#343 = COLOUR_RGB( '', 0.231372550100000, 0.380392164000000, 0.705882370500000 );
#344 = CARTESIAN_POINT( '', ( 0.157600000000000, -0.0850000000000000, 0.117985786437627 ) );
#345 = CARTESIAN_POINT( '', ( 0.0376000000000000, -0.0850000000000000, 0.117985786437627 ) );
#346 = VECTOR( '', #391, 1.00000000000000 );
#347 = CARTESIAN_POINT( '', ( 0.157600000000000, -0.0870000000000000, 0.117985786437627 ) );
#348 = CARTESIAN_POINT( '', ( 0.0376000000000000, -0.0870000000000000, 0.117985786437627 ) );
#349 = VECTOR( '', #392, 1.00000000000000 );
#350 = CARTESIAN_POINT( '', ( 0.157600000000000, -0.0870000000000000, 0.117985786437627 ) );
#351 = VECTOR( '', #393, 1.00000000000000 );
#352 = COLOUR_RGB( '', 0.231372550100000, 0.380392164000000, 0.705882370500000 );
#353 = CARTESIAN_POINT( '', ( 0.167600000000000, -0.0870000000000000, 0.107985786437627 ) );
#354 = CARTESIAN_POINT( '', ( 0.167600000000000, -0.0870000000000000, 0.0129857864376270 ) );
#355 = CARTESIAN_POINT( '', ( 0.167600000000000, -0.0870000000000000, 0.0604857864376269 ) );
#356 = VECTOR( '', #394, 1.00000000000000 );
#357 = AXIS2_PLACEMENT_3D( '', #395, #396, #397 );
#358 = AXIS2_PLACEMENT_3D( '', #398, #399, #400 );
#359 = AXIS2_PLACEMENT_3D( '', #401, #402, #403 );
#360 = COLOUR_RGB( '', 0.231372550100000, 0.380392164000000, 0.705882370500000 );
#361 = CARTESIAN_POINT( '', ( 0.167600000000000, -0.0850000000000000, 0.107985786437627 ) );
#362 = CARTESIAN_POINT( '', ( 0.167600000000000, -0.0850000000000000, 0.0129857864376270 ) );
#363 = CARTESIAN_POINT( '', ( 0.167600000000000, -0.0850000000000000, 0.0604857864376269 ) );
#364 = VECTOR( '', #404, 1.00000000000000 );
#365 = CARTESIAN_POINT( '', ( 0.167600000000000, -0.0870000000000000, 0.107985786437627 ) );
#366 = VECTOR( '', #405, 1.00000000000000 );
#367 = CARTESIAN_POINT( '', ( 0.167600000000000, -0.0870000000000000, 0.0129857864376270 ) );
#368 = VECTOR( '', #406, 1.00000000000000 );
#369 = COLOUR_RGB( '', 0.231372550100000, 0.380392164000000, 0.705882370500000 );
#370 = AXIS2_PLACEMENT_3D( '', #407, #408, #409 );
#371 = COLOUR_RGB( '', 0.231372550100000, 0.380392164000000, 0.705882370500000 );
#372 = AXIS2_PLACEMENT_3D( '', #410, #411, #412 );
#373 = COLOUR_RGB( '', 0.231372550100000, 0.380392164000000, 0.705882370500000 );
#374 = AXIS2_PLACEMENT_3D( '', #413, #414, #415 );
#375 = COLOUR_RGB( '', 0.231372550100000, 0.380392164000000, 0.705882370500000 );
#376 = DIRECTION( '', ( 0.00000000000000, 0.00000000000000, -1.00000000000000 ) );
#377 = DIRECTION( '', ( 0.00000000000000, 1.00000000000000, 0.00000000000000 ) );
#378 = DIRECTION( '', ( 0.00000000000000, 0.00000000000000, -1.00000000000000 ) );
#379 = DIRECTION( '', ( 0.00000000000000, 1.00000000000000, 0.00000000000000 ) );
#380 = CARTESIAN_POINT( '', ( -0.0824000000000000, -0.0850000000000000, 0.107985786437627 ) );
#381 = DIRECTION( '', ( 0.00000000000000, -1.00000000000000, 0.00000000000000 ) );
#382 = DIRECTION( '', ( 0.00000000000000, 0.00000000000000, -1.00000000000000 ) );
#383 = CARTESIAN_POINT( '', ( -0.0824000000000000, -0.0870000000000000, 0.107985786437627 ) );
#384 = DIRECTION( '', ( 0.00000000000000, -1.00000000000000, 0.00000000000000 ) );
#385 = DIRECTION( '', ( 0.00000000000000, 0.00000000000000, -1.00000000000000 ) );
#386 = DIRECTION( '', ( 0.00000000000000, 1.00000000000000, 0.00000000000000 ) );
#387 = DIRECTION( '', ( 1.00000000000000, 0.00000000000000, 0.00000000000000 ) );
#388 = DIRECTION( '', ( 0.00000000000000, 1.00000000000000, 0.00000000000000 ) );
#389 = DIRECTION( '', ( 1.00000000000000, 0.00000000000000, 0.00000000000000 ) );
#390 = DIRECTION( '', ( 0.00000000000000, 1.00000000000000, 0.00000000000000 ) );
#391 = DIRECTION( '', ( 1.00000000000000, 0.00000000000000, 0.00000000000000 ) );
#392 = DIRECTION( '', ( 1.00000000000000, 0.00000000000000, 0.00000000000000 ) );
#393 = DIRECTION( '', ( 0.00000000000000, 1.00000000000000, 0.00000000000000 ) );
#394 = DIRECTION( '', ( 5.84327907697452E-16, 0.00000000000000, -1.00000000000000 ) );
#395 = CARTESIAN_POINT( '', ( 0.157600000000000, -0.0870000000000000, 0.107985786437627 ) );
#396 = DIRECTION( '', ( 0.00000000000000, -1.00000000000000, 0.00000000000000 ) );
#397 = DIRECTION( '', ( 0.00000000000000, 0.00000000000000, -1.00000000000000 ) );
#398 = CARTESIAN_POINT( '', ( -0.0824000000000000, -0.0870000000000000, 0.0129857864376269 ) );
#399 = DIRECTION( '', ( 0.00000000000000, -1.00000000000000, 0.00000000000000 ) );
#400 = DIRECTION( '', ( 0.00000000000000, 0.00000000000000, -1.00000000000000 ) );
#401 = CARTESIAN_POINT( '', ( 0.157600000000000, -0.0870000000000000, 0.0129857864376270 ) );
#402 = DIRECTION( '', ( 0.00000000000000, -1.00000000000000, 0.00000000000000 ) );
#403 = DIRECTION( '', ( 0.00000000000000, 0.00000000000000, -1.00000000000000 ) );
#404 = DIRECTION( '', ( 5.84327907697452E-16, 0.00000000000000, -1.00000000000000 ) );
#405 = DIRECTION( '', ( 0.00000000000000, 1.00000000000000, 0.00000000000000 ) );
#406 = DIRECTION( '', ( 0.00000000000000, 1.00000000000000, 0.00000000000000 ) );
#407 = CARTESIAN_POINT( '', ( 0.157600000000000, -0.0850000000000000, 0.107985786437627 ) );
#408 = DIRECTION( '', ( 0.00000000000000, -1.00000000000000, 0.00000000000000 ) );
#409 = DIRECTION( '', ( 0.00000000000000, 0.00000000000000, -1.00000000000000 ) );
#410 = CARTESIAN_POINT( '', ( 0.157600000000000, -0.0850000000000000, 0.0129857864376270 ) );
#411 = DIRECTION( '', ( 0.00000000000000, -1.00000000000000, 0.00000000000000 ) );
#412 = DIRECTION( '', ( 0.00000000000000, 0.00000000000000, -1.00000000000000 ) );
#413 = CARTESIAN_POINT( '', ( -0.0824000000000000, -0.0850000000000000, 0.0129857864376269 ) );
#414 = DIRECTION( '', ( 0.00000000000000, -1.00000000000000, 0.00000000000000 ) );
#415 = DIRECTION( '', ( 0.00000000000000, 0.00000000000000, -1.00000000000000 ) );
ENDSEC;
END-ISO-10303-21;
